lab7_1/simulation/qsim/lab7_1.msim.vcd
$comment
	File created using the following command:
		vcd file lab7_1.msim.vcd -direction
$end
$date
	Fri May 17 09:12:24 2019
$end
$version
	ModelSim Version 10.5b
$end
$timescale
	1ps
$end

$scope module lab7_1_vlg_vec_tst $end
$var reg 2 ! a [1:0] $end
$var reg 2 " b [1:0] $end
$var reg 2 # c [1:0] $end
$var reg 1 $ clk $end
$var reg 2 % d [1:0] $end
$var reg 1 & rst $end
$var wire 1 ' led_1_1 $end
$var wire 1 ( led_1_0 $end
$var wire 1 ) led_0_1 $end
$var wire 1 * led_0_0 $end

$scope module i1 $end
$var wire 1 + gnd $end
$var wire 1 , vcc $end
$var wire 1 - unknown $end
$var tri1 1 . devclrn $end
$var tri1 1 / devpor $end
$var tri1 1 0 devoe $end
$var wire 1 1 led[0][0]~output_o $end
$var wire 1 2 led[0][1]~output_o $end
$var wire 1 3 led[1][0]~output_o $end
$var wire 1 4 led[1][1]~output_o $end
$var wire 1 5 clk~input_o $end
$var wire 1 6 a[1]~input_o $end
$var wire 1 7 b[1]~input_o $end
$var wire 1 8 LessThan0~0_combout $end
$var wire 1 9 rst~input_o $end
$var wire 1 : c[1]~input_o $end
$var wire 1 ; d[1]~input_o $end
$var wire 1 < LessThan1~0_combout $end
$var wire 1 = c[0]~input_o $end
$var wire 1 > d[0]~input_o $end
$var wire 1 ? res~4_combout $end
$var wire 1 @ a[0]~input_o $end
$var wire 1 A b[0]~input_o $end
$var wire 1 B res~5_combout $end
$var wire 1 C res~0_combout $end
$var wire 1 D res~1_combout $end
$var wire 1 E res~6_combout $end
$var wire 1 F res~7_combout $end
$var wire 1 G res~8_combout $end
$var wire 1 H res~9_combout $end
$var wire 1 I res~2_combout $end
$var wire 1 J res~3_combout $end
$var wire 1 K mino [1] $end
$var wire 1 L mino [0] $end
$var wire 1 M maxo [1] $end
$var wire 1 N maxo [0] $end
$var wire 1 O min1 [1] $end
$var wire 1 P min1 [0] $end
$var wire 1 Q min2 [1] $end
$var wire 1 R min2 [0] $end
$var wire 1 S max1 [1] $end
$var wire 1 T max1 [0] $end
$var wire 1 U max2 [1] $end
$var wire 1 V max2 [0] $end
$upscope $end
$upscope $end
$enddefinitions $end
#0
$dumpvars
b0 !
b0 "
b0 #
0$
b0 %
1&
z'
z(
z)
z*
0+
1,
x-
1.
1/
10
01
02
03
04
05
06
07
08
19
0:
0;
0<
0=
0>
0?
0@
0A
0B
0C
0D
0E
0F
0G
0H
0I
0J
0L
0K
0N
0M
0P
0O
0R
0Q
0T
0S
0V
0U
$end
#10000
1$
15
#20000
b1 %
0$
1>
05
1H
#30000
1$
15
1V
1I
#40000
b1 #
b11 %
b10 %
0$
0>
1;
1=
05
0H
1?
1G
#50000
1$
15
0V
1U
1R
1N
13
1J
0I
#60000
b11 %
0$
1>
05
1H
#70000
1$
15
1V
1M
0N
03
14
1I
#80000
b1 "
b11 #
b10 #
b1 %
b0 %
0$
0>
0;
0=
1:
1A
05
1E
0H
0?
#90000
1$
15
0V
1T
0R
1N
13
0I
#100000
b1 %
0$
1>
05
1?
#110000
1$
15
1R
0N
03
#120000
b11 #
b11 %
b10 %
0$
0>
1;
1=
05
1H
0?
1<
#130000
1$
15
1V
0R
1Q
1I
#140000
b11 %
0$
1>
05
1?
#150000
1$
15
1R
1N
13
#160000
b1 !
b11 "
b10 "
b1 #
b0 #
b1 %
b0 %
0$
0>
0;
0=
0:
0A
17
1@
05
0E
1B
1F
0H
0G
0?
0<
#170000
1$
15
0V
0U
1S
0T
1P
0R
0Q
0I
#180000
b1 %
0$
1>
05
1H
#190000
1$
15
1V
0N
03
#200000
b1 #
b11 %
b10 %
0$
0>
1;
1=
05
0H
1?
1G
#210000
1$
15
0V
1U
1R
1C
#220000
b11 %
0$
1>
05
1H
#230000
1$
15
1V
1L
11
1I
#240000
b11 "
b11 #
b10 #
b1 %
b0 %
0$
0>
0;
0=
1:
1A
05
1E
0H
0?
#250000
1$
15
0V
1T
0R
1N
13
0C
#260000
b1 %
0$
1>
05
1?
#270000
1$
15
1R
0L
01
1C
#280000
b11 #
b11 %
b10 %
0$
0>
1;
1=
05
1H
0?
1<
#290000
1$
15
1V
0R
1Q
1L
11
#300000
b11 %
0$
1>
05
1?
#310000
1$
15
1R
#320000
b11 !
b10 !
b1 "
b0 "
b1 #
b0 #
b1 %
b0 %
0$
0>
0;
0=
0:
0A
07
0@
16
05
0E
0B
0H
0G
0?
0<
#330000
1$
15
0V
0U
0T
0P
0R
0Q
0C
0I
#340000
b1 %
0$
1>
05
1H
#350000
1$
15
1V
0N
0L
01
03
#360000
b1 #
b11 %
b10 %
0$
0>
1;
1=
05
0H
1?
1G
#370000
1$
15
0V
1U
1R
#380000
b11 %
0$
1>
05
1H
#390000
1$
15
1V
1I
#400000
b1 "
b11 #
b10 #
b1 %
b0 %
0$
0>
0;
0=
1:
1A
05
1B
0H
0?
#410000
1$
15
0V
1P
0R
1N
13
0I
#420000
b1 %
0$
1>
05
1?
#430000
1$
15
1R
0N
03
1C
#440000
b11 #
b11 %
b10 %
0$
0>
1;
1=
05
1H
0?
1<
#450000
1$
15
1V
0R
1Q
1L
11
1I
#460000
b11 %
0$
1>
05
1?
#470000
1$
15
1R
1N
13
#480000
b11 !
b11 "
b10 "
b1 #
b0 #
b1 %
b0 %
0$
0>
0;
0=
0:
0A
17
1@
05
1E
0B
18
0H
0G
0?
0<
#490000
1$
15
0V
0U
1T
0P
0R
0Q
1O
0C
#500000
b1 %
0$
1>
05
1H
#510000
1$
15
1V
0L
01
#520000
b1 #
b11 %
b10 %
0$
0>
1;
1=
05
0H
1?
1G
#530000
1$
15
0V
1U
1R
1C
#540000
b11 %
0$
1>
05
1H
#550000
1$
15
1V
1L
11
#560000
b11 "
b11 #
b10 #
b1 %
b0 %
0$
0>
0;
0=
1:
1A
05
1B
0H
0?
#570000
1$
15
0V
1P
0R
0C
#580000
b1 %
0$
1>
05
1?
#590000
1$
15
1R
0L
01
1C
#600000
b11 #
b11 %
b10 %
0$
0>
1;
1=
05
1H
0?
1<
#610000
1$
15
1V
0R
1Q
1L
11
1D
0C
#620000
b11 %
0$
1>
05
1?
#630000
1$
15
1R
1K
0L
01
12
1C
#640000
b1 !
b0 !
b1 "
b0 "
b1 #
b0 #
b1 %
b0 %
0$
0>
0;
0=
0:
0A
07
0@
06
05
0F
0E
0B
08
0H
0G
0?
0<
#650000
1$
15
0V
0U
0S
0T
0P
0R
0Q
0O
1L
11
0D
0C
0I
0J
#660000
b1 %
0$
1>
05
1H
#670000
1$
15
1V
0M
0N
0K
0L
01
02
03
04
1I
#680000
b1 #
b11 %
b10 %
0$
0>
1;
1=
05
0H
1?
1G
#690000
1$
15
0V
1U
1R
1N
13
1J
0I
#700000
b11 %
0$
1>
05
1H
#710000
1$
15
1V
1M
0N
03
14
1I
#720000
b1 "
b11 #
b10 #
b1 %
b0 %
0$
0>
0;
0=
1:
1A
05
1E
0H
0?
#730000
1$
15
0V
1T
0R
1N
13
0I
#740000
b1 %
0$
1>
05
1?
#750000
1$
15
1R
0N
03
#760000
b11 #
b11 %
b10 %
0$
0>
1;
1=
05
1H
0?
1<
#770000
1$
15
1V
0R
1Q
1I
#780000
b11 %
0$
1>
05
1?
#790000
1$
15
1R
1N
13
#800000
b1 !
b11 "
b10 "
b1 #
b0 #
b1 %
b0 %
0$
0>
0;
0=
0:
0A
17
1@
05
0E
1B
1F
0H
0G
0?
0<
#810000
1$
15
0V
0U
1S
0T
1P
0R
0Q
0I
#820000
b1 %
0$
1>
05
1H
#830000
1$
15
1V
0N
03
#840000
b1 #
b11 %
b10 %
0$
0>
1;
1=
05
0H
1?
1G
#850000
1$
15
0V
1U
1R
1C
#860000
b11 %
0$
1>
05
1H
#870000
1$
15
1V
1L
11
1I
#880000
b11 "
b11 #
b10 #
b1 %
b0 %
0$
0>
0;
0=
1:
1A
05
1E
0H
0?
#890000
1$
15
0V
1T
0R
1N
13
0C
#900000
b1 %
0$
1>
05
1?
#910000
1$
15
1R
0L
01
1C
#920000
b11 #
b11 %
b10 %
0$
0>
1;
1=
05
1H
0?
1<
#930000
1$
15
1V
0R
1Q
1L
11
#940000
b11 %
0$
1>
05
1?
#950000
1$
15
1R
#960000
b11 !
b10 !
b1 "
b0 "
b1 #
b0 #
b1 %
b0 %
0$
0>
0;
0=
0:
0A
07
0@
16
05
0E
0B
0H
0G
0?
0<
#970000
1$
15
0V
0U
0T
0P
0R
0Q
0C
0I
#980000
b1 %
0$
1>
05
1H
#990000
1$
15
1V
0N
0L
01
03
