labs/lab8/lab_m4/transcript
# Compile of tcounter.v was successful.
# can't read "Startup(-L)": no such element in array
# Load canceled
vsim work.test_counter
# vsim work.test_counter 
# Start time: 17:26:48 on May 19,2019
# Loading work.test_counter
# ** Error: (vsim-3033) C:/Users/123/YandexDisk/9 Egorov/vesna/lab_m5/testbench/tcounter.v(16): Instantiation of 'counter' failed. The design unit was not found.
#    Time: 0 ps  Iteration: 0  Instance: /test_counter File: C:/Users/123/YandexDisk/9 Egorov/vesna/lab_m5/testbench/tcounter.v
#         Searched libraries:
#             C:/Users/123/YandexDisk/9 Egorov/vesna/lab_m5/testbench/work
# Error loading design
# End time: 17:26:49 on May 19,2019, Elapsed time: 0:00:01
# Errors: 1, Warnings: 0
# Load canceled
vsim work.test_counter
# vsim work.test_counter 
# Start time: 17:36:42 on May 19,2019
# Loading work.test_counter
# ** Error: (vsim-3033) C:/Users/123/YandexDisk/9 Egorov/vesna/lab_m5/testbench/tcounter.v(16): Instantiation of 'counter' failed. The design unit was not found.
#    Time: 0 ps  Iteration: 0  Instance: /test_counter File: C:/Users/123/YandexDisk/9 Egorov/vesna/lab_m5/testbench/tcounter.v
#         Searched libraries:
#             C:/Users/123/YandexDisk/9 Egorov/vesna/lab_m5/testbench/work
# Error loading design
# End time: 17:36:43 on May 19,2019, Elapsed time: 0:00:01
# Errors: 1, Warnings: 0
# reading C:/intelFPGA/16.1/modelsim_ase/win32aloem/../modelsim.ini
cd {C:/Users/123/YandexDisk/9 Egorov/vesna/lab_m3}
# reading modelsim.ini
vsim work.test_counter
# vsim work.test_counter 
# Start time: 17:45:12 on May 19,2019
# Loading work.test_counter
# Loading work.counter
add wave *
run 500
#          0 0 0    x
#          5 1 0    x
#          8 1 0    0
#          9 0 0    0
#         10 0 1    0
#         12 0 1    1
#         20 0 0    1
#         30 0 1    1
#         32 0 1    2
#         40 0 0    2
#         50 0 1    2
#         52 0 1    3
#         60 0 0    3
#         70 0 1    3
#         72 0 1    4
#         80 0 0    4
#         90 0 1    4
#         92 0 1    5
#        100 0 0    5
#        110 0 1    5
#        112 0 1    6
#        120 0 0    6
#        130 0 1    6
#        132 0 1    7
#        140 0 0    7
#        150 0 1    7
#        152 0 1    8
#        160 0 0    8
#        170 0 1    8
#        172 0 1    9
#        180 0 0    9
#        190 0 1    9
#        192 0 1   10
#        200 0 0   10
#        210 0 1   10
#        212 0 1   11
#        220 0 0   11
#        230 0 1   11
#        232 0 1   12
#        240 0 0   12
#        250 0 1   12
#        252 0 1   13
#        260 0 0   13
#        270 0 1   13
#        272 0 1   14
#        280 0 0   14
#        290 0 1   14
#        292 0 1   15
#        300 0 0   15
#        310 0 1   15
#        312 0 1   16
#        320 0 0   16
#        330 0 1   16
#        332 0 1   17
#        340 0 0   17
#        350 0 1   17
#        352 0 1   18
#        360 0 0   18
#        370 0 1   18
#        372 0 1   19
#        380 0 0   19
#        390 0 1   19
#        392 0 1   20
#        400 0 0   20
#        410 0 1   20
#        412 0 1   21
#        420 0 0   21
#        430 0 1   21
#        432 0 1   22
#        440 0 0   22
#        450 0 1   22
#        452 0 1   23
#        460 0 0   23
#        470 0 1   23
#        472 0 1   24
#        480 0 0   24
#        490 0 1   24
#        492 0 1   25
# End time: 18:47:56 on May 19,2019, Elapsed time: 1:02:44
# Errors: 0, Warnings: 0
