labs/lab1/lab1_2/simulation/qsim/lab1_2.msim.vcd
$comment
	File created using the following command:
		vcd file lab1_2.msim.vcd -direction
$end
$date
	Fri Feb 22 13:49:22 2019
$end
$version
	ModelSim Version 10.5b
$end
$timescale
	1ps
$end

$scope module lab1_2_vlg_vec_tst $end
$var reg 1 ! key $end
$var reg 1 " sw_0_3 $end
$var reg 1 # sw_0_2 $end
$var reg 1 $ sw_0_1 $end
$var reg 1 % sw_0_0 $end
$var reg 1 & sw_1_3 $end
$var reg 1 ' sw_1_2 $end
$var reg 1 ( sw_1_1 $end
$var reg 1 ) sw_1_0 $end
$var wire 1 * led [3] $end
$var wire 1 + led [2] $end
$var wire 1 , led [1] $end
$var wire 1 - led [0] $end

$scope module i1 $end
$var wire 1 . gnd $end
$var wire 1 / vcc $end
$var wire 1 0 unknown $end
$var tri1 1 1 devclrn $end
$var tri1 1 2 devpor $end
$var tri1 1 3 devoe $end
$var wire 1 4 led[0]~output_o $end
$var wire 1 5 led[1]~output_o $end
$var wire 1 6 led[2]~output_o $end
$var wire 1 7 led[3]~output_o $end
$var wire 1 8 sw[0][0]~input_o $end
$var wire 1 9 key~input_o $end
$var wire 1 : sw[1][0]~input_o $end
$var wire 1 ; led~0_combout $end
$var wire 1 < sw[0][1]~input_o $end
$var wire 1 = sw[1][1]~input_o $end
$var wire 1 > led~1_combout $end
$var wire 1 ? sw[0][2]~input_o $end
$var wire 1 @ sw[1][2]~input_o $end
$var wire 1 A led~2_combout $end
$var wire 1 B sw[0][3]~input_o $end
$var wire 1 C sw[1][3]~input_o $end
$var wire 1 D led~3_combout $end
$upscope $end
$upscope $end
$enddefinitions $end
#0
$dumpvars
0!
0"
0#
0$
0%
0&
0'
1(
1)
1-
1,
0+
0*
0.
1/
x0
11
12
13
14
15
06
07
08
09
1:
1;
0<
1=
1>
0?
0@
0A
0B
0C
0D
$end
#20000
1!
19
0>
0;
04
05
0,
0-
#40000
1%
1'
0(
0)
0!
18
1@
0=
0:
09
1A
16
1+
#60000
1!
19
0A
1;
14
06
0+
1-
#80000
1$
0%
1)
0!
1<
08
1:
09
1A
16
1+
#100000
1!
19
0A
1>
0;
04
15
06
0+
1,
0-
#120000
1(
1%
0)
0!
1=
18
0:
09
1A
16
1+
#140000
1!
19
0A
1;
14
06
0+
1-
#160000
1#
0$
0%
1)
0!
1?
0<
08
1:
09
1A
16
1+
#180000
1!
19
0>
0;
04
05
0,
0-
#200000
1&
0'
0(
1%
0)
0!
1C
0@
0=
18
0:
09
1D
0A
06
17
1*
0+
#220000
1!
19
0D
1A
1;
14
16
07
0*
1+
1-
#240000
1$
0%
1)
0!
1<
08
1:
09
1D
0A
06
17
1*
0+
#260000
1!
19
0D
1A
1>
0;
04
15
16
07
0*
1+
1,
0-
#280000
1(
1%
0)
0!
1=
18
0:
09
1D
0A
06
17
1*
0+
#300000
1!
19
0D
1A
1;
14
16
07
0*
1+
1-
#320000
1"
0#
0$
0%
1)
0!
1B
0?
0<
08
1:
09
1D
0A
06
17
1*
0+
#340000
1!
19
0>
0;
04
05
0,
0-
#360000
1'
0(
1%
0)
0!
1@
0=
18
0:
09
1A
16
1+
#380000
1!
19
0A
1;
14
06
0+
1-
#400000
1$
0%
1)
0!
1<
08
1:
09
1A
16
1+
#420000
1!
19
0A
1>
0;
04
15
06
0+
1,
0-
#440000
1(
1%
0)
0!
1=
18
0:
09
1A
16
1+
#460000
1!
19
0A
1;
14
06
0+
1-
#480000
1#
0$
0%
1)
0!
1?
0<
08
1:
09
1A
16
1+
#500000
1!
19
0>
0;
04
05
0,
0-
#520000
0&
0'
0(
1%
0)
0!
0C
0@
0=
18
0:
09
0D
0A
06
07
0*
0+
#540000
1!
19
1D
1A
1;
14
16
17
1*
1+
1-
#560000
1$
0%
1)
0!
1<
08
1:
09
0D
0A
06
07
0*
0+
#580000
1!
19
1D
1A
1>
0;
04
15
16
17
1*
1+
1,
0-
#600000
1(
1%
0)
0!
1=
18
0:
09
0D
0A
06
07
0*
0+
#620000
1!
19
1D
1A
1;
14
16
17
1*
1+
1-
#640000
0"
0#
0$
0%
1)
0!
0B
0?
0<
08
1:
09
0D
0A
06
07
0*
0+
#660000
1!
19
0>
0;
04
05
0,
0-
#680000
1'
0(
1%
0)
0!
1@
0=
18
0:
09
1A
16
1+
#700000
1!
19
0A
1;
14
06
0+
1-
#720000
1$
0%
1)
0!
1<
08
1:
09
1A
16
1+
#740000
1!
19
0A
1>
0;
04
15
06
0+
1,
0-
#760000
1(
1%
0)
0!
1=
18
0:
09
1A
16
1+
#780000
1!
19
0A
1;
14
06
0+
1-
#800000
1#
0$
0%
1)
0!
1?
0<
08
1:
09
1A
16
1+
#820000
1!
19
0>
0;
04
05
0,
0-
#840000
1&
0'
0(
1%
0)
0!
1C
0@
0=
18
0:
09
1D
0A
06
17
1*
0+
#860000
1!
19
0D
1A
1;
14
16
07
0*
1+
1-
#880000
1$
0%
1)
0!
1<
08
1:
09
1D
0A
06
17
1*
0+
#900000
1!
19
0D
1A
1>
0;
04
15
16
07
0*
1+
1,
0-
#920000
1(
1%
0)
0!
1=
18
0:
09
1D
0A
06
17
1*
0+
#940000
1!
19
0D
1A
1;
14
16
07
0*
1+
1-
#960000
1"
0#
0$
0%
1)
0!
1B
0?
0<
08
1:
09
1D
0A
06
17
1*
0+
#980000
1!
19
0>
0;
04
05
0,
0-
