labs/lab4/lab4_1/simulation/qsim/lab4_1.msim.vcd
$comment
	File created using the following command:
		vcd file lab4_1.msim.vcd -direction
$end
$date
	Sun Nov 26 18:39:13 2017
$end
$version
	ModelSim Version 10.1d
$end
$timescale
	1ps
$end
$scope module lab4_1_vhd_vec_tst $end
$var wire 1 ! clk $end
$var wire 1 " cout $end
$var wire 1 # div_cnt [24] $end
$var wire 1 $ div_cnt [23] $end
$var wire 1 % div_cnt [22] $end
$var wire 1 & div_cnt [21] $end
$var wire 1 ' div_cnt [20] $end
$var wire 1 ( div_cnt [19] $end
$var wire 1 ) div_cnt [18] $end
$var wire 1 * div_cnt [17] $end
$var wire 1 + div_cnt [16] $end
$var wire 1 , div_cnt [15] $end
$var wire 1 - div_cnt [14] $end
$var wire 1 . div_cnt [13] $end
$var wire 1 / div_cnt [12] $end
$var wire 1 0 div_cnt [11] $end
$var wire 1 1 div_cnt [10] $end
$var wire 1 2 div_cnt [9] $end
$var wire 1 3 div_cnt [8] $end
$var wire 1 4 div_cnt [7] $end
$var wire 1 5 div_cnt [6] $end
$var wire 1 6 div_cnt [5] $end
$var wire 1 7 div_cnt [4] $end
$var wire 1 8 div_cnt [3] $end
$var wire 1 9 div_cnt [2] $end
$var wire 1 : div_cnt [1] $end
$var wire 1 ; div_cnt [0] $end
$var wire 1 < key [1] $end
$var wire 1 = key [0] $end
$var wire 1 > led [3] $end
$var wire 1 ? led [2] $end
$var wire 1 @ led [1] $end
$var wire 1 A led [0] $end
$var wire 1 B q [3] $end
$var wire 1 C q [2] $end
$var wire 1 D q [1] $end
$var wire 1 E q [0] $end
$var wire 1 F sw [3] $end
$var wire 1 G sw [2] $end
$var wire 1 H sw [1] $end
$var wire 1 I sw [0] $end
$var wire 1 J swd [1] $end
$var wire 1 K swd [0] $end
$scope module i1 $end
$var wire 1 L gnd $end
$var wire 1 M vcc $end
$var wire 1 N unknown $end
$var wire 1 O devoe $end
$var wire 1 P devclrn $end
$var wire 1 Q devpor $end
$var wire 1 R ww_devoe $end
$var wire 1 S ww_devclrn $end
$var wire 1 T ww_devpor $end
$var wire 1 U ww_clk $end
$var wire 1 V ww_sw [3] $end
$var wire 1 W ww_sw [2] $end
$var wire 1 X ww_sw [1] $end
$var wire 1 Y ww_sw [0] $end
$var wire 1 Z ww_swd [1] $end
$var wire 1 [ ww_swd [0] $end
$var wire 1 \ ww_led [3] $end
$var wire 1 ] ww_led [2] $end
$var wire 1 ^ ww_led [1] $end
$var wire 1 _ ww_led [0] $end
$var wire 1 ` ww_key [1] $end
$var wire 1 a ww_key [0] $end
$var wire 1 b ww_cout $end
$var wire 1 c ww_q [3] $end
$var wire 1 d ww_q [2] $end
$var wire 1 e ww_q [1] $end
$var wire 1 f ww_q [0] $end
$var wire 1 g ww_div_cnt [24] $end
$var wire 1 h ww_div_cnt [23] $end
$var wire 1 i ww_div_cnt [22] $end
$var wire 1 j ww_div_cnt [21] $end
$var wire 1 k ww_div_cnt [20] $end
$var wire 1 l ww_div_cnt [19] $end
$var wire 1 m ww_div_cnt [18] $end
$var wire 1 n ww_div_cnt [17] $end
$var wire 1 o ww_div_cnt [16] $end
$var wire 1 p ww_div_cnt [15] $end
$var wire 1 q ww_div_cnt [14] $end
$var wire 1 r ww_div_cnt [13] $end
$var wire 1 s ww_div_cnt [12] $end
$var wire 1 t ww_div_cnt [11] $end
$var wire 1 u ww_div_cnt [10] $end
$var wire 1 v ww_div_cnt [9] $end
$var wire 1 w ww_div_cnt [8] $end
$var wire 1 x ww_div_cnt [7] $end
$var wire 1 y ww_div_cnt [6] $end
$var wire 1 z ww_div_cnt [5] $end
$var wire 1 { ww_div_cnt [4] $end
$var wire 1 | ww_div_cnt [3] $end
$var wire 1 } ww_div_cnt [2] $end
$var wire 1 ~ ww_div_cnt [1] $end
$var wire 1 !! ww_div_cnt [0] $end
$var wire 1 "! \~QUARTUS_CREATED_GND~I_combout\ $end
$var wire 1 #! \clk~input_o\ $end
$var wire 1 $! \clk~inputCLKENA0_outclk\ $end
$var wire 1 %! \swd[1]~input_o\ $end
$var wire 1 &! \sw[0]~input_o\ $end
$var wire 1 '! \key[1]~input_o\ $end
$var wire 1 (! \Mux3~0_combout\ $end
$var wire 1 )! \key[0]~input_o\ $end
$var wire 1 *! \Add0~1_sumout\ $end
$var wire 1 +! \Add0~42\ $end
$var wire 1 ,! \Add0~45_sumout\ $end
$var wire 1 -! \div_cnt[11]~reg0_q\ $end
$var wire 1 .! \Add0~46\ $end
$var wire 1 /! \Add0~49_sumout\ $end
$var wire 1 0! \div_cnt[12]~reg0_q\ $end
$var wire 1 1! \Add0~50\ $end
$var wire 1 2! \Add0~53_sumout\ $end
$var wire 1 3! \div_cnt[13]~reg0_q\ $end
$var wire 1 4! \Add0~54\ $end
$var wire 1 5! \Add0~57_sumout\ $end
$var wire 1 6! \div_cnt[14]~reg0_q\ $end
$var wire 1 7! \Add0~58\ $end
$var wire 1 8! \Add0~61_sumout\ $end
$var wire 1 9! \div_cnt[15]~reg0_q\ $end
$var wire 1 :! \Add0~62\ $end
$var wire 1 ;! \Add0~65_sumout\ $end
$var wire 1 <! \div_cnt[16]~reg0_q\ $end
$var wire 1 =! \Add0~66\ $end
$var wire 1 >! \Add0~69_sumout\ $end
$var wire 1 ?! \div_cnt[17]~reg0_q\ $end
$var wire 1 @! \Equal0~0_combout\ $end
$var wire 1 A! \Add0~70\ $end
$var wire 1 B! \Add0~73_sumout\ $end
$var wire 1 C! \div_cnt[18]~reg0_q\ $end
$var wire 1 D! \Add0~74\ $end
$var wire 1 E! \Add0~77_sumout\ $end
$var wire 1 F! \div_cnt[19]~reg0_q\ $end
$var wire 1 G! \Add0~78\ $end
$var wire 1 H! \Add0~81_sumout\ $end
$var wire 1 I! \div_cnt[20]~reg0_q\ $end
$var wire 1 J! \Add0~82\ $end
$var wire 1 K! \Add0~85_sumout\ $end
$var wire 1 L! \div_cnt[21]~reg0_q\ $end
$var wire 1 M! \Add0~86\ $end
$var wire 1 N! \Add0~89_sumout\ $end
$var wire 1 O! \div_cnt[22]~reg0_q\ $end
$var wire 1 P! \Add0~90\ $end
$var wire 1 Q! \Add0~93_sumout\ $end
$var wire 1 R! \div_cnt[23]~reg0_q\ $end
$var wire 1 S! \Add0~94\ $end
$var wire 1 T! \Add0~97_sumout\ $end
$var wire 1 U! \div_cnt[24]~reg0feeder_combout\ $end
$var wire 1 V! \div_cnt[24]~reg0_q\ $end
$var wire 1 W! \Equal0~2_combout\ $end
$var wire 1 X! \Equal0~1_combout\ $end
$var wire 1 Y! \Equal0~4_combout\ $end
$var wire 1 Z! \div_cnt[0]~reg0_q\ $end
$var wire 1 [! \Add0~2\ $end
$var wire 1 \! \Add0~5_sumout\ $end
$var wire 1 ]! \div_cnt[1]~reg0feeder_combout\ $end
$var wire 1 ^! \div_cnt[1]~reg0DUPLICATE_q\ $end
$var wire 1 _! \Add0~6\ $end
$var wire 1 `! \Add0~9_sumout\ $end
$var wire 1 a! \div_cnt[2]~reg0feeder_combout\ $end
$var wire 1 b! \div_cnt[2]~reg0_q\ $end
$var wire 1 c! \Add0~10\ $end
$var wire 1 d! \Add0~13_sumout\ $end
$var wire 1 e! \div_cnt[3]~reg0_q\ $end
$var wire 1 f! \Add0~14\ $end
$var wire 1 g! \Add0~17_sumout\ $end
$var wire 1 h! \div_cnt[4]~reg0feeder_combout\ $end
$var wire 1 i! \div_cnt[4]~reg0_q\ $end
$var wire 1 j! \Add0~18\ $end
$var wire 1 k! \Add0~21_sumout\ $end
$var wire 1 l! \div_cnt[5]~reg0_q\ $end
$var wire 1 m! \Add0~22\ $end
$var wire 1 n! \Add0~25_sumout\ $end
$var wire 1 o! \div_cnt[6]~reg0feeder_combout\ $end
$var wire 1 p! \div_cnt[6]~reg0_q\ $end
$var wire 1 q! \Add0~26\ $end
$var wire 1 r! \Add0~29_sumout\ $end
$var wire 1 s! \div_cnt[7]~reg0_q\ $end
$var wire 1 t! \Add0~30\ $end
$var wire 1 u! \Add0~33_sumout\ $end
$var wire 1 v! \div_cnt[8]~reg0_q\ $end
$var wire 1 w! \Add0~34\ $end
$var wire 1 x! \Add0~37_sumout\ $end
$var wire 1 y! \div_cnt[9]~reg0_q\ $end
$var wire 1 z! \Add0~38\ $end
$var wire 1 {! \Add0~41_sumout\ $end
$var wire 1 |! \div_cnt[10]~reg0_q\ $end
$var wire 1 }! \Equal0~3_combout\ $end
$var wire 1 ~! \div_cnt[1]~reg0_q\ $end
$var wire 1 !" \Equal1~0_combout\ $end
$var wire 1 "" \cout~reg0_q\ $end
$var wire 1 #" \q[0]~reg0_q\ $end
$var wire 1 $" \swd[0]~input_o\ $end
$var wire 1 %" \q[0]~reg0DUPLICATE_q\ $end
$var wire 1 &" \sw[1]~input_o\ $end
$var wire 1 '" \q[1]~reg0_q\ $end
$var wire 1 (" \Mux2~0_combout\ $end
$var wire 1 )" \q[1]~reg0DUPLICATE_q\ $end
$var wire 1 *" \sw[2]~input_o\ $end
$var wire 1 +" \Add1~0_combout\ $end
$var wire 1 ," \Mux1~0_combout\ $end
$var wire 1 -" \q[2]~reg0_q\ $end
$var wire 1 ." \sw[3]~input_o\ $end
$var wire 1 /" \Add1~1_combout\ $end
$var wire 1 0" \Mux0~0_combout\ $end
$var wire 1 1" \q[3]~reg0_q\ $end
$var wire 1 2" \div_cnt[4]~reg0DUPLICATE_q\ $end
$var wire 1 3" \ALT_INV_Add1~0_combout\ $end
$var wire 1 4" \ALT_INV_q[3]~reg0_q\ $end
$var wire 1 5" \ALT_INV_q[2]~reg0_q\ $end
$var wire 1 6" \ALT_INV_q[1]~reg0_q\ $end
$var wire 1 7" \ALT_INV_q[0]~reg0_q\ $end
$var wire 1 8" \ALT_INV_Add0~97_sumout\ $end
$var wire 1 9" \ALT_INV_Add0~25_sumout\ $end
$var wire 1 :" \ALT_INV_Add0~17_sumout\ $end
$var wire 1 ;" \ALT_INV_Add0~9_sumout\ $end
$var wire 1 <" \ALT_INV_Add0~5_sumout\ $end
$var wire 1 =" \ALT_INV_div_cnt[24]~reg0_q\ $end
$var wire 1 >" \ALT_INV_div_cnt[23]~reg0_q\ $end
$var wire 1 ?" \ALT_INV_div_cnt[22]~reg0_q\ $end
$var wire 1 @" \ALT_INV_div_cnt[21]~reg0_q\ $end
$var wire 1 A" \ALT_INV_div_cnt[20]~reg0_q\ $end
$var wire 1 B" \ALT_INV_div_cnt[19]~reg0_q\ $end
$var wire 1 C" \ALT_INV_div_cnt[18]~reg0_q\ $end
$var wire 1 D" \ALT_INV_div_cnt[17]~reg0_q\ $end
$var wire 1 E" \ALT_INV_div_cnt[16]~reg0_q\ $end
$var wire 1 F" \ALT_INV_div_cnt[15]~reg0_q\ $end
$var wire 1 G" \ALT_INV_div_cnt[14]~reg0_q\ $end
$var wire 1 H" \ALT_INV_div_cnt[13]~reg0_q\ $end
$var wire 1 I" \ALT_INV_div_cnt[12]~reg0_q\ $end
$var wire 1 J" \ALT_INV_div_cnt[11]~reg0_q\ $end
$var wire 1 K" \ALT_INV_div_cnt[10]~reg0_q\ $end
$var wire 1 L" \ALT_INV_div_cnt[9]~reg0_q\ $end
$var wire 1 M" \ALT_INV_div_cnt[8]~reg0_q\ $end
$var wire 1 N" \ALT_INV_div_cnt[7]~reg0_q\ $end
$var wire 1 O" \ALT_INV_div_cnt[6]~reg0_q\ $end
$var wire 1 P" \ALT_INV_div_cnt[5]~reg0_q\ $end
$var wire 1 Q" \ALT_INV_div_cnt[4]~reg0_q\ $end
$var wire 1 R" \ALT_INV_div_cnt[3]~reg0_q\ $end
$var wire 1 S" \ALT_INV_div_cnt[2]~reg0_q\ $end
$var wire 1 T" \ALT_INV_div_cnt[1]~reg0_q\ $end
$var wire 1 U" \ALT_INV_div_cnt[0]~reg0_q\ $end
$var wire 1 V" \ALT_INV_q[1]~reg0DUPLICATE_q\ $end
$var wire 1 W" \ALT_INV_q[0]~reg0DUPLICATE_q\ $end
$var wire 1 X" \ALT_INV_div_cnt[1]~reg0DUPLICATE_q\ $end
$var wire 1 Y" \ALT_INV_sw[3]~input_o\ $end
$var wire 1 Z" \ALT_INV_sw[2]~input_o\ $end
$var wire 1 [" \ALT_INV_swd[0]~input_o\ $end
$var wire 1 \" \ALT_INV_sw[1]~input_o\ $end
$var wire 1 ]" \ALT_INV_swd[1]~input_o\ $end
$var wire 1 ^" \ALT_INV_sw[0]~input_o\ $end
$var wire 1 _" \ALT_INV_key[1]~input_o\ $end
$var wire 1 `" \ALT_INV_Equal0~3_combout\ $end
$var wire 1 a" \ALT_INV_Equal0~2_combout\ $end
$var wire 1 b" \ALT_INV_Equal0~1_combout\ $end
$var wire 1 c" \ALT_INV_Equal0~0_combout\ $end
$var wire 1 d" \ALT_INV_Add1~1_combout\ $end
$upscope $end
$upscope $end
$enddefinitions $end
#0
$dumpvars
0!
0"
0L
1M
xN
1O
1P
1Q
1R
1S
1T
0U
0b
x"!
0#!
0$!
0%!
1&!
0'!
0(!
1)!
1*!
0+!
0,!
0-!
0.!
0/!
00!
01!
02!
03!
04!
05!
06!
07!
08!
09!
0:!
0;!
0<!
0=!
0>!
0?!
1@!
0A!
0B!
0C!
0D!
0E!
0F!
0G!
0H!
0I!
0J!
0K!
0L!
0M!
0N!
0O!
0P!
0Q!
0R!
0S!
0T!
0U!
0V!
1W!
1X!
0Y!
0Z!
0[!
0\!
0]!
0^!
0_!
0`!
0a!
0b!
0c!
0d!
0e!
0f!
0g!
0h!
0i!
0j!
0k!
0l!
0m!
0n!
0o!
0p!
0q!
0r!
0s!
0t!
0u!
0v!
0w!
0x!
0y!
0z!
0{!
0|!
1}!
0~!
0!"
0""
0#"
0$"
0%"
0&"
0'"
0("
0)"
1*"
0+"
0,"
0-"
1."
0/"
10"
01"
02"
13"
14"
15"
16"
17"
18"
19"
1:"
1;"
1<"
1="
1>"
1?"
1@"
1A"
1B"
1C"
1D"
1E"
1F"
1G"
1H"
1I"
1J"
1K"
1L"
1M"
1N"
1O"
1P"
1Q"
1R"
1S"
1T"
1U"
1V"
1W"
1X"
0Y"
0Z"
1["
1\"
1]"
0^"
1_"
0`"
0a"
0b"
0c"
1d"
0<
1=
1F
1G
0H
1I
0J
0K
1V
1W
0X
1Y
0Z
0[
1\
0]
0^
0_
0`
1a
1c
0d
0e
0f
0g
0h
0i
0j
0k
0l
0m
0n
0o
0p
0q
0r
0s
0t
0u
0v
0w
0x
0y
0z
0{
0|
0}
0~
0!!
0#
0$
0%
0&
0'
0(
0)
0*
0+
0,
0-
0.
0/
00
01
02
03
04
05
06
07
08
09
0:
0;
1>
0?
0@
0A
1B
0C
0D
0E
$end
#10000
1!
1U
1#!
1$!
1Z!
0U"
0*!
1[!
1!"
1!!
1\!
1;
0<"
1]!
#20000
0!
0U
0#!
0$!
#30000
1!
1U
1#!
1$!
0Z!
1^!
1~!
1""
1U"
0X"
0T"
0\!
1_!
1*!
0[!
1Y!
0!"
1<"
1b
1~
0!!
1\!
0_!
1`!
0]!
1"
0;
1:
0<"
0;"
0`!
1a!
1]!
1;"
0a!
#40000
0!
0U
0#!
0$!
#50000
1!
1U
1#!
1$!
0^!
0~!
0""
11"
1X"
1T"
04"
1/"
0Y!
0\!
0d"
1<"
0b
0~
0\
0c
0]!
0"
0:
0>
0B
#60000
0!
1<
0U
1`
1'!
0#!
0$!
0_"
1(!
1("
1,"
00"
#70000
1!
1U
1#!
1$!
1Z!
0U"
0*!
1[!
1!"
1!!
1\!
1;
0<"
1]!
#80000
0!
0U
0#!
0$!
#90000
1!
1U
1#!
1$!
0Z!
1^!
1~!
1""
1U"
0X"
0T"
0\!
1_!
1*!
0[!
1Y!
0!"
1<"
1b
1~
0!!
1\!
0_!
1`!
0]!
1"
0;
1:
0<"
0;"
0`!
1a!
1]!
1;"
0a!
#100000
0!
0U
0#!
0$!
#110000
1!
1U
1#!
1$!
0^!
0~!
0""
1#"
1%"
1'"
1)"
1-"
01"
1X"
1T"
07"
0W"
06"
0V"
05"
14"
0(!
0Y!
0\!
1<"
1]
1d
1^
1e
1f
1_
0b
0~
1\
1c
0]!
1A
1@
1?
1E
1D
1C
0"
0:
1>
1B
#120000
0!
0U
0#!
0$!
#130000
1!
1U
1#!
1$!
1Z!
0U"
0*!
1[!
1!"
1!!
1\!
1;
0<"
1]!
#140000
0!
0U
0#!
0$!
#150000
1!
1U
1#!
1$!
0Z!
1^!
1~!
1""
1U"
0X"
0T"
0\!
1_!
1*!
0[!
1Y!
0!"
1<"
1b
1~
0!!
1\!
0_!
1`!
0]!
1"
0;
1:
0<"
0;"
0`!
1a!
1]!
1;"
0a!
#160000
0!
0U
0#!
0$!
#170000
1!
1U
1#!
1$!
0^!
0~!
0""
0#"
0%"
1X"
1T"
17"
1W"
0("
1(!
0Y!
0\!
1<"
0f
0_
0b
0~
0]!
0E
0A
0"
0:
#180000
0!
0U
0#!
0$!
#190000
1!
1U
1#!
1$!
1Z!
0U"
0*!
1[!
1!"
1!!
1\!
1;
0<"
1]!
#200000
0!
0U
0#!
0$!
#210000
1!
1U
1#!
1$!
0Z!
1^!
1~!
1""
1U"
0X"
0T"
0\!
1_!
1*!
0[!
1Y!
0!"
1<"
1b
1~
0!!
1\!
0_!
1`!
0]!
1"
0;
1:
0<"
0;"
0`!
1a!
1]!
1;"
0a!
#220000
0!
0U
0#!
0$!
#230000
1!
1U
1#!
1$!
0^!
0~!
0""
1#"
1%"
0'"
0)"
1X"
1T"
07"
0W"
16"
1V"
0(!
0Y!
0\!
1<"
0^
0e
1f
1_
0b
0~
0]!
1A
0@
1E
0D
0"
0:
#240000
0!
0U
0#!
0$!
#250000
1!
1U
1#!
1$!
1Z!
0U"
0*!
1[!
1!"
1!!
1\!
1;
0<"
1]!
#260000
0!
0U
0#!
0$!
#270000
1!
1U
1#!
1$!
0Z!
1^!
1~!
1""
1U"
0X"
0T"
0\!
1_!
1*!
0[!
1Y!
0!"
1<"
1b
1~
0!!
1\!
0_!
1`!
0]!
1"
0;
1:
0<"
0;"
0`!
1a!
1]!
1;"
0a!
#280000
0!
0U
0#!
0$!
#290000
1!
1U
1#!
1$!
0^!
0~!
0""
0#"
0%"
1X"
1T"
17"
1W"
1("
1+"
1(!
0Y!
0\!
03"
1<"
0f
0_
0b
0~
0]!
0,"
0E
0A
0"
0:
#300000
0!
0U
0#!
0$!
#310000
1!
1U
1#!
1$!
1Z!
0U"
0*!
1[!
1!"
1!!
1\!
1;
0<"
1]!
#320000
0!
0U
0#!
0$!
#330000
1!
1U
1#!
1$!
0Z!
1^!
1~!
1""
1U"
0X"
0T"
0\!
1_!
1*!
0[!
1Y!
0!"
1<"
1b
1~
0!!
1\!
0_!
1`!
0]!
1"
0;
1:
0<"
0;"
0`!
1a!
1]!
1;"
0a!
#340000
0!
0U
0#!
0$!
#350000
1!
1U
1#!
1$!
0^!
0~!
0""
1#"
1%"
1'"
1)"
0-"
1X"
1T"
07"
0W"
06"
0V"
15"
0(!
0Y!
0\!
1<"
0]
0d
1^
1e
1f
1_
0b
0~
0]!
1A
1@
0?
1E
1D
0C
0"
0:
#360000
0!
0U
0#!
0$!
#370000
1!
1U
1#!
1$!
1Z!
0U"
0*!
1[!
1!"
1!!
1\!
1;
0<"
1]!
#380000
0!
0U
0#!
0$!
#390000
1!
1U
1#!
1$!
0Z!
1^!
1~!
1""
1U"
0X"
0T"
0\!
1_!
1*!
0[!
1Y!
0!"
1<"
1b
1~
0!!
1\!
0_!
1`!
0]!
1"
0;
1:
0<"
0;"
0`!
1a!
1]!
1;"
0a!
#400000
0!
0=
0U
0a
0)!
0#!
0$!
0#"
0%"
0'"
0)"
17"
1W"
16"
1V"
0+"
0/"
1(!
13"
1d"
0^
0e
0f
0_
10"
1,"
0A
0@
0E
0D
#410000
1!
1U
1#!
1$!
0^!
0~!
0""
1X"
1T"
0Y!
0\!
1<"
0b
0~
0]!
0"
0:
#420000
0!
0U
0#!
0$!
#430000
1!
1U
1#!
1$!
1Z!
0U"
0*!
1[!
1!"
1!!
1\!
1;
0<"
1]!
#440000
0!
0U
0#!
0$!
#450000
1!
1U
1#!
1$!
0Z!
1^!
1~!
1""
1U"
0X"
0T"
0\!
1_!
1*!
0[!
1Y!
0!"
1<"
1b
1~
0!!
1\!
0_!
1`!
0]!
1"
0;
1:
0<"
0;"
0`!
1a!
1]!
1;"
0a!
#460000
0!
1=
0U
1a
1)!
0#!
0$!
#470000
1!
1U
1#!
1$!
0^!
0~!
0""
1#"
1%"
1'"
1)"
1-"
11"
1X"
1T"
07"
0W"
06"
0V"
05"
04"
0(!
0Y!
0\!
1<"
1]
1d
1^
1e
1f
1_
0b
0~
0\
0c
0]!
1A
1@
1?
1E
1D
1C
0"
0:
0>
0B
#480000
0!
0U
0#!
0$!
#490000
1!
1U
1#!
1$!
1Z!
0U"
0*!
1[!
1!"
1!!
1\!
1;
0<"
1]!
#500000
0!
1K
0U
1[
1$"
0#!
0$!
0["
0("
1+"
1/"
03"
0d"
00"
0,"
#510000
1!
1U
1#!
1$!
0Z!
1^!
1~!
1""
1U"
0X"
0T"
0\!
1_!
1*!
0[!
1Y!
0!"
1<"
1b
1~
0!!
1\!
0_!
1`!
0]!
1"
0;
1:
0<"
0;"
0`!
1a!
1]!
1;"
0a!
#520000
0!
0U
0#!
0$!
#530000
1!
1U
1#!
1$!
0^!
0~!
0""
0#"
0%"
0'"
0)"
0-"
01"
1X"
1T"
17"
1W"
16"
1V"
15"
14"
1(!
0Y!
0\!
1<"
0]
0d
0^
0e
0f
0_
0b
0~
1\
1c
0]!
0A
0@
0?
0E
0D
0C
0"
0:
1>
1B
#540000
0!
0U
0#!
0$!
#550000
1!
1U
1#!
1$!
1Z!
0U"
0*!
1[!
1!"
1!!
1\!
1;
0<"
1]!
#560000
0!
0U
0#!
0$!
#570000
1!
1U
1#!
1$!
0Z!
1^!
1~!
1""
1U"
0X"
0T"
0\!
1_!
1*!
0[!
1Y!
0!"
1<"
1b
1~
0!!
1\!
0_!
1`!
0]!
1"
0;
1:
0<"
0;"
0`!
1a!
1]!
1;"
0a!
#580000
0!
0U
0#!
0$!
#590000
1!
1U
1#!
1$!
0^!
0~!
0""
1#"
1%"
1X"
1T"
07"
0W"
1("
0(!
0Y!
0\!
1<"
1f
1_
0b
0~
0]!
1E
1A
0"
0:
#600000
0!
0U
0#!
0$!
#610000
1!
1U
1#!
1$!
1Z!
0U"
0*!
1[!
1!"
1!!
1\!
1;
0<"
1]!
#620000
0!
0U
0#!
0$!
#630000
1!
1U
1#!
1$!
0Z!
1^!
1~!
1""
1U"
0X"
0T"
0\!
1_!
1*!
0[!
1Y!
0!"
1<"
1b
1~
0!!
1\!
0_!
1`!
0]!
1"
0;
1:
0<"
0;"
0`!
1a!
1]!
1;"
0a!
#640000
0!
0U
0#!
0$!
#650000
1!
1U
1#!
1$!
0^!
0~!
0""
0#"
0%"
1'"
1)"
1X"
1T"
17"
1W"
06"
0V"
1(!
0Y!
0\!
1<"
1^
1e
0f
0_
0b
0~
0]!
0A
1@
0E
1D
0"
0:
#660000
0!
0U
0#!
0$!
#670000
1!
1U
1#!
1$!
1Z!
0U"
0*!
1[!
1!"
1!!
1\!
1;
0<"
1]!
#680000
0!
0U
0#!
0$!
#690000
1!
1U
1#!
1$!
0Z!
1^!
1~!
1""
1U"
0X"
0T"
0\!
1_!
1*!
0[!
1Y!
0!"
1<"
1b
1~
0!!
1\!
0_!
1`!
0]!
1"
0;
1:
0<"
0;"
0`!
1a!
1]!
1;"
0a!
#700000
0!
0U
0#!
0$!
#710000
1!
1J
1U
1Z
1%!
1#!
1$!
0]"
0("
1,"
0^!
0~!
0""
1#"
1%"
1X"
1T"
07"
0W"
0+"
0Y!
0\!
13"
1<"
1f
1_
0b
0~
0]!
1E
1A
0"
0:
#720000
0!
0U
0#!
0$!
#730000
1!
1U
1#!
1$!
1Z!
0U"
0*!
1[!
1!"
1!!
1\!
1;
0<"
1]!
#740000
0!
0U
0#!
0$!
#750000
1!
1U
1#!
1$!
0Z!
1^!
1~!
1""
1U"
0X"
0T"
0\!
1_!
1*!
0[!
1Y!
0!"
1<"
1b
1~
0!!
1\!
0_!
1`!
0]!
1"
0;
1:
0<"
0;"
0`!
1a!
1]!
1;"
0a!
#760000
0!
0U
0#!
0$!
#770000
1!
1U
1#!
1$!
0^!
0~!
0""
0'"
0)"
1-"
1X"
1T"
16"
1V"
05"
0Y!
0\!
1<"
1]
1d
0^
0e
0b
0~
0]!
0@
1?
0D
1C
0"
0:
#780000
0!
0U
0#!
0$!
#790000
1!
0J
1U
0Z
0%!
1#!
1$!
1]"
0(!
1("
1Z!
0U"
0*!
1[!
1!"
1!!
1\!
1;
0<"
1]!
#800000
0!
0U
0#!
0$!
#810000
1!
1U
1#!
1$!
0Z!
1^!
1~!
1""
1U"
0X"
0T"
0\!
1_!
1*!
0[!
1Y!
0!"
1<"
1b
1~
0!!
1\!
0_!
1`!
0]!
1"
0;
1:
0<"
0;"
0`!
1a!
1]!
1;"
0a!
#820000
0!
0U
0#!
0$!
#830000
1!
1U
1#!
1$!
0^!
0~!
0""
0#"
0%"
1'"
1)"
1X"
1T"
17"
1W"
06"
0V"
1(!
0Y!
0\!
1<"
1^
1e
0f
0_
0b
0~
0]!
0A
1@
0E
1D
0"
0:
#840000
0!
0U
0#!
0$!
#850000
1!
1U
1#!
1$!
1Z!
0U"
0*!
1[!
1!"
1!!
1\!
1;
0<"
1]!
#860000
0!
0U
0#!
0$!
#870000
1!
1U
1#!
1$!
0Z!
1^!
1~!
1""
1U"
0X"
0T"
0\!
1_!
1*!
0[!
1Y!
0!"
1<"
1b
1~
0!!
1\!
0_!
1`!
0]!
1"
0;
1:
0<"
0;"
0`!
1a!
1]!
1;"
0a!
#880000
0!
0U
0#!
0$!
#890000
1!
1U
1#!
1$!
0^!
0~!
0""
1#"
1%"
1X"
1T"
07"
0W"
0("
1+"
0/"
0(!
0Y!
0\!
03"
1d"
1<"
1f
1_
0b
0~
0]!
10"
0,"
1E
1A
0"
0:
#900000
0!
0U
0#!
0$!
#910000
1!
1U
1#!
1$!
1Z!
0U"
0*!
1[!
1!"
1!!
1\!
1;
0<"
1]!
#920000
0!
0U
0#!
0$!
#930000
1!
1U
1#!
1$!
0Z!
1^!
1~!
1""
1U"
0X"
0T"
0\!
1_!
1*!
0[!
1Y!
0!"
1<"
1b
1~
0!!
1\!
0_!
1`!
0]!
1"
0;
1:
0<"
0;"
0`!
1a!
1]!
1;"
0a!
#940000
0!
0U
0#!
0$!
#950000
1!
1U
1#!
1$!
0^!
0~!
0""
0#"
0%"
0'"
0)"
0-"
11"
1X"
1T"
17"
1W"
16"
1V"
15"
04"
1(!
0Y!
0\!
1<"
0]
0d
0^
0e
0f
0_
0b
0~
0\
0c
0]!
0A
0@
0?
0E
0D
0C
0"
0:
0>
0B
#960000
0!
0U
0#!
0$!
#970000
1!
1U
1#!
1$!
1Z!
0U"
0*!
1[!
1!"
1!!
1\!
1;
0<"
1]!
#980000
0!
0U
0#!
0$!
#990000
1!
1U
1#!
1$!
0Z!
1^!
1~!
1""
1U"
0X"
0T"
0\!
1_!
1*!
0[!
1Y!
0!"
1<"
1b
1~
0!!
1\!
0_!
1`!
0]!
1"
0;
1:
0<"
0;"
0`!
1a!
1]!
1;"
0a!
