elab_4/simulation/qsim/elab_4.msim.vcd
$comment
	File created using the following command:
		vcd file elab_4.msim.vcd -direction
$end
$date
	Tue May 07 20:15:58 2019
$end
$version
	ModelSim Version 10.5b
$end
$timescale
	1ps
$end

$scope module elab_4_vlg_vec_tst $end
$var reg 1 ! clk $end
$var reg 1 " rst $end
$var reg 2 # sw [1:0] $end
$var wire 1 $ cout $end
$var wire 1 % led [2] $end
$var wire 1 & led [1] $end
$var wire 1 ' led [0] $end

$scope module i1 $end
$var wire 1 ( gnd $end
$var wire 1 ) vcc $end
$var wire 1 * unknown $end
$var tri1 1 + devclrn $end
$var tri1 1 , devpor $end
$var tri1 1 - devoe $end
$var wire 1 . Mult0~11 $end
$var wire 1 / Mult0~12 $end
$var wire 1 0 Mult0~13 $end
$var wire 1 1 Mult0~14 $end
$var wire 1 2 Mult0~15 $end
$var wire 1 3 Mult0~16 $end
$var wire 1 4 Mult0~17 $end
$var wire 1 5 Mult0~18 $end
$var wire 1 6 Mult0~19 $end
$var wire 1 7 Mult0~20 $end
$var wire 1 8 Mult0~21 $end
$var wire 1 9 Mult0~22 $end
$var wire 1 : Mult0~23 $end
$var wire 1 ; Mult0~24 $end
$var wire 1 < Mult0~25 $end
$var wire 1 = Mult0~26 $end
$var wire 1 > Mult0~27 $end
$var wire 1 ? Mult0~28 $end
$var wire 1 @ Mult0~29 $end
$var wire 1 A Mult0~30 $end
$var wire 1 B Mult0~31 $end
$var wire 1 C Mult0~32 $end
$var wire 1 D Mult0~33 $end
$var wire 1 E Mult0~34 $end
$var wire 1 F Mult0~35 $end
$var wire 1 G Mult0~36 $end
$var wire 1 H Mult0~37 $end
$var wire 1 I Mult0~38 $end
$var wire 1 J Mult0~39 $end
$var wire 1 K Mult0~40 $end
$var wire 1 L Mult0~41 $end
$var wire 1 M Mult0~42 $end
$var wire 1 N Mult0~43 $end
$var wire 1 O Mult0~44 $end
$var wire 1 P Mult0~45 $end
$var wire 1 Q Mult0~46 $end
$var wire 1 R Mult0~47 $end
$var wire 1 S Mult0~48 $end
$var wire 1 T Mult0~49 $end
$var wire 1 U Mult0~50 $end
$var wire 1 V Mult0~51 $end
$var wire 1 W Mult0~52 $end
$var wire 1 X Mult0~53 $end
$var wire 1 Y Mult0~54 $end
$var wire 1 Z Mult0~55 $end
$var wire 1 [ Mult0~56 $end
$var wire 1 \ Mult0~57 $end
$var wire 1 ] Mult0~58 $end
$var wire 1 ^ Mult0~59 $end
$var wire 1 _ Mult0~60 $end
$var wire 1 ` Mult0~61 $end
$var wire 1 a Mult0~62 $end
$var wire 1 b Mult0~63 $end
$var wire 1 c Mult0~64 $end
$var wire 1 d Mult0~65 $end
$var wire 1 e Mult0~66 $end
$var wire 1 f Mult0~67 $end
$var wire 1 g Mult0~68 $end
$var wire 1 h Mult0~69 $end
$var wire 1 i Mult0~70 $end
$var wire 1 j Mult0~71 $end
$var wire 1 k cout~output_o $end
$var wire 1 l led[0]~output_o $end
$var wire 1 m led[1]~output_o $end
$var wire 1 n led[2]~output_o $end
$var wire 1 o clk~input_o $end
$var wire 1 p Add0~1_sumout $end
$var wire 1 q rst~input_o $end
$var wire 1 r Add0~2 $end
$var wire 1 s Add0~5_sumout $end
$var wire 1 t Add0~6 $end
$var wire 1 u Add0~9_sumout $end
$var wire 1 v Add0~10 $end
$var wire 1 w Add0~13_sumout $end
$var wire 1 x Add0~14 $end
$var wire 1 y Add0~17_sumout $end
$var wire 1 z Add0~18 $end
$var wire 1 { Add0~25_sumout $end
$var wire 1 | Add0~26 $end
$var wire 1 } Add0~21_sumout $end
$var wire 1 ~ Equal0~0_combout $end
$var wire 1 !! Add0~22 $end
$var wire 1 "! Add0~29_sumout $end
$var wire 1 #! Add0~30 $end
$var wire 1 $! Add0~33_sumout $end
$var wire 1 %! Add0~34 $end
$var wire 1 &! Add0~37_sumout $end
$var wire 1 '! Add0~38 $end
$var wire 1 (! Add0~41_sumout $end
$var wire 1 )! Add0~42 $end
$var wire 1 *! Add0~49_sumout $end
$var wire 1 +! Add0~50 $end
$var wire 1 ,! Add0~45_sumout $end
$var wire 1 -! Equal0~1_combout $end
$var wire 1 .! Add0~46 $end
$var wire 1 /! Add0~77_sumout $end
$var wire 1 0! Add0~78 $end
$var wire 1 1! Add0~81_sumout $end
$var wire 1 2! Add0~82 $end
$var wire 1 3! Add0~85_sumout $end
$var wire 1 4! Add0~86 $end
$var wire 1 5! Add0~89_sumout $end
$var wire 1 6! Add0~90 $end
$var wire 1 7! Add0~97_sumout $end
$var wire 1 8! Add0~98 $end
$var wire 1 9! Add0~93_sumout $end
$var wire 1 :! Add0~94 $end
$var wire 1 ;! Add0~53_sumout $end
$var wire 1 <! Add0~54 $end
$var wire 1 =! Add0~57_sumout $end
$var wire 1 >! Add0~58 $end
$var wire 1 ?! Add0~61_sumout $end
$var wire 1 @! Add0~62 $end
$var wire 1 A! Add0~65_sumout $end
$var wire 1 B! Add0~66 $end
$var wire 1 C! Add0~73_sumout $end
$var wire 1 D! Add0~74 $end
$var wire 1 E! Add0~69_sumout $end
$var wire 1 F! Equal0~2_combout $end
$var wire 1 G! Equal0~3_combout $end
$var wire 1 H! rtl~0_combout $end
$var wire 1 I! sw[1]~input_o $end
$var wire 1 J! always2~0_combout $end
$var wire 1 K! sw[0]~input_o $end
$var wire 1 L! Mult0~8_resulta $end
$var wire 1 M! cnt_main[0]~0_combout $end
$var wire 1 N! rst2~q $end
$var wire 1 O! rst1~q $end
$var wire 1 P! Mult0~9 $end
$var wire 1 Q! Add1~0_combout $end
$var wire 1 R! Mult0~10 $end
$var wire 1 S! Add1~1_combout $end
$var wire 1 T! cnt_div [24] $end
$var wire 1 U! cnt_div [23] $end
$var wire 1 V! cnt_div [22] $end
$var wire 1 W! cnt_div [21] $end
$var wire 1 X! cnt_div [20] $end
$var wire 1 Y! cnt_div [19] $end
$var wire 1 Z! cnt_div [18] $end
$var wire 1 [! cnt_div [17] $end
$var wire 1 \! cnt_div [16] $end
$var wire 1 ]! cnt_div [15] $end
$var wire 1 ^! cnt_div [14] $end
$var wire 1 _! cnt_div [13] $end
$var wire 1 `! cnt_div [12] $end
$var wire 1 a! cnt_div [11] $end
$var wire 1 b! cnt_div [10] $end
$var wire 1 c! cnt_div [9] $end
$var wire 1 d! cnt_div [8] $end
$var wire 1 e! cnt_div [7] $end
$var wire 1 f! cnt_div [6] $end
$var wire 1 g! cnt_div [5] $end
$var wire 1 h! cnt_div [4] $end
$var wire 1 i! cnt_div [3] $end
$var wire 1 j! cnt_div [2] $end
$var wire 1 k! cnt_div [1] $end
$var wire 1 l! cnt_div [0] $end
$var wire 1 m! cnt_main [2] $end
$var wire 1 n! cnt_main [1] $end
$var wire 1 o! cnt_main [0] $end
$var wire 1 p! sw1 [1] $end
$var wire 1 q! sw1 [0] $end
$var wire 1 r! sw2 [1] $end
$var wire 1 s! sw2 [0] $end
$var wire 1 t! Mult0~8_RESULTA_bus [63] $end
$var wire 1 u! Mult0~8_RESULTA_bus [62] $end
$var wire 1 v! Mult0~8_RESULTA_bus [61] $end
$var wire 1 w! Mult0~8_RESULTA_bus [60] $end
$var wire 1 x! Mult0~8_RESULTA_bus [59] $end
$var wire 1 y! Mult0~8_RESULTA_bus [58] $end
$var wire 1 z! Mult0~8_RESULTA_bus [57] $end
$var wire 1 {! Mult0~8_RESULTA_bus [56] $end
$var wire 1 |! Mult0~8_RESULTA_bus [55] $end
$var wire 1 }! Mult0~8_RESULTA_bus [54] $end
$var wire 1 ~! Mult0~8_RESULTA_bus [53] $end
$var wire 1 !" Mult0~8_RESULTA_bus [52] $end
$var wire 1 "" Mult0~8_RESULTA_bus [51] $end
$var wire 1 #" Mult0~8_RESULTA_bus [50] $end
$var wire 1 $" Mult0~8_RESULTA_bus [49] $end
$var wire 1 %" Mult0~8_RESULTA_bus [48] $end
$var wire 1 &" Mult0~8_RESULTA_bus [47] $end
$var wire 1 '" Mult0~8_RESULTA_bus [46] $end
$var wire 1 (" Mult0~8_RESULTA_bus [45] $end
$var wire 1 )" Mult0~8_RESULTA_bus [44] $end
$var wire 1 *" Mult0~8_RESULTA_bus [43] $end
$var wire 1 +" Mult0~8_RESULTA_bus [42] $end
$var wire 1 ," Mult0~8_RESULTA_bus [41] $end
$var wire 1 -" Mult0~8_RESULTA_bus [40] $end
$var wire 1 ." Mult0~8_RESULTA_bus [39] $end
$var wire 1 /" Mult0~8_RESULTA_bus [38] $end
$var wire 1 0" Mult0~8_RESULTA_bus [37] $end
$var wire 1 1" Mult0~8_RESULTA_bus [36] $end
$var wire 1 2" Mult0~8_RESULTA_bus [35] $end
$var wire 1 3" Mult0~8_RESULTA_bus [34] $end
$var wire 1 4" Mult0~8_RESULTA_bus [33] $end
$var wire 1 5" Mult0~8_RESULTA_bus [32] $end
$var wire 1 6" Mult0~8_RESULTA_bus [31] $end
$var wire 1 7" Mult0~8_RESULTA_bus [30] $end
$var wire 1 8" Mult0~8_RESULTA_bus [29] $end
$var wire 1 9" Mult0~8_RESULTA_bus [28] $end
$var wire 1 :" Mult0~8_RESULTA_bus [27] $end
$var wire 1 ;" Mult0~8_RESULTA_bus [26] $end
$var wire 1 <" Mult0~8_RESULTA_bus [25] $end
$var wire 1 =" Mult0~8_RESULTA_bus [24] $end
$var wire 1 >" Mult0~8_RESULTA_bus [23] $end
$var wire 1 ?" Mult0~8_RESULTA_bus [22] $end
$var wire 1 @" Mult0~8_RESULTA_bus [21] $end
$var wire 1 A" Mult0~8_RESULTA_bus [20] $end
$var wire 1 B" Mult0~8_RESULTA_bus [19] $end
$var wire 1 C" Mult0~8_RESULTA_bus [18] $end
$var wire 1 D" Mult0~8_RESULTA_bus [17] $end
$var wire 1 E" Mult0~8_RESULTA_bus [16] $end
$var wire 1 F" Mult0~8_RESULTA_bus [15] $end
$var wire 1 G" Mult0~8_RESULTA_bus [14] $end
$var wire 1 H" Mult0~8_RESULTA_bus [13] $end
$var wire 1 I" Mult0~8_RESULTA_bus [12] $end
$var wire 1 J" Mult0~8_RESULTA_bus [11] $end
$var wire 1 K" Mult0~8_RESULTA_bus [10] $end
$var wire 1 L" Mult0~8_RESULTA_bus [9] $end
$var wire 1 M" Mult0~8_RESULTA_bus [8] $end
$var wire 1 N" Mult0~8_RESULTA_bus [7] $end
$var wire 1 O" Mult0~8_RESULTA_bus [6] $end
$var wire 1 P" Mult0~8_RESULTA_bus [5] $end
$var wire 1 Q" Mult0~8_RESULTA_bus [4] $end
$var wire 1 R" Mult0~8_RESULTA_bus [3] $end
$var wire 1 S" Mult0~8_RESULTA_bus [2] $end
$var wire 1 T" Mult0~8_RESULTA_bus [1] $end
$var wire 1 U" Mult0~8_RESULTA_bus [0] $end
$upscope $end
$upscope $end
$enddefinitions $end
#0
$dumpvars
0!
1"
b10 #
0$
0'
0&
0%
0(
1)
x*
1+
1,
1-
0.
0/
00
01
02
03
04
05
06
07
08
09
0:
0;
0<
0=
0>
0?
0@
0A
0B
0C
0D
0E
0F
0G
0H
0I
0J
0K
0L
0M
0N
0O
0P
0Q
0R
0S
0T
0U
0V
0W
0X
0Y
0Z
0[
0\
0]
0^
0_
0`
0a
0b
0c
0d
0e
0f
0g
0h
0i
0j
0k
0l
0m
0n
0o
1p
1q
0r
0s
0t
0u
0v
0w
0x
0y
0z
0{
0|
0}
1~
0!!
0"!
0#!
0$!
0%!
0&!
0'!
0(!
0)!
0*!
0+!
0,!
1-!
0.!
0/!
00!
01!
02!
03!
04!
05!
06!
07!
08!
09!
0:!
0;!
0<!
0=!
0>!
0?!
0@!
0A!
0B!
0C!
0D!
0E!
1F!
1G!
0H!
1I!
0J!
0K!
1L!
1M!
0N!
0O!
0P!
0Q!
0R!
0S!
0l!
0k!
0j!
0i!
0h!
0g!
0f!
0e!
0d!
0c!
0b!
0a!
0`!
0_!
0^!
0]!
0\!
0[!
0Z!
0Y!
0X!
0W!
0V!
0U!
0T!
0o!
0n!
0m!
0q!
0p!
0s!
0r!
1U"
0T"
0S"
0R"
0Q"
0P"
0O"
0N"
0M"
0L"
0K"
0J"
0I"
0H"
0G"
0F"
0E"
0D"
0C"
0B"
0A"
0@"
0?"
0>"
0="
0<"
0;"
0:"
09"
08"
07"
06"
05"
04"
03"
02"
01"
00"
0/"
0."
0-"
0,"
0+"
0*"
0)"
0("
0'"
0&"
0%"
0$"
0#"
0""
0!"
0~!
0}!
0|!
0{!
0z!
0y!
0x!
0w!
0v!
0u!
0t!
$end
#10000
1!
1o
1l!
1N!
1r!
1r
1H!
0p
1k
1$
1s
#20000
0!
0o
#30000
1!
1o
1O!
1p!
0l!
0r
1J!
0U"
1T"
1P!
0L!
0H!
1p
0k
0$
0s
1Q!
0M!
#40000
0!
0o
#50000
1!
1o
1l!
1r
1H!
0p
1k
1$
1s
1n!
1m
1&
1S!
0Q!
#60000
0!
0o
#70000
1!
1o
0l!
0r
0H!
1p
0k
0$
0s
#80000
0!
0o
#90000
1!
1o
1l!
1r
1H!
0p
1k
1$
1s
1m!
0n!
0m
1n
1%
0&
1Q!
#100000
0!
0o
#110000
1!
1o
0l!
0r
0H!
1p
0k
0$
0s
#120000
0!
0o
#130000
1!
1o
1l!
1r
1H!
0p
1k
1$
1s
1n!
1m
1&
0S!
0Q!
#140000
0!
0o
#150000
1!
1o
0l!
0r
0H!
1p
0k
0$
0s
#160000
0!
0o
#170000
1!
1o
1l!
1r
1H!
0p
1k
1$
1s
0m!
0n!
0m
0n
0%
0&
1Q!
#180000
0!
0o
#190000
1!
1o
0l!
0r
0H!
1p
0k
0$
0s
#200000
0!
0o
#210000
1!
1o
1l!
1r
1H!
0p
1k
1$
1s
1n!
1m
1&
1S!
0Q!
#220000
0!
0o
#230000
1!
1o
0l!
0r
0H!
1p
0k
0$
0s
#240000
0!
0o
#250000
1!
1o
1l!
1r
1H!
0p
1k
1$
1s
1m!
0n!
0m
1n
1%
0&
1Q!
#260000
0!
0o
#270000
1!
1o
0l!
0r
0H!
1p
0k
0$
0s
#280000
0!
0o
#290000
1!
1o
1l!
1r
1H!
0p
1k
1$
1s
1n!
1m
1&
0S!
0Q!
#300000
0!
0o
#310000
1!
1o
0l!
0r
0H!
1p
0k
0$
0s
#320000
0!
0o
#330000
1!
1o
1l!
1r
1H!
0p
1k
1$
1s
0m!
0n!
0m
0n
0%
0&
1Q!
#340000
0!
0o
#350000
1!
1o
0l!
0r
0H!
1p
0k
0$
0s
#360000
0!
0o
#370000
1!
1o
1l!
1r
1H!
0p
1k
1$
1s
1n!
1m
1&
1S!
0Q!
#380000
0!
0o
#390000
1!
1o
0l!
0r
0H!
1p
0k
0$
0s
#400000
0!
0o
#410000
1!
1o
1l!
1r
1H!
0p
1k
1$
1s
1m!
0n!
0m
1n
1%
0&
1Q!
#420000
0!
0o
#430000
1!
1o
0l!
0r
0H!
1p
0k
0$
0s
#440000
0!
0o
#450000
1!
1o
1l!
1r
1H!
0p
1k
1$
1s
1n!
1m
1&
0S!
0Q!
#460000
0!
0o
#470000
1!
1o
0l!
0r
0H!
1p
0k
0$
0s
#480000
0!
0o
#490000
1!
1o
1l!
1r
1H!
0p
1k
1$
1s
0m!
0n!
0m
0n
0%
0&
1Q!
#500000
0!
0o
#510000
1!
1o
0l!
0r
0H!
1p
0k
0$
0s
#520000
0!
0o
#530000
1!
1o
1l!
1r
1H!
0p
1k
1$
1s
1n!
1m
1&
1S!
0Q!
#540000
0!
0o
#550000
1!
1o
0l!
0r
0H!
1p
0k
0$
0s
#560000
0!
0o
#570000
1!
1o
1l!
1r
1H!
0p
1k
1$
1s
1m!
0n!
0m
1n
1%
0&
1Q!
#580000
0!
0o
#590000
1!
1o
0l!
0r
0H!
1p
0k
0$
0s
#600000
0!
0o
#610000
1!
1o
1l!
1r
1H!
0p
1k
1$
1s
1n!
1m
1&
0S!
0Q!
#620000
0!
0o
#630000
1!
1o
0l!
0r
0H!
1p
0k
0$
0s
#640000
0!
0o
#650000
1!
1o
1l!
1r
1H!
0p
1k
1$
1s
0m!
0n!
0m
0n
0%
0&
1Q!
#660000
0!
0o
#670000
1!
1o
0l!
0r
0H!
1p
0k
0$
0s
#680000
0!
0o
#690000
1!
1o
1l!
1r
1H!
0p
1k
1$
1s
1n!
1m
1&
1S!
0Q!
#700000
0!
0o
#710000
1!
1o
0l!
0r
0H!
1p
0k
0$
0s
#720000
0!
0o
#730000
1!
1o
1l!
1r
1H!
0p
1k
1$
1s
1m!
0n!
0m
1n
1%
0&
1Q!
#740000
0!
0o
#750000
1!
1o
0l!
0r
0H!
1p
0k
0$
0s
#760000
0!
0o
#770000
1!
1o
1l!
1r
1H!
0p
1k
1$
1s
1n!
1m
1&
0S!
0Q!
#780000
0!
0o
#790000
1!
1o
0l!
0r
0H!
1p
0k
0$
0s
#800000
0!
0o
#810000
1!
1o
1l!
1r
1H!
0p
1k
1$
1s
0m!
0n!
0m
0n
0%
0&
1Q!
#820000
0!
0o
#830000
1!
1o
0l!
0r
0H!
1p
0k
0$
0s
#840000
0!
0o
#850000
1!
1o
1l!
1r
1H!
0p
1k
1$
1s
1n!
1m
1&
1S!
0Q!
#860000
0!
0o
#870000
1!
1o
0l!
0r
0H!
1p
0k
0$
0s
#880000
0!
0o
#890000
1!
1o
1l!
1r
1H!
0p
1k
1$
1s
1m!
0n!
0m
1n
1%
0&
1Q!
#900000
0!
0o
#910000
1!
1o
0l!
0r
0H!
1p
0k
0$
0s
#920000
0!
0o
#930000
1!
1o
1l!
1r
1H!
0p
1k
1$
1s
1n!
1m
1&
0S!
0Q!
#940000
0!
0o
#950000
1!
1o
0l!
0r
0H!
1p
0k
0$
0s
#960000
0!
0o
#970000
1!
1o
1l!
1r
1H!
0p
1k
1$
1s
0m!
0n!
0m
0n
0%
0&
1Q!
#980000
0!
0o
#990000
1!
1o
0l!
0r
0H!
1p
0k
0$
0s
