labs/lab1/lab1_3/simulation/qsim/lab1_3.msim.vcd
$comment
	File created using the following command:
		vcd file lab1_3.msim.vcd -direction
$end
$date
	Fri Feb 22 14:25:24 2019
$end
$version
	ModelSim Version 10.5b
$end
$timescale
	1ps
$end

$scope module lab1_3_vlg_vec_tst $end
$var reg 2 ! key [1:0] $end
$var reg 2 " sw [1:0] $end
$var wire 1 # led [7] $end
$var wire 1 $ led [6] $end
$var wire 1 % led [5] $end
$var wire 1 & led [4] $end
$var wire 1 ' led [3] $end
$var wire 1 ( led [2] $end
$var wire 1 ) led [1] $end
$var wire 1 * led [0] $end

$scope module i1 $end
$var wire 1 + gnd $end
$var wire 1 , vcc $end
$var wire 1 - unknown $end
$var tri1 1 . devclrn $end
$var tri1 1 / devpor $end
$var tri1 1 0 devoe $end
$var wire 1 1 ~QUARTUS_CREATED_GND~I_combout $end
$var wire 1 2 key[0]~input_o $end
$var wire 1 3 sw[0]~input_o $end
$var wire 1 4 key[1]~input_o $end
$var wire 1 5 led~0_combout $end
$var wire 1 6 sw[1]~input_o $end
$var wire 1 7 led~1_combout $end
$var wire 1 8 led~2_combout $end
$var wire 1 9 led~3_combout $end
$var wire 1 : led~4_combout $end
$var wire 1 ; led~5_combout $end
$var wire 1 < led~6_combout $end
$var wire 1 = led~7_combout $end
$upscope $end
$upscope $end
$enddefinitions $end
#0
$dumpvars
b0 !
b0 "
0*
0)
0(
0'
0&
0%
0$
0#
0+
1,
x-
1.
1/
10
01
02
03
04
05
06
07
08
09
0:
0;
0<
0=
$end
#40000
b1 "
13
15
1*
#80000
b11 "
b10 "
03
16
17
05
0*
1)
#120000
b11 "
13
15
1*
#160000
b1 !
b1 "
b0 "
03
06
12
07
05
0*
0)
#200000
b1 "
13
18
1(
#240000
b11 "
b10 "
03
16
19
08
0(
1'
#280000
b11 "
13
18
1(
#320000
b11 !
b10 !
b1 "
b0 "
03
06
02
14
09
08
0(
0'
#360000
b1 "
13
1:
1&
#400000
b11 "
b10 "
03
16
1;
0:
0&
1%
#440000
b11 "
13
1:
1&
#480000
b11 !
b1 "
b0 "
03
06
12
0;
0:
0&
0%
#520000
b1 "
13
1<
1$
#560000
b11 "
b10 "
03
16
1=
0<
0$
1#
#600000
b11 "
13
1<
1$
#640000
b1 !
b0 !
b1 "
b0 "
03
06
02
04
0=
0<
0$
0#
#680000
b1 "
13
15
1*
#720000
b11 "
b10 "
03
16
17
05
0*
1)
#760000
b11 "
13
15
1*
#800000
b1 !
b1 "
b0 "
03
06
12
07
05
0*
0)
#840000
b1 "
13
18
1(
#880000
b11 "
b10 "
03
16
19
08
0(
1'
#920000
b11 "
13
18
1(
#960000
b11 !
b10 !
b1 "
b0 "
03
06
02
14
09
08
0(
0'
