lab2_2/simulation/qsim/lab2_2.msim.vcd
$comment
	File created using the following command:
		vcd file lab2_2.msim.vcd -direction
$end
$date
	Fri Mar 01 15:09:37 2019
$end
$version
	ModelSim Version 10.5b
$end
$timescale
	1ps
$end

$scope module lab2_2_vlg_vec_tst $end
$var reg 4 ! a [3:0] $end
$var reg 4 " b [3:0] $end
$var reg 1 # sel $end
$var wire 1 $ c [7] $end
$var wire 1 % c [6] $end
$var wire 1 & c [5] $end
$var wire 1 ' c [4] $end
$var wire 1 ( c [3] $end
$var wire 1 ) c [2] $end
$var wire 1 * c [1] $end
$var wire 1 + c [0] $end

$scope module i1 $end
$var wire 1 , gnd $end
$var wire 1 - vcc $end
$var wire 1 . unknown $end
$var tri1 1 / devclrn $end
$var tri1 1 0 devpor $end
$var tri1 1 1 devoe $end
$var wire 1 2 Mult0~16 $end
$var wire 1 3 Mult0~17 $end
$var wire 1 4 Mult0~18 $end
$var wire 1 5 Mult0~19 $end
$var wire 1 6 Mult0~20 $end
$var wire 1 7 Mult0~21 $end
$var wire 1 8 Mult0~22 $end
$var wire 1 9 Mult0~23 $end
$var wire 1 : Mult0~24 $end
$var wire 1 ; Mult0~25 $end
$var wire 1 < Mult0~26 $end
$var wire 1 = Mult0~27 $end
$var wire 1 > Mult0~28 $end
$var wire 1 ? Mult0~29 $end
$var wire 1 @ Mult0~30 $end
$var wire 1 A Mult0~31 $end
$var wire 1 B Mult0~32 $end
$var wire 1 C Mult0~33 $end
$var wire 1 D Mult0~34 $end
$var wire 1 E Mult0~35 $end
$var wire 1 F Mult0~36 $end
$var wire 1 G Mult0~37 $end
$var wire 1 H Mult0~38 $end
$var wire 1 I Mult0~39 $end
$var wire 1 J Mult0~40 $end
$var wire 1 K Mult0~41 $end
$var wire 1 L Mult0~42 $end
$var wire 1 M Mult0~43 $end
$var wire 1 N Mult0~44 $end
$var wire 1 O Mult0~45 $end
$var wire 1 P Mult0~46 $end
$var wire 1 Q Mult0~47 $end
$var wire 1 R Mult0~48 $end
$var wire 1 S Mult0~49 $end
$var wire 1 T Mult0~50 $end
$var wire 1 U Mult0~51 $end
$var wire 1 V Mult0~52 $end
$var wire 1 W Mult0~53 $end
$var wire 1 X Mult0~54 $end
$var wire 1 Y Mult0~55 $end
$var wire 1 Z Mult0~56 $end
$var wire 1 [ Mult0~57 $end
$var wire 1 \ Mult0~58 $end
$var wire 1 ] Mult0~59 $end
$var wire 1 ^ Mult0~60 $end
$var wire 1 _ Mult0~61 $end
$var wire 1 ` Mult0~62 $end
$var wire 1 a Mult0~63 $end
$var wire 1 b Mult0~64 $end
$var wire 1 c Mult0~65 $end
$var wire 1 d Mult0~66 $end
$var wire 1 e Mult0~67 $end
$var wire 1 f Mult0~68 $end
$var wire 1 g Mult0~69 $end
$var wire 1 h Mult0~70 $end
$var wire 1 i Mult0~71 $end
$var wire 1 j c[0]~output_o $end
$var wire 1 k c[1]~output_o $end
$var wire 1 l c[2]~output_o $end
$var wire 1 m c[3]~output_o $end
$var wire 1 n c[4]~output_o $end
$var wire 1 o c[5]~output_o $end
$var wire 1 p c[6]~output_o $end
$var wire 1 q c[7]~output_o $end
$var wire 1 r sel~input_o $end
$var wire 1 s a[0]~input_o $end
$var wire 1 t a[1]~input_o $end
$var wire 1 u a[2]~input_o $end
$var wire 1 v a[3]~input_o $end
$var wire 1 w b[0]~input_o $end
$var wire 1 x b[1]~input_o $end
$var wire 1 y b[2]~input_o $end
$var wire 1 z b[3]~input_o $end
$var wire 1 { Mult0~8_resulta $end
$var wire 1 | Add0~1_sumout $end
$var wire 1 } c~0_combout $end
$var wire 1 ~ Mult0~9 $end
$var wire 1 !! Add0~2 $end
$var wire 1 "! Add0~5_sumout $end
$var wire 1 #! c~1_combout $end
$var wire 1 $! Mult0~10 $end
$var wire 1 %! Add0~6 $end
$var wire 1 &! Add0~9_sumout $end
$var wire 1 '! c~2_combout $end
$var wire 1 (! Mult0~11 $end
$var wire 1 )! Add0~10 $end
$var wire 1 *! Add0~13_sumout $end
$var wire 1 +! c~3_combout $end
$var wire 1 ,! Mult0~12 $end
$var wire 1 -! Add0~14 $end
$var wire 1 .! Add0~17_sumout $end
$var wire 1 /! c~4_combout $end
$var wire 1 0! Mult0~13 $end
$var wire 1 1! c~5_combout $end
$var wire 1 2! Mult0~14 $end
$var wire 1 3! c~6_combout $end
$var wire 1 4! Mult0~15 $end
$var wire 1 5! c~7_combout $end
$var wire 1 6! Mult0~8_RESULTA_bus [63] $end
$var wire 1 7! Mult0~8_RESULTA_bus [62] $end
$var wire 1 8! Mult0~8_RESULTA_bus [61] $end
$var wire 1 9! Mult0~8_RESULTA_bus [60] $end
$var wire 1 :! Mult0~8_RESULTA_bus [59] $end
$var wire 1 ;! Mult0~8_RESULTA_bus [58] $end
$var wire 1 <! Mult0~8_RESULTA_bus [57] $end
$var wire 1 =! Mult0~8_RESULTA_bus [56] $end
$var wire 1 >! Mult0~8_RESULTA_bus [55] $end
$var wire 1 ?! Mult0~8_RESULTA_bus [54] $end
$var wire 1 @! Mult0~8_RESULTA_bus [53] $end
$var wire 1 A! Mult0~8_RESULTA_bus [52] $end
$var wire 1 B! Mult0~8_RESULTA_bus [51] $end
$var wire 1 C! Mult0~8_RESULTA_bus [50] $end
$var wire 1 D! Mult0~8_RESULTA_bus [49] $end
$var wire 1 E! Mult0~8_RESULTA_bus [48] $end
$var wire 1 F! Mult0~8_RESULTA_bus [47] $end
$var wire 1 G! Mult0~8_RESULTA_bus [46] $end
$var wire 1 H! Mult0~8_RESULTA_bus [45] $end
$var wire 1 I! Mult0~8_RESULTA_bus [44] $end
$var wire 1 J! Mult0~8_RESULTA_bus [43] $end
$var wire 1 K! Mult0~8_RESULTA_bus [42] $end
$var wire 1 L! Mult0~8_RESULTA_bus [41] $end
$var wire 1 M! Mult0~8_RESULTA_bus [40] $end
$var wire 1 N! Mult0~8_RESULTA_bus [39] $end
$var wire 1 O! Mult0~8_RESULTA_bus [38] $end
$var wire 1 P! Mult0~8_RESULTA_bus [37] $end
$var wire 1 Q! Mult0~8_RESULTA_bus [36] $end
$var wire 1 R! Mult0~8_RESULTA_bus [35] $end
$var wire 1 S! Mult0~8_RESULTA_bus [34] $end
$var wire 1 T! Mult0~8_RESULTA_bus [33] $end
$var wire 1 U! Mult0~8_RESULTA_bus [32] $end
$var wire 1 V! Mult0~8_RESULTA_bus [31] $end
$var wire 1 W! Mult0~8_RESULTA_bus [30] $end
$var wire 1 X! Mult0~8_RESULTA_bus [29] $end
$var wire 1 Y! Mult0~8_RESULTA_bus [28] $end
$var wire 1 Z! Mult0~8_RESULTA_bus [27] $end
$var wire 1 [! Mult0~8_RESULTA_bus [26] $end
$var wire 1 \! Mult0~8_RESULTA_bus [25] $end
$var wire 1 ]! Mult0~8_RESULTA_bus [24] $end
$var wire 1 ^! Mult0~8_RESULTA_bus [23] $end
$var wire 1 _! Mult0~8_RESULTA_bus [22] $end
$var wire 1 `! Mult0~8_RESULTA_bus [21] $end
$var wire 1 a! Mult0~8_RESULTA_bus [20] $end
$var wire 1 b! Mult0~8_RESULTA_bus [19] $end
$var wire 1 c! Mult0~8_RESULTA_bus [18] $end
$var wire 1 d! Mult0~8_RESULTA_bus [17] $end
$var wire 1 e! Mult0~8_RESULTA_bus [16] $end
$var wire 1 f! Mult0~8_RESULTA_bus [15] $end
$var wire 1 g! Mult0~8_RESULTA_bus [14] $end
$var wire 1 h! Mult0~8_RESULTA_bus [13] $end
$var wire 1 i! Mult0~8_RESULTA_bus [12] $end
$var wire 1 j! Mult0~8_RESULTA_bus [11] $end
$var wire 1 k! Mult0~8_RESULTA_bus [10] $end
$var wire 1 l! Mult0~8_RESULTA_bus [9] $end
$var wire 1 m! Mult0~8_RESULTA_bus [8] $end
$var wire 1 n! Mult0~8_RESULTA_bus [7] $end
$var wire 1 o! Mult0~8_RESULTA_bus [6] $end
$var wire 1 p! Mult0~8_RESULTA_bus [5] $end
$var wire 1 q! Mult0~8_RESULTA_bus [4] $end
$var wire 1 r! Mult0~8_RESULTA_bus [3] $end
$var wire 1 s! Mult0~8_RESULTA_bus [2] $end
$var wire 1 t! Mult0~8_RESULTA_bus [1] $end
$var wire 1 u! Mult0~8_RESULTA_bus [0] $end
$upscope $end
$upscope $end
$enddefinitions $end
#0
$dumpvars
b0 !
b11 "
0#
1+
1*
0)
0(
0'
0&
0%
0$
0,
1-
x.
1/
10
11
02
03
04
05
06
07
08
09
0:
0;
0<
0=
0>
0?
0@
0A
0B
0C
0D
0E
0F
0G
0H
0I
0J
0K
0L
0M
0N
0O
0P
0Q
0R
0S
0T
0U
0V
0W
0X
0Y
0Z
0[
0\
0]
0^
0_
0`
0a
0b
0c
0d
0e
0f
0g
0h
0i
1j
1k
0l
0m
0n
0o
0p
0q
0r
0s
0t
0u
0v
1w
1x
0y
0z
0{
1|
1}
0~
0!!
1"!
1#!
0$!
0%!
0&!
0'!
0(!
0)!
0*!
0+!
0,!
0-!
0.!
0/!
00!
01!
02!
03!
04!
05!
0u!
0t!
0s!
0r!
0q!
0p!
0o!
0n!
0m!
0l!
0k!
0j!
0i!
0h!
0g!
0f!
0e!
0d!
0c!
0b!
0a!
0`!
0_!
0^!
0]!
0\!
0[!
0Z!
0Y!
0X!
0W!
0V!
0U!
0T!
0S!
0R!
0Q!
0P!
0O!
0N!
0M!
0L!
0K!
0J!
0I!
0H!
0G!
0F!
0E!
0D!
0C!
0B!
0A!
0@!
0?!
0>!
0=!
0<!
0;!
0:!
09!
08!
07!
06!
$end
#20000
1#
1r
0#!
0}
0j
0k
0*
0+
#40000
b1 !
b111 "
b101 "
b100 "
0#
0w
0x
1y
1s
0r
1u!
1t!
1~
1{
0u!
0t!
1s!
1$!
0~
0{
1&!
0"!
1#!
1}
1j
1k
1*
1+
0#!
1'!
1l
0k
0*
1)
#60000
1#
1r
0}
0j
0+
#80000
b11 !
b10 !
b101 "
0#
1w
0s
1t
0r
0s!
1r!
1(!
0$!
1t!
1~
1"!
1}
1j
1+
1#!
1k
1*
#100000
1#
1r
1+!
0'!
0}
0j
0l
1m
1(
0)
0+
#120000
b111 "
b11 !
b110 "
0#
1s
0w
1x
0r
1u!
1s!
1$!
1{
0u!
0s!
0r!
1q!
1,!
0(!
0$!
0{
1%!
0"!
0+!
1'!
1}
1j
1l
0m
1)!
0&!
0(
1)
1+
0#!
0k
1*!
0*
0'!
0l
0)
1+!
1m
1(
#140000
1#
1r
1/!
0+!
1#!
0}
0j
1k
0m
1n
1'
0(
1*
0+
#160000
b111 !
b101 !
b100 !
b111 "
0#
1w
0s
0t
1u
0r
0t!
1r!
1(!
0~
1s!
1$!
1&!
0%!
1"!
0/!
1+!
0#!
1}
1j
0k
1m
0n
0&!
0'
1(
0*
1+
1#!
1'!
1l
1k
1*
1)
0'!
0l
0)
#180000
1#
1r
1/!
1'!
0#!
0}
0j
0k
1l
1n
1'
1)
0*
0+
#200000
b1111 "
b1011 "
b1001 "
b101 !
b1000 "
0#
1s
0w
0x
0y
1z
0r
1u!
1t!
0s!
0r!
0q!
1p!
10!
0,!
0(!
0$!
1~
1{
0u!
0t!
1r!
1(!
0~
0{
1q!
0p!
1o!
1n!
1m!
1l!
1k!
1j!
1i!
1h!
1g!
1f!
1e!
1d!
1c!
1b!
1a!
1`!
1_!
1^!
1]!
1\!
1[!
1Z!
1Y!
1X!
1W!
1V!
1U!
1T!
1S!
1R!
1Q!
1P!
1O!
1N!
1M!
1L!
1K!
1J!
1I!
1H!
1G!
1F!
1E!
1D!
1C!
1B!
1A!
1@!
1?!
1>!
1=!
1<!
1;!
1:!
19!
18!
17!
16!
1i
1h
1g
1f
1e
1d
1c
1b
1a
1`
1_
1^
1]
1\
1[
1Z
1Y
1X
1W
1V
1U
1T
1S
1R
1Q
1P
1O
1N
1M
1L
1K
1J
1I
1H
1G
1F
1E
1D
1C
1B
1A
1@
1?
1>
1=
1<
1;
1:
19
18
17
16
15
14
13
12
14!
12!
00!
1,!
1.!
1-!
0*!
0)!
1&!
0"!
0/!
0'!
1#!
1}
1j
1k
0l
0n
0.!
0-!
1*!
0'
0)
1*
1+
0#!
1'!
0+!
15!
13!
11!
1/!
1n
1o
1p
1q
0m
1l
0k
1.!
0*
1)
0(
1$
1%
1&
1'
1+!
05!
03!
01!
0/!
0n
0o
0p
0q
1m
1(
0$
0%
0&
0'
15!
13!
11!
1/!
1n
1o
1p
1q
1$
1%
1&
1'
#220000
1#
1r
01!
0'!
0}
0j
0l
0o
0&
0)
0+
#240000
b111 !
b110 !
b1001 "
0#
1w
0s
1t
0r
0r!
0(!
1t!
1s!
1$!
1~
1"!
11!
1'!
1}
1j
1l
1o
1&
1)
1+
1#!
1k
1*
#260000
1#
1r
01!
0+!
0}
0j
0m
0o
0&
0(
0+
#280000
b1011 "
b111 !
b1010 "
0#
1s
0w
1x
0r
1u!
1r!
0q!
0,!
1(!
1{
0u!
0r!
1q!
1,!
0(!
0{
1%!
0"!
11!
1+!
1}
1j
1m
1o
1)!
0&!
1&
1(
1+
0#!
0k
1-!
0*!
0*
0'!
0l
0.!
0)
0+!
0m
0(
05!
03!
01!
0/!
0n
0o
0p
0q
0$
0%
0&
0'
#300000
1#
1r
15!
13!
1/!
1'!
1#!
0}
0j
1k
1l
1n
1p
1q
1$
1%
1'
1)
1*
0+
#320000
b1111 !
b1011 !
b1001 !
b1000 !
b1011 "
0#
1w
0s
0t
0u
1v
0r
0t!
0s!
0$!
0~
1p!
0o!
0n!
0m!
0l!
0k!
0j!
0i!
0h!
0g!
0f!
0e!
0d!
0c!
0b!
0a!
0`!
0_!
0^!
0]!
0\!
0[!
0Z!
0Y!
0X!
0W!
0V!
0U!
0T!
0S!
0R!
0Q!
0P!
0O!
0N!
0M!
0L!
0K!
0J!
0I!
0H!
0G!
0F!
0E!
0D!
0C!
0B!
0A!
0@!
0?!
0>!
0=!
0<!
0;!
0:!
09!
08!
07!
06!
0i
0h
0g
0f
0e
0d
0c
0b
0a
0`
0_
0^
0]
0\
0[
0Z
0Y
0X
0W
0V
0U
0T
0S
0R
0Q
0P
0O
0N
0M
0L
0K
0J
0I
0H
0G
0F
0E
0D
0C
0B
0A
0@
0?
0>
0=
0<
0;
0:
09
08
07
06
05
04
03
02
04!
02!
10!
1r!
0q!
0,!
1(!
1.!
1*!
0)!
1&!
0%!
1"!
05!
03!
0/!
0'!
0#!
1}
1j
0k
0l
0n
0p
0q
0*!
0&!
0$
0%
0'
0)
0*
1+
1#!
1'!
1+!
15!
13!
11!
1/!
1n
1o
1p
1q
1m
1l
1k
1*
1)
1(
1$
1%
1&
1'
0'!
0+!
0m
0l
0)
0(
#340000
1#
1r
05!
03!
0/!
1+!
0#!
0}
0j
0k
1m
0n
0p
0q
0$
0%
0'
1(
0*
0+
#360000
b1111 "
b1101 "
b1001 !
b1100 "
0#
1s
0w
0x
1y
0r
1u!
1t!
0r!
0(!
1~
1{
0u!
0t!
1s!
1r!
1q!
0p!
00!
1,!
1(!
1$!
0~
0{
1&!
0"!
15!
13!
1/!
0+!
1#!
1}
1j
1k
0m
1n
1p
1q
1$
1%
1'
0(
1*
1+
0#!
1'!
1l
0k
0*
1)
#380000
1#
1r
05!
03!
01!
1+!
0}
0j
1m
0o
0p
0q
0$
0%
0&
1(
0+
#400000
b1011 !
b1010 !
b1101 "
0#
1w
0s
1t
0r
0s!
0$!
1t!
0r!
0(!
1~
1"!
15!
13!
11!
0+!
1}
1j
0m
1o
1p
1q
1$
1%
1&
0(
1+
1#!
1k
1*
#420000
1#
1r
05!
03!
01!
0'!
0}
0j
0l
0o
0p
0q
0$
0%
0&
0)
0+
#440000
b1111 "
b1011 !
b1110 "
0#
1s
0w
1x
0r
1u!
1s!
1r!
0q!
0,!
1(!
1$!
1{
0u!
0s!
0$!
0{
1%!
0"!
15!
13!
11!
1'!
1}
1j
1l
1o
1p
1q
1)!
0&!
1$
1%
1&
1)
1+
0#!
0k
1*!
0*
0'!
0l
0)
1+!
1m
1(
#460000
1#
1r
05!
03!
01!
0/!
1#!
0}
0j
1k
0n
0o
0p
0q
0$
0%
0&
0'
1*
0+
#480000
b1111 !
b1101 !
b1100 !
b1111 "
0#
1w
0s
0t
1u
0r
0t!
0~
1s!
0r!
0(!
1$!
1&!
0%!
1"!
15!
13!
11!
1/!
0#!
1}
1j
0k
1n
1o
1p
1q
0&!
1$
1%
1&
1'
0*
1+
1#!
1'!
1l
1k
1*
1)
0'!
0l
0)
#500000
1#
1r
05!
03!
01!
0/!
0+!
1'!
0#!
0}
0j
0k
1l
0m
0n
0o
0p
0q
0$
0%
0&
0'
0(
1)
0*
0+
#520000
b111 "
b11 "
b1 "
b1101 !
b0 "
0#
1s
0w
0x
0y
0z
0r
1u!
1t!
0s!
0$!
1~
1{
0u!
0t!
1q!
1p!
10!
1,!
0~
0{
0q!
0p!
00!
0,!
0.!
0*!
0)!
1&!
0"!
15!
13!
11!
1/!
1+!
0'!
1#!
1}
1j
1k
0l
1m
1n
1o
1p
1q
0-!
1*!
1$
1%
1&
1'
1(
0)
1*
1+
0#!
1'!
0+!
05!
03!
01!
0/!
0n
0o
0p
0q
0m
1l
0k
1.!
0*
1)
0(
0$
0%
0&
0'
1+!
1m
1(
15!
13!
11!
1/!
1n
1o
1p
1q
1$
1%
1&
1'
#540000
1#
1r
05!
03!
01!
0/!
0+!
0'!
0}
0j
0l
0m
0n
0o
0p
0q
0$
0%
0&
0'
0(
0)
0+
#560000
b1111 !
b1110 !
b1 "
0#
1w
0s
1t
0r
1t!
1s!
1r!
1q!
1p!
1o!
1n!
1m!
1l!
1k!
1j!
1i!
1h!
1g!
1f!
1e!
1d!
1c!
1b!
1a!
1`!
1_!
1^!
1]!
1\!
1[!
1Z!
1Y!
1X!
1W!
1V!
1U!
1T!
1S!
1R!
1Q!
1P!
1O!
1N!
1M!
1L!
1K!
1J!
1I!
1H!
1G!
1F!
1E!
1D!
1C!
1B!
1A!
1@!
1?!
1>!
1=!
1<!
1;!
1:!
19!
18!
17!
16!
1i
1h
1g
1f
1e
1d
1c
1b
1a
1`
1_
1^
1]
1\
1[
1Z
1Y
1X
1W
1V
1U
1T
1S
1R
1Q
1P
1O
1N
1M
1L
1K
1J
1I
1H
1G
1F
1E
1D
1C
1B
1A
1@
1?
1>
1=
1<
1;
1:
19
18
17
16
15
14
13
12
14!
12!
10!
1,!
1(!
1$!
1~
1"!
15!
13!
11!
1/!
1+!
1'!
1}
1j
1l
1m
1n
1o
1p
1q
1$
1%
1&
1'
1(
1)
1+
1#!
1k
1*
#580000
1#
1r
0}
0j
0+
#600000
b11 "
b1111 !
b10 "
0#
1s
0w
1x
0r
1u!
1{
0u!
0{
1%!
0"!
1}
1j
1)!
0&!
1+
0#!
0k
1-!
0*!
0*
0'!
0l
0.!
0)
0+!
0m
0(
05!
03!
01!
0/!
0n
0o
0p
0q
0$
0%
0&
0'
#620000
1#
1r
15!
13!
11!
1/!
1+!
1'!
1#!
0}
0j
1k
1l
1m
1n
1o
1p
1q
1$
1%
1&
1'
1(
1)
1*
0+
#640000
b111 !
b11 !
b1 !
b0 !
b11 "
0#
1w
0s
0t
0u
0v
0r
0t!
0s!
0r!
0q!
0,!
0(!
0$!
0~
0p!
0o!
0n!
0m!
0l!
0k!
0j!
0i!
0h!
0g!
0f!
0e!
0d!
0c!
0b!
0a!
0`!
0_!
0^!
0]!
0\!
0[!
0Z!
0Y!
0X!
0W!
0V!
0U!
0T!
0S!
0R!
0Q!
0P!
0O!
0N!
0M!
0L!
0K!
0J!
0I!
0H!
0G!
0F!
0E!
0D!
0C!
0B!
0A!
0@!
0?!
0>!
0=!
0<!
0;!
0:!
09!
08!
07!
06!
0i
0h
0g
0f
0e
0d
0c
0b
0a
0`
0_
0^
0]
0\
0[
0Z
0Y
0X
0W
0V
0U
0T
0S
0R
0Q
0P
0O
0N
0M
0L
0K
0J
0I
0H
0G
0F
0E
0D
0C
0B
0A
0@
0?
0>
0=
0<
0;
0:
09
08
07
06
05
04
03
02
04!
02!
00!
1.!
0-!
1*!
0)!
1&!
0%!
1"!
05!
03!
01!
0/!
0+!
0'!
0#!
1}
1j
0k
0l
0m
0n
0o
0p
0q
0.!
0*!
0&!
0$
0%
0&
0'
0(
0)
0*
1+
1#!
1'!
1+!
15!
13!
11!
1/!
1n
1o
1p
1q
1m
1l
1k
1*
1)
1(
1$
1%
1&
1'
0'!
0+!
05!
03!
01!
0/!
0n
0o
0p
0q
0m
0l
0)
0(
0$
0%
0&
0'
#660000
1#
1r
0#!
0}
0j
0k
0*
0+
#680000
b111 "
b101 "
b1 !
b100 "
0#
1s
0w
0x
1y
0r
1u!
1t!
1~
1{
0u!
0t!
1s!
1$!
0~
0{
1&!
0"!
1#!
1}
1j
1k
1*
1+
0#!
1'!
1l
0k
0*
1)
#700000
1#
1r
0}
0j
0+
#720000
b11 !
b10 !
b101 "
0#
1w
0s
1t
0r
0s!
1r!
1(!
0$!
1t!
1~
1"!
1}
1j
1+
1#!
1k
1*
#740000
1#
1r
1+!
0'!
0}
0j
0l
1m
1(
0)
0+
#760000
b111 "
b11 !
b110 "
0#
1s
0w
1x
0r
1u!
1s!
1$!
1{
0u!
0s!
0r!
1q!
1,!
0(!
0$!
0{
1%!
0"!
0+!
1'!
1}
1j
1l
0m
1)!
0&!
0(
1)
1+
0#!
0k
1*!
0*
0'!
0l
0)
1+!
1m
1(
#780000
1#
1r
1/!
0+!
1#!
0}
0j
1k
0m
1n
1'
0(
1*
0+
#800000
b111 !
b101 !
b100 !
b111 "
0#
1w
0s
0t
1u
0r
0t!
1r!
1(!
0~
1s!
1$!
1&!
0%!
1"!
0/!
1+!
0#!
1}
1j
0k
1m
0n
0&!
0'
1(
0*
1+
1#!
1'!
1l
1k
1*
1)
0'!
0l
0)
#820000
1#
1r
1/!
1'!
0#!
0}
0j
0k
1l
1n
1'
1)
0*
0+
#840000
b1111 "
b1011 "
b1001 "
b101 !
b1000 "
0#
1s
0w
0x
0y
1z
0r
1u!
1t!
0s!
0r!
0q!
1p!
10!
0,!
0(!
0$!
1~
1{
0u!
0t!
1r!
1(!
0~
0{
1q!
0p!
1o!
1n!
1m!
1l!
1k!
1j!
1i!
1h!
1g!
1f!
1e!
1d!
1c!
1b!
1a!
1`!
1_!
1^!
1]!
1\!
1[!
1Z!
1Y!
1X!
1W!
1V!
1U!
1T!
1S!
1R!
1Q!
1P!
1O!
1N!
1M!
1L!
1K!
1J!
1I!
1H!
1G!
1F!
1E!
1D!
1C!
1B!
1A!
1@!
1?!
1>!
1=!
1<!
1;!
1:!
19!
18!
17!
16!
1i
1h
1g
1f
1e
1d
1c
1b
1a
1`
1_
1^
1]
1\
1[
1Z
1Y
1X
1W
1V
1U
1T
1S
1R
1Q
1P
1O
1N
1M
1L
1K
1J
1I
1H
1G
1F
1E
1D
1C
1B
1A
1@
1?
1>
1=
1<
1;
1:
19
18
17
16
15
14
13
12
14!
12!
00!
1,!
1.!
1-!
0*!
0)!
1&!
0"!
0/!
0'!
1#!
1}
1j
1k
0l
0n
0.!
0-!
1*!
0'
0)
1*
1+
0#!
1'!
0+!
15!
13!
11!
1/!
1n
1o
1p
1q
0m
1l
0k
1.!
0*
1)
0(
1$
1%
1&
1'
1+!
05!
03!
01!
0/!
0n
0o
0p
0q
1m
1(
0$
0%
0&
0'
15!
13!
11!
1/!
1n
1o
1p
1q
1$
1%
1&
1'
#860000
1#
1r
01!
0'!
0}
0j
0l
0o
0&
0)
0+
#880000
b111 !
b110 !
b1001 "
0#
1w
0s
1t
0r
0r!
0(!
1t!
1s!
1$!
1~
1"!
11!
1'!
1}
1j
1l
1o
1&
1)
1+
1#!
1k
1*
#900000
1#
1r
01!
0+!
0}
0j
0m
0o
0&
0(
0+
#920000
b1011 "
b111 !
b1010 "
0#
1s
0w
1x
0r
1u!
1r!
0q!
0,!
1(!
1{
0u!
0r!
1q!
1,!
0(!
0{
1%!
0"!
11!
1+!
1}
1j
1m
1o
1)!
0&!
1&
1(
1+
0#!
0k
1-!
0*!
0*
0'!
0l
0.!
0)
0+!
0m
0(
05!
03!
01!
0/!
0n
0o
0p
0q
0$
0%
0&
0'
#940000
1#
1r
15!
13!
1/!
1'!
1#!
0}
0j
1k
1l
1n
1p
1q
1$
1%
1'
1)
1*
0+
#960000
b1111 !
b1011 !
b1001 !
b1000 !
b1011 "
0#
1w
0s
0t
0u
1v
0r
0t!
0s!
0$!
0~
1p!
0o!
0n!
0m!
0l!
0k!
0j!
0i!
0h!
0g!
0f!
0e!
0d!
0c!
0b!
0a!
0`!
0_!
0^!
0]!
0\!
0[!
0Z!
0Y!
0X!
0W!
0V!
0U!
0T!
0S!
0R!
0Q!
0P!
0O!
0N!
0M!
0L!
0K!
0J!
0I!
0H!
0G!
0F!
0E!
0D!
0C!
0B!
0A!
0@!
0?!
0>!
0=!
0<!
0;!
0:!
09!
08!
07!
06!
0i
0h
0g
0f
0e
0d
0c
0b
0a
0`
0_
0^
0]
0\
0[
0Z
0Y
0X
0W
0V
0U
0T
0S
0R
0Q
0P
0O
0N
0M
0L
0K
0J
0I
0H
0G
0F
0E
0D
0C
0B
0A
0@
0?
0>
0=
0<
0;
0:
09
08
07
06
05
04
03
02
04!
02!
10!
1r!
0q!
0,!
1(!
1.!
1*!
0)!
1&!
0%!
1"!
05!
03!
0/!
0'!
0#!
1}
1j
0k
0l
0n
0p
0q
0*!
0&!
0$
0%
0'
0)
0*
1+
1#!
1'!
1+!
15!
13!
11!
1/!
1n
1o
1p
1q
1m
1l
1k
1*
1)
1(
1$
1%
1&
1'
0'!
0+!
0m
0l
0)
0(
#980000
1#
1r
05!
03!
0/!
1+!
0#!
0}
0j
0k
1m
0n
0p
0q
0$
0%
0'
1(
0*
0+
