elab_3/simulation/qsim/elab_3.msim.vcd
$comment
	File created using the following command:
		vcd file elab_3.msim.vcd -direction
$end
$date
	Fri Apr 19 00:27:38 2019
$end
$version
	ModelSim Version 10.5b
$end
$timescale
	1ps
$end

$scope module elab_3_vlg_vec_tst $end
$var reg 1 ! clk $end
$var reg 1 " rst $end
$var wire 1 # cout $end
$var wire 1 $ cout1 $end
$var wire 1 % ones [3] $end
$var wire 1 & ones [2] $end
$var wire 1 ' ones [1] $end
$var wire 1 ( ones [0] $end
$var wire 1 ) tens [3] $end
$var wire 1 * tens [2] $end
$var wire 1 + tens [1] $end
$var wire 1 , tens [0] $end

$scope module i1 $end
$var wire 1 - gnd $end
$var wire 1 . vcc $end
$var wire 1 / unknown $end
$var tri1 1 0 devclrn $end
$var tri1 1 1 devpor $end
$var tri1 1 2 devoe $end
$var wire 1 3 cout~output_o $end
$var wire 1 4 cout1~output_o $end
$var wire 1 5 ones[0]~output_o $end
$var wire 1 6 ones[1]~output_o $end
$var wire 1 7 ones[2]~output_o $end
$var wire 1 8 ones[3]~output_o $end
$var wire 1 9 tens[0]~output_o $end
$var wire 1 : tens[1]~output_o $end
$var wire 1 ; tens[2]~output_o $end
$var wire 1 < tens[3]~output_o $end
$var wire 1 = clk~input_o $end
$var wire 1 > Add0~1_sumout $end
$var wire 1 ? rst~input_o $end
$var wire 1 @ Add0~2 $end
$var wire 1 A Add0~25_sumout $end
$var wire 1 B Add0~26 $end
$var wire 1 C Add0~21_sumout $end
$var wire 1 D Add0~22 $end
$var wire 1 E Add0~17_sumout $end
$var wire 1 F Add0~18 $end
$var wire 1 G Add0~13_sumout $end
$var wire 1 H Add0~14 $end
$var wire 1 I Add0~9_sumout $end
$var wire 1 J Add0~10 $end
$var wire 1 K Add0~5_sumout $end
$var wire 1 L Equal0~0_combout $end
$var wire 1 M Add0~6 $end
$var wire 1 N Add0~49_sumout $end
$var wire 1 O Add0~50 $end
$var wire 1 P Add0~45_sumout $end
$var wire 1 Q Add0~46 $end
$var wire 1 R Add0~41_sumout $end
$var wire 1 S Add0~42 $end
$var wire 1 T Add0~37_sumout $end
$var wire 1 U Add0~38 $end
$var wire 1 V Add0~33_sumout $end
$var wire 1 W Add0~34 $end
$var wire 1 X Add0~29_sumout $end
$var wire 1 Y Equal0~1_combout $end
$var wire 1 Z Add0~30 $end
$var wire 1 [ Add0~97_sumout $end
$var wire 1 \ Add0~98 $end
$var wire 1 ] Add0~93_sumout $end
$var wire 1 ^ Add0~94 $end
$var wire 1 _ Add0~89_sumout $end
$var wire 1 ` Add0~90 $end
$var wire 1 a Add0~85_sumout $end
$var wire 1 b Add0~86 $end
$var wire 1 c Add0~81_sumout $end
$var wire 1 d Add0~82 $end
$var wire 1 e Add0~77_sumout $end
$var wire 1 f Add0~78 $end
$var wire 1 g Add0~73_sumout $end
$var wire 1 h Add0~74 $end
$var wire 1 i Add0~69_sumout $end
$var wire 1 j Add0~70 $end
$var wire 1 k Add0~65_sumout $end
$var wire 1 l Add0~66 $end
$var wire 1 m Add0~61_sumout $end
$var wire 1 n Add0~62 $end
$var wire 1 o Add0~57_sumout $end
$var wire 1 p Add0~58 $end
$var wire 1 q Add0~53_sumout $end
$var wire 1 r Equal0~2_combout $end
$var wire 1 s Equal0~3_combout $end
$var wire 1 t Equal0~4_combout $end
$var wire 1 u ones[0]~3_combout $end
$var wire 1 v ones[0]~reg0_q $end
$var wire 1 w ones~2_combout $end
$var wire 1 x ones[1]~reg0_q $end
$var wire 1 y ones[2]~1_combout $end
$var wire 1 z ones[2]~reg0_q $end
$var wire 1 { ones~0_combout $end
$var wire 1 | ones[3]~reg0_q $end
$var wire 1 } Equal1~0_combout $end
$var wire 1 ~ tens[0]~3_combout $end
$var wire 1 !! always2~0_combout $end
$var wire 1 "! tens[0]~reg0_q $end
$var wire 1 #! tens[2]~1_combout $end
$var wire 1 $! tens[2]~reg0_q $end
$var wire 1 %! tens~2_combout $end
$var wire 1 &! tens[3]~reg0_q $end
$var wire 1 '! tens~0_combout $end
$var wire 1 (! tens[1]~reg0_q $end
$var wire 1 )! cnt_div [24] $end
$var wire 1 *! cnt_div [23] $end
$var wire 1 +! cnt_div [22] $end
$var wire 1 ,! cnt_div [21] $end
$var wire 1 -! cnt_div [20] $end
$var wire 1 .! cnt_div [19] $end
$var wire 1 /! cnt_div [18] $end
$var wire 1 0! cnt_div [17] $end
$var wire 1 1! cnt_div [16] $end
$var wire 1 2! cnt_div [15] $end
$var wire 1 3! cnt_div [14] $end
$var wire 1 4! cnt_div [13] $end
$var wire 1 5! cnt_div [12] $end
$var wire 1 6! cnt_div [11] $end
$var wire 1 7! cnt_div [10] $end
$var wire 1 8! cnt_div [9] $end
$var wire 1 9! cnt_div [8] $end
$var wire 1 :! cnt_div [7] $end
$var wire 1 ;! cnt_div [6] $end
$var wire 1 <! cnt_div [5] $end
$var wire 1 =! cnt_div [4] $end
$var wire 1 >! cnt_div [3] $end
$var wire 1 ?! cnt_div [2] $end
$var wire 1 @! cnt_div [1] $end
$var wire 1 A! cnt_div [0] $end
$upscope $end
$upscope $end
$enddefinitions $end
#0
$dumpvars
0!
1"
0#
0$
0(
0'
0&
0%
0,
0+
0*
0)
0-
1.
x/
10
11
12
03
04
05
06
07
08
09
0:
0;
0<
0=
1>
1?
0@
0A
0B
0C
0D
0E
0F
0G
0H
0I
0J
0K
0L
0M
0N
0O
0P
0Q
0R
0S
0T
0U
0V
0W
0X
1Y
0Z
0[
0\
0]
0^
0_
0`
0a
0b
0c
0d
0e
0f
0g
0h
0i
0j
0k
0l
0m
0n
0o
0p
0q
1r
1s
0t
1u
0v
0w
0x
0y
0z
0{
0|
0}
1~
0!!
0"!
0#!
0$!
0%!
0&!
0'!
0(!
0A!
0@!
0?!
0>!
0=!
0<!
0;!
0:!
09!
08!
07!
06!
05!
04!
03!
02!
01!
00!
0/!
0.!
0-!
0,!
0+!
0*!
0)!
$end
#10000
1!
1=
1A!
1@
0>
1A
#20000
0!
0=
#30000
1!
1=
1@!
0A!
0@
1L
1B
1>
0A
0B
1A
1C
0C
#40000
0!
0=
#50000
1!
1=
1A!
1@
1t
0>
13
1B
1#
0A
1C
#60000
0!
0=
#70000
1!
1=
0@!
0A!
1v
15
0@
0L
0B
1(
0t
1>
1A
1w
0u
03
0#
0A
0C
#80000
0!
0=
#90000
1!
1=
1A!
1@
0>
1A
#100000
0!
0=
#110000
1!
1=
1@!
0A!
0@
1L
1B
1>
0A
0B
1A
1C
0C
#120000
0!
0=
#130000
1!
1=
1A!
1@
1t
0>
13
1B
1#
0A
1C
#140000
0!
0=
#150000
1!
1=
0@!
0A!
1x
0v
05
16
0@
0L
0B
1'
0(
0t
1>
1A
1u
03
0#
0A
0C
#160000
0!
0=
#170000
1!
1=
1A!
1@
0>
1A
#180000
0!
0=
#190000
1!
1=
1@!
0A!
0@
1L
1B
1>
0A
0B
1A
1C
0C
#200000
0!
0=
#210000
1!
1=
1A!
1@
1t
0>
13
1B
1#
0A
1C
#220000
0!
0=
#230000
1!
1=
0@!
0A!
1v
15
0@
0L
0B
1(
0t
1>
1A
1y
0w
0u
03
0#
0A
0C
0y
#240000
0!
0=
#250000
1!
1=
1A!
1@
0>
1A
#260000
0!
0=
#270000
1!
1=
1@!
0A!
0@
1L
1B
1>
0A
0B
1A
1C
0C
#280000
0!
0=
#290000
1!
1=
1A!
1@
1t
0>
13
1B
1#
0A
1y
1C
#300000
0!
0=
#310000
1!
1=
0@!
0A!
1z
0x
0v
05
06
17
0@
0L
0B
1&
0'
0(
0t
1>
1A
1u
03
0#
0A
0C
#320000
0!
0=
#330000
1!
1=
1A!
1@
0>
1A
#340000
0!
0=
#350000
1!
1=
1@!
0A!
0@
1L
1B
1>
0A
0B
1A
1C
0C
#360000
0!
0=
#370000
1!
1=
1A!
1@
1t
0>
13
1B
1#
0A
1C
#380000
0!
0=
#390000
1!
1=
0@!
0A!
1v
15
0@
0L
0B
1(
0t
1>
1A
1w
0u
03
0#
0A
0C
#400000
0!
0=
#410000
1!
1=
1A!
1@
0>
1A
#420000
0!
0=
#430000
1!
1=
1@!
0A!
0@
1L
1B
1>
0A
0B
1A
1C
0C
#440000
0!
0=
#450000
1!
1=
1A!
1@
1t
0>
13
1B
1#
0A
1C
#460000
0!
0=
#470000
1!
1=
0@!
0A!
1x
0v
05
16
0@
0L
0B
1'
0(
0t
1>
1A
1u
03
0#
0A
0C
#480000
0!
0=
#490000
1!
1=
1A!
1@
0>
1A
#500000
0!
0=
#510000
1!
1=
1@!
0A!
0@
1L
1B
1>
0A
0B
1A
1C
0C
#520000
0!
0=
#530000
1!
1=
1A!
1@
1t
0>
13
1B
1#
0A
1C
#540000
0!
0=
#550000
1!
1=
0@!
0A!
1v
15
0@
0L
0B
1(
0t
1>
1A
1{
0y
0w
0u
03
0#
0A
0C
1y
#560000
0!
0=
#570000
1!
1=
1A!
1@
0>
1A
#580000
0!
0=
#590000
1!
1=
1@!
0A!
0@
1L
1B
1>
0A
0B
1A
1C
0C
#600000
0!
0=
#610000
1!
1=
1A!
1@
1t
0>
13
1B
1#
0A
0y
1C
#620000
0!
0=
#630000
1!
1=
0@!
0A!
1|
0z
0x
0v
05
06
07
18
0@
0L
0B
1%
0&
0'
0(
0t
1>
1A
1u
03
0#
0A
0C
#640000
0!
0=
#650000
1!
1=
1A!
1@
0>
1A
#660000
0!
0=
#670000
1!
1=
1@!
0A!
0@
1L
1B
1>
0A
0B
1A
1C
0C
#680000
0!
0=
#690000
1!
1=
1A!
1@
1t
0>
13
1B
1#
0A
1C
#700000
0!
0=
#710000
1!
1=
0@!
0A!
1v
15
0@
0L
0B
1(
0t
1>
1A
1}
0{
0u
14
03
0#
1$
0A
0C
#720000
0!
0=
#730000
1!
1=
1A!
1@
0>
1A
#740000
0!
0=
#750000
1!
1=
1@!
0A!
0@
1L
1B
1>
0A
0B
1A
1C
0C
#760000
0!
0=
#770000
1!
1=
1A!
1!!
1@
1t
0>
13
1B
1#
0A
1C
#780000
0!
0=
#790000
1!
1=
0@!
0A!
1"!
0|
0v
05
08
19
0!!
0@
0L
0B
1,
0%
0(
0t
1>
1A
0}
1u
1'!
0~
04
03
0#
0$
0A
0C
#800000
0!
0=
#810000
1!
1=
1A!
1@
0>
1A
#820000
0!
0=
#830000
1!
1=
1@!
0A!
0@
1L
1B
1>
0A
0B
1A
1C
0C
#840000
0!
0=
#850000
1!
1=
1A!
1@
1t
0>
13
1B
1#
0A
1C
#860000
0!
0=
#870000
1!
1=
0@!
0A!
1v
15
0@
0L
0B
1(
0t
1>
1A
1w
0u
03
0#
0A
0C
#880000
0!
0=
#890000
1!
1=
1A!
1@
0>
1A
#900000
0!
0=
#910000
1!
1=
1@!
0A!
0@
1L
1B
1>
0A
0B
1A
1C
0C
#920000
0!
0=
#930000
1!
1=
1A!
1@
1t
0>
13
1B
1#
0A
1C
#940000
0!
0=
#950000
1!
1=
0@!
0A!
1x
0v
05
16
0@
0L
0B
1'
0(
0t
1>
1A
1u
03
0#
0A
0C
#960000
0!
0=
#970000
1!
1=
1A!
1@
0>
1A
#980000
0!
0=
#990000
1!
1=
1@!
0A!
0@
1L
1B
1>
0A
0B
1A
1C
0C
#1000000
0!
0=
#1010000
1!
1=
1A!
1@
1t
0>
13
1B
1#
0A
1C
#1020000
0!
0=
#1030000
1!
1=
0@!
0A!
1v
15
0@
0L
0B
1(
0t
1>
1A
1y
0w
0u
03
0#
0A
0C
0y
#1040000
0!
0=
#1050000
1!
1=
1A!
1@
0>
1A
#1060000
0!
0=
#1070000
1!
1=
1@!
0A!
0@
1L
1B
1>
0A
0B
1A
1C
0C
#1080000
0!
0=
#1090000
1!
1=
1A!
1@
1t
0>
13
1B
1#
0A
1y
1C
#1100000
0!
0=
#1110000
1!
1=
0@!
0A!
1z
0x
0v
05
06
17
0@
0L
0B
1&
0'
0(
0t
1>
1A
1u
03
0#
0A
0C
#1120000
0!
0=
#1130000
1!
1=
1A!
1@
0>
1A
#1140000
0!
0=
#1150000
1!
1=
1@!
0A!
0@
1L
1B
1>
0A
0B
1A
1C
0C
#1160000
0!
0=
#1170000
1!
1=
1A!
1@
1t
0>
13
1B
1#
0A
1C
#1180000
0!
0=
#1190000
1!
1=
0@!
0A!
1v
15
0@
0L
0B
1(
0t
1>
1A
1w
0u
03
0#
0A
0C
#1200000
0!
0=
#1210000
1!
1=
1A!
1@
0>
1A
#1220000
0!
0=
#1230000
1!
1=
1@!
0A!
0@
1L
1B
1>
0A
0B
1A
1C
0C
#1240000
0!
0=
#1250000
1!
1=
1A!
1@
1t
0>
13
1B
1#
0A
1C
#1260000
0!
0=
#1270000
0"
1!
0?
1=
0A!
0@!
0v
0z
0"!
09
07
05
0L
0B
0@
0(
0&
0,
1A
0t
1>
0'!
1~
0y
0w
1u
03
0#
0C
0A
#1280000
1"
0!
1?
0=
#1290000
1!
1=
1A!
1@
0>
1A
#1300000
0!
0=
#1310000
1!
1=
1@!
0A!
0@
1L
1B
1>
0A
0B
1A
1C
0C
#1320000
0!
0=
#1330000
1!
1=
1A!
1@
1t
0>
13
1B
1#
0A
1C
#1340000
0!
0=
#1350000
1!
1=
0@!
0A!
1v
15
0@
0L
0B
1(
0t
1>
1A
1w
0u
03
0#
0A
0C
#1360000
0!
0=
#1370000
1!
1=
1A!
1@
0>
1A
#1380000
0!
0=
#1390000
1!
1=
1@!
0A!
0@
1L
1B
1>
0A
0B
1A
1C
0C
#1400000
0!
0=
#1410000
1!
1=
1A!
1@
1t
0>
13
1B
1#
0A
1C
#1420000
0!
0=
#1430000
1!
1=
0@!
0A!
1x
0v
05
16
0@
0L
0B
1'
0(
0t
1>
1A
1u
03
0#
0A
0C
#1440000
0!
0=
#1450000
1!
1=
1A!
1@
0>
1A
#1460000
0!
0=
#1470000
1!
1=
1@!
0A!
0@
1L
1B
1>
0A
0B
1A
1C
0C
#1480000
0!
0=
#1490000
1!
1=
1A!
1@
1t
0>
13
1B
1#
0A
1C
#1500000
0!
0=
#1510000
1!
1=
0@!
0A!
1v
15
0@
0L
0B
1(
0t
1>
1A
1y
0w
0u
03
0#
0A
0C
0y
#1520000
0!
0=
#1530000
1!
1=
1A!
1@
0>
1A
#1540000
0!
0=
#1550000
1!
1=
1@!
0A!
0@
1L
1B
1>
0A
0B
1A
1C
0C
#1560000
0!
0=
#1570000
1!
1=
1A!
1@
1t
0>
13
1B
1#
0A
1y
1C
#1580000
0!
0=
#1590000
1!
1=
0@!
0A!
1z
0x
0v
05
06
17
0@
0L
0B
1&
0'
0(
0t
1>
1A
1u
03
0#
0A
0C
#1600000
0!
0=
#1610000
1!
1=
1A!
1@
0>
1A
#1620000
0!
0=
#1630000
1!
1=
1@!
0A!
0@
1L
1B
1>
0A
0B
1A
1C
0C
#1640000
0!
0=
#1650000
1!
1=
1A!
1@
1t
0>
13
1B
1#
0A
1C
#1660000
0!
0=
#1670000
1!
1=
0@!
0A!
1v
15
0@
0L
0B
1(
0t
1>
1A
1w
0u
03
0#
0A
0C
#1680000
0!
0=
#1690000
1!
1=
1A!
1@
0>
1A
#1700000
0!
0=
#1710000
1!
1=
1@!
0A!
0@
1L
1B
1>
0A
0B
1A
1C
0C
#1720000
0!
0=
#1730000
1!
1=
1A!
1@
1t
0>
13
1B
1#
0A
1C
#1740000
0!
0=
#1750000
1!
1=
0@!
0A!
1x
0v
05
16
0@
0L
0B
1'
0(
0t
1>
1A
1u
03
0#
0A
0C
#1760000
0!
0=
#1770000
1!
1=
1A!
1@
0>
1A
#1780000
0!
0=
#1790000
1!
1=
1@!
0A!
0@
1L
1B
1>
0A
0B
1A
1C
0C
#1800000
0!
0=
#1810000
1!
1=
1A!
1@
1t
0>
13
1B
1#
0A
1C
#1820000
0!
0=
#1830000
1!
1=
0@!
0A!
1v
15
0@
0L
0B
1(
0t
1>
1A
1{
0y
0w
0u
03
0#
0A
0C
1y
#1840000
0!
0=
#1850000
1!
1=
1A!
1@
0>
1A
#1860000
0!
0=
#1870000
1!
1=
1@!
0A!
0@
1L
1B
1>
0A
0B
1A
1C
0C
#1880000
0!
0=
#1890000
1!
1=
1A!
1@
1t
0>
13
1B
1#
0A
0y
1C
#1900000
0!
0=
#1910000
1!
1=
0@!
0A!
1|
0z
0x
0v
05
06
07
18
0@
0L
0B
1%
0&
0'
0(
0t
1>
1A
1u
03
0#
0A
0C
#1920000
0!
0=
#1930000
1!
1=
1A!
1@
0>
1A
#1940000
0!
0=
#1950000
1!
1=
1@!
0A!
0@
1L
1B
1>
0A
0B
1A
1C
0C
#1960000
0!
0=
#1970000
1!
1=
1A!
1@
1t
0>
13
1B
1#
0A
1C
#1980000
0!
0=
#1990000
1!
1=
0@!
0A!
1v
15
0@
0L
0B
1(
0t
1>
1A
1}
0{
0u
14
03
0#
1$
0A
0C
#2000000
0!
0=
#2010000
1!
1=
1A!
1@
0>
1A
#2020000
0!
0=
#2030000
1!
1=
1@!
0A!
0@
1L
1B
1>
0A
0B
1A
1C
0C
#2040000
0!
0=
#2050000
1!
1=
1A!
1!!
1@
1t
0>
13
1B
1#
0A
1C
#2060000
0!
0=
#2070000
1!
1=
0@!
0A!
1"!
0|
0v
05
08
19
0!!
0@
0L
0B
1,
0%
0(
0t
1>
1A
0}
1u
1'!
0~
04
03
0#
0$
0A
0C
#2080000
0!
0=
#2090000
1!
1=
1A!
1@
0>
1A
#2100000
0!
0=
#2110000
1!
1=
1@!
0A!
0@
1L
1B
1>
0A
0B
1A
1C
0C
#2120000
0!
0=
#2130000
1!
1=
1A!
1@
1t
0>
13
1B
1#
0A
1C
#2140000
0!
0=
#2150000
1!
1=
0@!
0A!
1v
15
0@
0L
0B
1(
0t
1>
1A
1w
0u
03
0#
0A
0C
#2160000
0!
0=
#2170000
1!
1=
1A!
1@
0>
1A
#2180000
0!
0=
#2190000
1!
1=
1@!
0A!
0@
1L
1B
1>
0A
0B
1A
1C
0C
#2200000
0!
0=
#2210000
1!
1=
1A!
1@
1t
0>
13
1B
1#
0A
1C
#2220000
0!
0=
#2230000
1!
1=
0@!
0A!
1x
0v
05
16
0@
0L
0B
1'
0(
0t
1>
1A
1u
03
0#
0A
0C
#2240000
0!
0=
#2250000
1!
1=
1A!
1@
0>
1A
#2260000
0!
0=
#2270000
1!
1=
1@!
0A!
0@
1L
1B
1>
0A
0B
1A
1C
0C
#2280000
0!
0=
#2290000
1!
1=
1A!
1@
1t
0>
13
1B
1#
0A
1C
#2300000
0!
0=
#2310000
1!
1=
0@!
0A!
1v
15
0@
0L
0B
1(
0t
1>
1A
1y
0w
0u
03
0#
0A
0C
0y
#2320000
0!
0=
#2330000
1!
1=
1A!
1@
0>
1A
#2340000
0!
0=
#2350000
1!
1=
1@!
0A!
0@
1L
1B
1>
0A
0B
1A
1C
0C
#2360000
0!
0=
#2370000
1!
1=
1A!
1@
1t
0>
13
1B
1#
0A
1y
1C
#2380000
0!
0=
#2390000
1!
1=
0@!
0A!
1z
0x
0v
05
06
17
0@
0L
0B
1&
0'
0(
0t
1>
1A
1u
03
0#
0A
0C
#2400000
0!
0=
#2410000
1!
1=
1A!
1@
0>
1A
#2420000
0!
0=
#2430000
1!
1=
1@!
0A!
0@
1L
1B
1>
0A
0B
1A
1C
0C
#2440000
0!
0=
#2450000
1!
1=
1A!
1@
1t
0>
13
1B
1#
0A
1C
#2460000
0!
0=
#2470000
1!
1=
0@!
0A!
1v
15
0@
0L
0B
1(
0t
1>
1A
1w
0u
03
0#
0A
0C
#2480000
0!
0=
#2490000
1!
1=
1A!
1@
0>
1A
#2500000
0!
0=
#2510000
1!
1=
1@!
0A!
0@
1L
1B
1>
0A
0B
1A
1C
0C
#2520000
0!
0=
#2530000
1!
1=
1A!
1@
1t
0>
13
1B
1#
0A
1C
#2540000
0!
0=
#2550000
1!
1=
0@!
0A!
1x
0v
05
16
0@
0L
0B
1'
0(
0t
1>
1A
1u
03
0#
0A
0C
#2560000
0!
0=
#2570000
1!
1=
1A!
1@
0>
1A
#2580000
0!
0=
#2590000
1!
1=
1@!
0A!
0@
1L
1B
1>
0A
0B
1A
1C
0C
#2600000
0!
0=
#2610000
1!
1=
1A!
1@
1t
0>
13
1B
1#
0A
1C
#2620000
0!
0=
#2630000
1!
1=
0@!
0A!
1v
15
0@
0L
0B
1(
0t
1>
1A
1{
0y
0w
0u
03
0#
0A
0C
1y
#2640000
0!
0=
#2650000
1!
1=
1A!
1@
0>
1A
#2660000
0!
0=
#2670000
1!
1=
1@!
0A!
0@
1L
1B
1>
0A
0B
1A
1C
0C
#2680000
0!
0=
#2690000
1!
1=
1A!
1@
1t
0>
13
1B
1#
0A
0y
1C
#2700000
0!
0=
#2710000
1!
1=
0@!
0A!
1|
0z
0x
0v
05
06
07
18
0@
0L
0B
1%
0&
0'
0(
0t
1>
1A
1u
03
0#
0A
0C
#2720000
0!
0=
#2730000
1!
1=
1A!
1@
0>
1A
#2740000
0!
0=
#2750000
1!
1=
1@!
0A!
0@
1L
1B
1>
0A
0B
1A
1C
0C
#2760000
0!
0=
#2770000
1!
1=
1A!
1@
1t
0>
13
1B
1#
0A
1C
#2780000
0!
0=
#2790000
1!
1=
0@!
0A!
1v
15
0@
0L
0B
1(
0t
1>
1A
1}
0{
0u
14
03
0#
1$
0A
0C
#2800000
0!
0=
#2810000
1!
1=
1A!
1@
0>
1A
#2820000
0!
0=
#2830000
1!
1=
1@!
0A!
0@
1L
1B
1>
0A
0B
1A
1C
0C
#2840000
0!
0=
#2850000
1!
1=
1A!
1!!
1@
1t
0>
13
1B
1#
0A
1C
#2860000
0!
0=
#2870000
1!
1=
0@!
0A!
1(!
0"!
0|
0v
05
08
09
1:
0!!
0@
0L
0B
1+
0,
0%
0(
0t
1>
1A
0}
1u
1~
04
03
0#
0$
0A
0C
#2880000
0!
0=
#2890000
1!
1=
1A!
1@
0>
1A
#2900000
0!
0=
#2910000
1!
1=
1@!
0A!
0@
1L
1B
1>
0A
0B
1A
1C
0C
#2920000
0!
0=
#2930000
1!
1=
1A!
1@
1t
0>
13
1B
1#
0A
1C
#2940000
0!
0=
#2950000
1!
1=
0@!
0A!
1v
15
0@
0L
0B
1(
0t
1>
1A
1w
0u
03
0#
0A
0C
#2960000
0!
0=
#2970000
1!
1=
1A!
1@
0>
1A
#2980000
0!
0=
#2990000
1!
1=
1@!
0A!
0@
1L
1B
1>
0A
0B
1A
1C
0C
#3000000
0!
0=
#3010000
1!
1=
1A!
1@
1t
0>
13
1B
1#
0A
1C
#3020000
0!
0=
#3030000
1!
1=
0@!
0A!
1x
0v
05
16
0@
0L
0B
1'
0(
0t
1>
1A
1u
03
0#
0A
0C
#3040000
0!
0=
#3050000
1!
1=
1A!
1@
0>
1A
#3060000
0!
0=
#3070000
1!
1=
1@!
0A!
0@
1L
1B
1>
0A
0B
1A
1C
0C
#3080000
0!
0=
#3090000
1!
1=
1A!
1@
1t
0>
13
1B
1#
0A
1C
#3100000
0!
0=
#3110000
1!
1=
0@!
0A!
1v
15
0@
0L
0B
1(
0t
1>
1A
1y
0w
0u
03
0#
0A
0C
0y
#3120000
0!
0=
#3130000
1!
1=
1A!
1@
0>
1A
#3140000
0!
0=
#3150000
1!
1=
1@!
0A!
0@
1L
1B
1>
0A
0B
1A
1C
0C
#3160000
0!
0=
#3170000
1!
1=
1A!
1@
1t
0>
13
1B
1#
0A
1y
1C
#3180000
0!
0=
#3190000
1!
1=
0@!
0A!
1z
0x
0v
05
06
17
0@
0L
0B
1&
0'
0(
0t
1>
1A
1u
03
0#
0A
0C
#3200000
0!
0=
#3210000
1!
1=
1A!
1@
0>
1A
#3220000
0!
0=
#3230000
1!
1=
1@!
0A!
0@
1L
1B
1>
0A
0B
1A
1C
0C
#3240000
0!
0=
#3250000
1!
1=
1A!
1@
1t
0>
13
1B
1#
0A
1C
#3260000
0!
0=
#3270000
1!
1=
0@!
0A!
1v
15
0@
0L
0B
1(
0t
1>
1A
1w
0u
03
0#
0A
0C
#3280000
0!
0=
#3290000
1!
1=
1A!
1@
0>
1A
#3300000
0!
0=
#3310000
1!
1=
1@!
0A!
0@
1L
1B
1>
0A
0B
1A
1C
0C
#3320000
0!
0=
#3330000
1!
1=
1A!
1@
1t
0>
13
1B
1#
0A
1C
#3340000
0!
0=
#3350000
1!
1=
0@!
0A!
1x
0v
05
16
0@
0L
0B
1'
0(
0t
1>
1A
1u
03
0#
0A
0C
#3360000
0!
0=
#3370000
1!
1=
1A!
1@
0>
1A
#3380000
0!
0=
#3390000
1!
1=
1@!
0A!
0@
1L
1B
1>
0A
0B
1A
1C
0C
#3400000
0!
0=
#3410000
1!
1=
1A!
1@
1t
0>
13
1B
1#
0A
1C
#3420000
0!
0=
#3430000
1!
1=
0@!
0A!
1v
15
0@
0L
0B
1(
0t
1>
1A
1{
0y
0w
0u
03
0#
0A
0C
1y
#3440000
0!
0=
#3450000
1!
1=
1A!
1@
0>
1A
#3460000
0!
0=
#3470000
1!
1=
1@!
0A!
0@
1L
1B
1>
0A
0B
1A
1C
0C
#3480000
0!
0=
#3490000
1!
1=
1A!
1@
1t
0>
13
1B
1#
0A
0y
1C
#3500000
0!
0=
#3510000
1!
1=
0@!
0A!
1|
0z
0x
0v
05
06
07
18
0@
0L
0B
1%
0&
0'
0(
0t
1>
1A
1u
03
0#
0A
0C
#3520000
0!
0=
#3530000
1!
1=
1A!
1@
0>
1A
#3540000
0!
0=
#3550000
1!
1=
1@!
0A!
0@
1L
1B
1>
0A
0B
1A
1C
0C
#3560000
0!
0=
#3570000
1!
1=
1A!
1@
1t
0>
13
1B
1#
0A
1C
#3580000
0!
0=
#3590000
1!
1=
0@!
0A!
1v
15
0@
0L
0B
1(
0t
1>
1A
1}
0{
0u
14
03
0#
1$
0A
0C
#3600000
0!
0=
#3610000
1!
1=
1A!
1@
0>
1A
#3620000
0!
0=
#3630000
1!
1=
1@!
0A!
0@
1L
1B
1>
0A
0B
1A
1C
0C
#3640000
0!
0=
#3650000
1!
1=
1A!
1!!
1@
1t
0>
13
1B
1#
0A
1C
#3660000
0!
0=
#3670000
1!
1=
0@!
0A!
1"!
0|
0v
05
08
19
0!!
0@
0L
0B
1,
0%
0(
0t
1>
1A
0}
1u
0'!
1#!
0~
04
03
0#
0$
0A
0C
0#!
#3680000
0!
0=
#3690000
1!
1=
1A!
1@
0>
1A
#3700000
0!
0=
#3710000
1!
1=
1@!
0A!
0@
1L
1B
1>
0A
0B
1A
1C
0C
#3720000
0!
0=
#3730000
1!
1=
1A!
1@
1t
0>
13
1B
1#
0A
1C
#3740000
0!
0=
#3750000
1!
1=
0@!
0A!
1v
15
0@
0L
0B
1(
0t
1>
1A
1w
0u
03
0#
0A
0C
#3760000
0!
0=
#3770000
1!
1=
1A!
1@
0>
1A
#3780000
0!
0=
#3790000
1!
1=
1@!
0A!
0@
1L
1B
1>
0A
0B
1A
1C
0C
#3800000
0!
0=
#3810000
1!
1=
1A!
1@
1t
0>
13
1B
1#
0A
1C
#3820000
0!
0=
#3830000
1!
1=
0@!
0A!
1x
0v
05
16
0@
0L
0B
1'
0(
0t
1>
1A
1u
03
0#
0A
0C
#3840000
0!
0=
#3850000
1!
1=
1A!
1@
0>
1A
#3860000
0!
0=
#3870000
1!
1=
1@!
0A!
0@
1L
1B
1>
0A
0B
1A
1C
0C
#3880000
0!
0=
#3890000
1!
1=
1A!
1@
1t
0>
13
1B
1#
0A
1C
#3900000
0!
0=
#3910000
1!
1=
0@!
0A!
1v
15
0@
0L
0B
1(
0t
1>
1A
1y
0w
0u
03
0#
0A
0C
0y
#3920000
0!
0=
#3930000
1!
1=
1A!
1@
0>
1A
#3940000
0!
0=
#3950000
1!
1=
1@!
0A!
0@
1L
1B
1>
0A
0B
1A
1C
0C
#3960000
0!
0=
#3970000
1!
1=
1A!
1@
1t
0>
13
1B
1#
0A
1y
1C
#3980000
0!
0=
#3990000
1!
1=
0@!
0A!
1z
0x
0v
05
06
17
0@
0L
0B
1&
0'
0(
0t
1>
1A
1u
03
0#
0A
0C
#4000000
0!
0=
#4010000
1!
1=
1A!
1@
0>
1A
#4020000
0!
0=
#4030000
1!
1=
1@!
0A!
0@
1L
1B
1>
0A
0B
1A
1C
0C
#4040000
0!
0=
#4050000
1!
1=
1A!
1@
1t
0>
13
1B
1#
0A
1C
#4060000
0!
0=
#4070000
1!
1=
0@!
0A!
1v
15
0@
0L
0B
1(
0t
1>
1A
1w
0u
03
0#
0A
0C
#4080000
0!
0=
#4090000
1!
1=
1A!
1@
0>
1A
#4100000
0!
0=
#4110000
1!
1=
1@!
0A!
0@
1L
1B
1>
0A
0B
1A
1C
0C
#4120000
0!
0=
#4130000
1!
1=
1A!
1@
1t
0>
13
1B
1#
0A
1C
#4140000
0!
0=
#4150000
1!
1=
0@!
0A!
1x
0v
05
16
0@
0L
0B
1'
0(
0t
1>
1A
1u
03
0#
0A
0C
#4160000
0!
0=
#4170000
1!
1=
1A!
1@
0>
1A
#4180000
0!
0=
#4190000
1!
1=
1@!
0A!
0@
1L
1B
1>
0A
0B
1A
1C
0C
#4200000
0!
0=
#4210000
1!
1=
1A!
1@
1t
0>
13
1B
1#
0A
1C
#4220000
0!
0=
#4230000
1!
1=
0@!
0A!
1v
15
0@
0L
0B
1(
0t
1>
1A
1{
0y
0w
0u
03
0#
0A
0C
1y
#4240000
0!
0=
#4250000
1!
1=
1A!
1@
0>
1A
#4260000
0!
0=
#4270000
1!
1=
1@!
0A!
0@
1L
1B
1>
0A
0B
1A
1C
0C
#4280000
0!
0=
#4290000
1!
1=
1A!
1@
1t
0>
13
1B
1#
0A
0y
1C
#4300000
0!
0=
