lab2_3/simulation/qsim/lab2_3.msim.vcd
$comment
	File created using the following command:
		vcd file lab2_3.msim.vcd -direction
$end
$date
	Wed Mar 20 23:19:22 2019
$end
$version
	ModelSim Version 10.5b
$end
$timescale
	1ps
$end

$scope module lab2_3_vlg_vec_tst $end
$var reg 4 ! a [3:0] $end
$var reg 4 " b [3:0] $end
$var wire 1 # led0 [9] $end
$var wire 1 $ led0 [8] $end
$var wire 1 % res [7] $end
$var wire 1 & res [6] $end
$var wire 1 ' res [5] $end
$var wire 1 ( res [4] $end
$var wire 1 ) res [3] $end
$var wire 1 * res [2] $end
$var wire 1 + res [1] $end
$var wire 1 , res [0] $end

$scope module i1 $end
$var wire 1 - gnd $end
$var wire 1 . vcc $end
$var wire 1 / unknown $end
$var tri1 1 0 devclrn $end
$var tri1 1 1 devpor $end
$var tri1 1 2 devoe $end
$var wire 1 3 res[0]~output_o $end
$var wire 1 4 res[1]~output_o $end
$var wire 1 5 res[2]~output_o $end
$var wire 1 6 res[3]~output_o $end
$var wire 1 7 res[4]~output_o $end
$var wire 1 8 res[5]~output_o $end
$var wire 1 9 res[6]~output_o $end
$var wire 1 : res[7]~output_o $end
$var wire 1 ; led0[8]~output_o $end
$var wire 1 < led0[9]~output_o $end
$var wire 1 = a[0]~input_o $end
$var wire 1 > b[3]~input_o $end
$var wire 1 ? a[3]~input_o $end
$var wire 1 @ b[0]~input_o $end
$var wire 1 A Div0|auto_generated|divider|divider|add_sub_0_result_int[0]~5_sumout $end
$var wire 1 B Div0|auto_generated|divider|divider|add_sub_0_result_int[0]~6 $end
$var wire 1 C Div0|auto_generated|divider|divider|add_sub_0_result_int[0]~7 $end
$var wire 1 D Div0|auto_generated|divider|divider|add_sub_0_result_int[1]~1_sumout $end
$var wire 1 E b[1]~input_o $end
$var wire 1 F b[2]~input_o $end
$var wire 1 G a[2]~input_o $end
$var wire 1 H Div0|auto_generated|divider|divider|add_sub_1_result_int[0]~10 $end
$var wire 1 I Div0|auto_generated|divider|divider|add_sub_1_result_int[0]~11 $end
$var wire 1 J Div0|auto_generated|divider|divider|add_sub_1_result_int[1]~5_sumout $end
$var wire 1 K Div0|auto_generated|divider|divider|add_sub_1_result_int[1]~6 $end
$var wire 1 L Div0|auto_generated|divider|divider|add_sub_1_result_int[1]~7 $end
$var wire 1 M Div0|auto_generated|divider|divider|add_sub_1_result_int[2]~1_sumout $end
$var wire 1 N Div0|auto_generated|divider|divider|StageOut[0]~15_combout $end
$var wire 1 O Div0|auto_generated|divider|divider|add_sub_1_result_int[0]~9_sumout $end
$var wire 1 P a[1]~input_o $end
$var wire 1 Q Div0|auto_generated|divider|divider|add_sub_2_result_int[0]~10 $end
$var wire 1 R Div0|auto_generated|divider|divider|add_sub_2_result_int[0]~11 $end
$var wire 1 S Div0|auto_generated|divider|divider|add_sub_2_result_int[1]~14 $end
$var wire 1 T Div0|auto_generated|divider|divider|add_sub_2_result_int[1]~15 $end
$var wire 1 U Div0|auto_generated|divider|divider|add_sub_2_result_int[2]~6 $end
$var wire 1 V Div0|auto_generated|divider|divider|add_sub_2_result_int[2]~7 $end
$var wire 1 W Div0|auto_generated|divider|divider|add_sub_2_result_int[3]~1_sumout $end
$var wire 1 X Div0|auto_generated|divider|divider|StageOut[6]~14_combout $end
$var wire 1 Y Div0|auto_generated|divider|divider|add_sub_2_result_int[2]~5_sumout $end
$var wire 1 Z Div0|auto_generated|divider|divider|StageOut[6]~16_combout $end
$var wire 1 [ Div0|auto_generated|divider|divider|add_sub_2_result_int[1]~13_sumout $end
$var wire 1 \ Div0|auto_generated|divider|divider|StageOut[5]~10_combout $end
$var wire 1 ] Div0|auto_generated|divider|divider|add_sub_2_result_int[0]~9_sumout $end
$var wire 1 ^ Div0|auto_generated|divider|divider|op_4~22_cout $end
$var wire 1 _ Div0|auto_generated|divider|divider|op_4~10 $end
$var wire 1 ` Div0|auto_generated|divider|divider|op_4~14 $end
$var wire 1 a Div0|auto_generated|divider|divider|op_4~18 $end
$var wire 1 b Div0|auto_generated|divider|divider|op_4~6 $end
$var wire 1 c Div0|auto_generated|divider|divider|op_4~1_sumout $end
$var wire 1 d Div0|auto_generated|divider|divider|op_4~9_sumout $end
$var wire 1 e Div0|auto_generated|divider|divider|op_5~22 $end
$var wire 1 f Div0|auto_generated|divider|divider|op_5~9_sumout $end
$var wire 1 g Div0|auto_generated|divider|divider|StageOut[12]~13_combout $end
$var wire 1 h Div0|auto_generated|divider|divider|op_4~5_sumout $end
$var wire 1 i Div0|auto_generated|divider|divider|StageOut[12]~17_combout $end
$var wire 1 j Div0|auto_generated|divider|divider|StageOut[11]~9_combout $end
$var wire 1 k Div0|auto_generated|divider|divider|op_4~17_sumout $end
$var wire 1 l Div0|auto_generated|divider|divider|StageOut[11]~11_combout $end
$var wire 1 m Div0|auto_generated|divider|divider|StageOut[10]~5_combout $end
$var wire 1 n Div0|auto_generated|divider|divider|op_4~13_sumout $end
$var wire 1 o Div0|auto_generated|divider|divider|op_5~10 $end
$var wire 1 p Div0|auto_generated|divider|divider|op_5~14 $end
$var wire 1 q Div0|auto_generated|divider|divider|op_5~18 $end
$var wire 1 r Div0|auto_generated|divider|divider|op_5~6_cout $end
$var wire 1 s Div0|auto_generated|divider|divider|op_5~1_sumout $end
$var wire 1 t Div0|auto_generated|divider|divider|StageOut[21]~1_combout $end
$var wire 1 u Div0|auto_generated|divider|divider|op_5~21_sumout $end
$var wire 1 v Div0|auto_generated|divider|divider|op_6~22 $end
$var wire 1 w Div0|auto_generated|divider|divider|op_6~18 $end
$var wire 1 x Div0|auto_generated|divider|divider|op_6~9_sumout $end
$var wire 1 y Div0|auto_generated|divider|divider|StageOut[17]~8_combout $end
$var wire 1 z Div0|auto_generated|divider|divider|op_5~17_sumout $end
$var wire 1 { Div0|auto_generated|divider|divider|StageOut[17]~12_combout $end
$var wire 1 | Div0|auto_generated|divider|divider|StageOut[16]~4_combout $end
$var wire 1 } Div0|auto_generated|divider|divider|op_5~13_sumout $end
$var wire 1 ~ Div0|auto_generated|divider|divider|StageOut[16]~6_combout $end
$var wire 1 !! Div0|auto_generated|divider|divider|op_6~10 $end
$var wire 1 "! Div0|auto_generated|divider|divider|op_6~14 $end
$var wire 1 #! Div0|auto_generated|divider|divider|op_6~6_cout $end
$var wire 1 $! Div0|auto_generated|divider|divider|op_6~1_sumout $end
$var wire 1 %! Div0|auto_generated|divider|divider|StageOut[27]~0_combout $end
$var wire 1 &! Div0|auto_generated|divider|divider|StageOut[22]~3_combout $end
$var wire 1 '! Div0|auto_generated|divider|divider|op_6~13_sumout $end
$var wire 1 (! Div0|auto_generated|divider|divider|StageOut[22]~7_combout $end
$var wire 1 )! Div0|auto_generated|divider|divider|StageOut[21]~18_combout $end
$var wire 1 *! Div0|auto_generated|divider|divider|StageOut[21]~19_combout $end
$var wire 1 +! Div0|auto_generated|divider|divider|op_6~17_sumout $end
$var wire 1 ,! Div0|auto_generated|divider|divider|StageOut[26]~22_combout $end
$var wire 1 -! Div0|auto_generated|divider|divider|op_6~21_sumout $end
$var wire 1 .! Div0|auto_generated|divider|divider|op_7~22 $end
$var wire 1 /! Div0|auto_generated|divider|divider|op_7~18 $end
$var wire 1 0! Div0|auto_generated|divider|divider|op_7~14 $end
$var wire 1 1! Div0|auto_generated|divider|divider|op_7~10 $end
$var wire 1 2! Div0|auto_generated|divider|divider|op_7~6_cout $end
$var wire 1 3! Div0|auto_generated|divider|divider|op_7~1_sumout $end
$var wire 1 4! Div0|auto_generated|divider|divider|op_7~9_sumout $end
$var wire 1 5! Div0|auto_generated|divider|divider|StageOut[27]~2_combout $end
$var wire 1 6! Div0|auto_generated|divider|divider|StageOut[26]~20_combout $end
$var wire 1 7! Div0|auto_generated|divider|divider|op_7~13_sumout $end
$var wire 1 8! Div0|auto_generated|divider|divider|StageOut[26]~21_combout $end
$var wire 1 9! Div0|auto_generated|divider|divider|op_7~17_sumout $end
$var wire 1 :! Div0|auto_generated|divider|divider|StageOut[31]~23_combout $end
$var wire 1 ;! Div0|auto_generated|divider|divider|op_7~21_sumout $end
$var wire 1 <! Div0|auto_generated|divider|divider|op_8~22_cout $end
$var wire 1 =! Div0|auto_generated|divider|divider|op_8~18_cout $end
$var wire 1 >! Div0|auto_generated|divider|divider|op_8~14_cout $end
$var wire 1 ?! Div0|auto_generated|divider|divider|op_8~10_cout $end
$var wire 1 @! Div0|auto_generated|divider|divider|op_8~6_cout $end
$var wire 1 A! Div0|auto_generated|divider|divider|op_8~1_sumout $end
$var wire 1 B! Div0|auto_generated|divider|divider|selnose [71] $end
$var wire 1 C! Div0|auto_generated|divider|divider|selnose [70] $end
$var wire 1 D! Div0|auto_generated|divider|divider|selnose [69] $end
$var wire 1 E! Div0|auto_generated|divider|divider|selnose [68] $end
$var wire 1 F! Div0|auto_generated|divider|divider|selnose [67] $end
$var wire 1 G! Div0|auto_generated|divider|divider|selnose [66] $end
$var wire 1 H! Div0|auto_generated|divider|divider|selnose [65] $end
$var wire 1 I! Div0|auto_generated|divider|divider|selnose [64] $end
$var wire 1 J! Div0|auto_generated|divider|divider|selnose [63] $end
$var wire 1 K! Div0|auto_generated|divider|divider|selnose [62] $end
$var wire 1 L! Div0|auto_generated|divider|divider|selnose [61] $end
$var wire 1 M! Div0|auto_generated|divider|divider|selnose [60] $end
$var wire 1 N! Div0|auto_generated|divider|divider|selnose [59] $end
$var wire 1 O! Div0|auto_generated|divider|divider|selnose [58] $end
$var wire 1 P! Div0|auto_generated|divider|divider|selnose [57] $end
$var wire 1 Q! Div0|auto_generated|divider|divider|selnose [56] $end
$var wire 1 R! Div0|auto_generated|divider|divider|selnose [55] $end
$var wire 1 S! Div0|auto_generated|divider|divider|selnose [54] $end
$var wire 1 T! Div0|auto_generated|divider|divider|selnose [53] $end
$var wire 1 U! Div0|auto_generated|divider|divider|selnose [52] $end
$var wire 1 V! Div0|auto_generated|divider|divider|selnose [51] $end
$var wire 1 W! Div0|auto_generated|divider|divider|selnose [50] $end
$var wire 1 X! Div0|auto_generated|divider|divider|selnose [49] $end
$var wire 1 Y! Div0|auto_generated|divider|divider|selnose [48] $end
$var wire 1 Z! Div0|auto_generated|divider|divider|selnose [47] $end
$var wire 1 [! Div0|auto_generated|divider|divider|selnose [46] $end
$var wire 1 \! Div0|auto_generated|divider|divider|selnose [45] $end
$var wire 1 ]! Div0|auto_generated|divider|divider|selnose [44] $end
$var wire 1 ^! Div0|auto_generated|divider|divider|selnose [43] $end
$var wire 1 _! Div0|auto_generated|divider|divider|selnose [42] $end
$var wire 1 `! Div0|auto_generated|divider|divider|selnose [41] $end
$var wire 1 a! Div0|auto_generated|divider|divider|selnose [40] $end
$var wire 1 b! Div0|auto_generated|divider|divider|selnose [39] $end
$var wire 1 c! Div0|auto_generated|divider|divider|selnose [38] $end
$var wire 1 d! Div0|auto_generated|divider|divider|selnose [37] $end
$var wire 1 e! Div0|auto_generated|divider|divider|selnose [36] $end
$var wire 1 f! Div0|auto_generated|divider|divider|selnose [35] $end
$var wire 1 g! Div0|auto_generated|divider|divider|selnose [34] $end
$var wire 1 h! Div0|auto_generated|divider|divider|selnose [33] $end
$var wire 1 i! Div0|auto_generated|divider|divider|selnose [32] $end
$var wire 1 j! Div0|auto_generated|divider|divider|selnose [31] $end
$var wire 1 k! Div0|auto_generated|divider|divider|selnose [30] $end
$var wire 1 l! Div0|auto_generated|divider|divider|selnose [29] $end
$var wire 1 m! Div0|auto_generated|divider|divider|selnose [28] $end
$var wire 1 n! Div0|auto_generated|divider|divider|selnose [27] $end
$var wire 1 o! Div0|auto_generated|divider|divider|selnose [26] $end
$var wire 1 p! Div0|auto_generated|divider|divider|selnose [25] $end
$var wire 1 q! Div0|auto_generated|divider|divider|selnose [24] $end
$var wire 1 r! Div0|auto_generated|divider|divider|selnose [23] $end
$var wire 1 s! Div0|auto_generated|divider|divider|selnose [22] $end
$var wire 1 t! Div0|auto_generated|divider|divider|selnose [21] $end
$var wire 1 u! Div0|auto_generated|divider|divider|selnose [20] $end
$var wire 1 v! Div0|auto_generated|divider|divider|selnose [19] $end
$var wire 1 w! Div0|auto_generated|divider|divider|selnose [18] $end
$var wire 1 x! Div0|auto_generated|divider|divider|selnose [17] $end
$var wire 1 y! Div0|auto_generated|divider|divider|selnose [16] $end
$var wire 1 z! Div0|auto_generated|divider|divider|selnose [15] $end
$var wire 1 {! Div0|auto_generated|divider|divider|selnose [14] $end
$var wire 1 |! Div0|auto_generated|divider|divider|selnose [13] $end
$var wire 1 }! Div0|auto_generated|divider|divider|selnose [12] $end
$var wire 1 ~! Div0|auto_generated|divider|divider|selnose [11] $end
$var wire 1 !" Div0|auto_generated|divider|divider|selnose [10] $end
$var wire 1 "" Div0|auto_generated|divider|divider|selnose [9] $end
$var wire 1 #" Div0|auto_generated|divider|divider|selnose [8] $end
$var wire 1 $" Div0|auto_generated|divider|divider|selnose [7] $end
$var wire 1 %" Div0|auto_generated|divider|divider|selnose [6] $end
$var wire 1 &" Div0|auto_generated|divider|divider|selnose [5] $end
$var wire 1 '" Div0|auto_generated|divider|divider|selnose [4] $end
$var wire 1 (" Div0|auto_generated|divider|divider|selnose [3] $end
$var wire 1 )" Div0|auto_generated|divider|divider|selnose [2] $end
$var wire 1 *" Div0|auto_generated|divider|divider|selnose [1] $end
$var wire 1 +" Div0|auto_generated|divider|divider|selnose [0] $end
$upscope $end
$upscope $end
$enddefinitions $end
#0
$dumpvars
b0 !
b0 "
0$
0#
1,
1+
1*
1)
1(
1'
1&
1%
0-
1.
x/
10
11
12
13
14
15
16
17
18
19
1:
0;
0<
0=
0>
0?
0@
0A
0B
1C
0D
0E
0F
0G
0H
1I
0J
1K
0L
0M
0N
0O
0P
0Q
1R
1S
0T
1U
0V
0W
0X
0Y
0Z
0[
0\
0]
1^
1_
1`
1a
1b
0c
0d
1e
0f
0g
0h
0i
0j
0k
0l
0m
0n
1o
1p
1q
1r
0s
0t
0u
1v
1w
0x
0y
0z
0{
0|
0}
0~
1!!
1"!
1#!
0$!
0%!
0&!
0'!
0(!
0)!
0*!
0+!
0,!
0-!
1.!
1/!
10!
11!
12!
03!
04!
05!
06!
07!
08!
09!
0:!
0;!
1<!
1=!
1>!
1?!
1@!
0A!
0+"
z*"
z)"
z("
z'"
z&"
z%"
z$"
z#"
0""
z!"
z~!
z}!
z|!
z{!
zz!
zy!
zx!
0w!
zv!
zu!
zt!
zs!
zr!
zq!
zp!
zo!
zn!
zm!
zl!
zk!
zj!
zi!
zh!
zg!
zf!
ze!
zd!
zc!
zb!
za!
z`!
z_!
z^!
z]!
z\!
z[!
zZ!
zY!
zX!
zW!
zV!
zU!
zT!
zS!
zR!
zQ!
zP!
zO!
zN!
zM!
zL!
zK!
zJ!
zI!
zH!
zG!
zF!
zE!
zD!
zC!
zB!
$end
#25000
b10 "
b11 "
1@
1E
0=!
0/!
19!
0w
1+!
0o
1f
0`
1n
0S
1[
0K
1J
1+"
0<!
0.!
1;!
0v
1-!
0e
1u
0_
1d
1]
0R
1O
0I
1A
0C
0:
0>!
00!
17!
0!!
1x
0U
1V
1M
0J
1D
1\
1m
1t
1,!
1:!
1X
1j
1|
1)!
16!
0%
0"!
1'!
1>!
10!
07!
1!!
0x
0X
1Y
0V
0\
1""
1%!
09
0#!
1"!
0'!
1W
0[
1g
1h
0%!
0&
1$!
1#!
0j
0a
1k
0m
0g
0n
1w!
08
05
0$!
0b
0|
0p
1}
1y
1z
18!
06!
15!
14!
09!
0*
0'
15
1c
0z
0:!
1&!
1'!
08!
16!
05!
04!
19!
1*
07
1:!
0>!
0y
0q
1z
0f
0(
0?!
0r
0)!
0t
1>!
0@!
1s
1?!
0!!
1x
06
1A!
1@!
0"!
14!
1%!
0&!
0+!
0)
03
0A!
0#!
06!
0,!
0,
13
1$!
00!
17!
1,
05
01!
09!
0%!
0*
02!
0:!
13!
0>!
04
0?!
0+
0@!
1A!
03
0,
#50000
b111 "
b110 "
0@
1F
07!
0x
0}
0k
0Y
1<!
1.!
0;!
1v
0-!
1e
0u
1_
0d
0]
1R
0O
1I
0A
1C
19!
1+!
1f
1n
1[
1J
0D
#75000
b1110 "
b1100 "
b1000 "
b1001 "
1@
0E
0F
1>
04!
0'!
0z
0h
1k
1`
0n
17!
1x
1}
1Y
1=!
1/!
09!
1w
0+!
1o
0f
1S
0[
1K
0J
0<!
0.!
1;!
0v
1-!
0e
1u
0_
1d
1]
0R
1O
0I
1A
0C
1a
0k
1>!
10!
07!
1!!
0x
1p
0}
1U
0Y
0M
0=!
0/!
19!
0w
1+!
0o
1f
0`
1n
0S
1[
0K
1J
1D
1h
14!
1'!
1z
0W
0>!
00!
17!
0!!
1x
0p
1}
0a
1k
0U
1Y
1M
04!
0'!
0z
0h
1W
#100000
b1 !
b1101 "
b1100 "
0@
1F
1=
1*!
1t
1o
0f
1_
07!
0x
0}
0k
0Y
1<!
1.!
0;!
1v
0-!
1e
0u
0]
1R
0O
1I
0A
1C
1}
1`
0n
1=!
1/!
09!
1w
0+!
1f
1S
0[
1K
0J
0D
14!
15!
1x
1k
17!
1!!
0x
1Y
0M
1@!
1'!
0A!
13
1,
#125000
b1110 "
b1111 "
1@
1E
0=!
0/!
19!
0w
1+!
0f
0`
1n
0S
1[
0K
1J
0<!
0.!
1;!
0v
1-!
0e
1u
0d
1]
0R
1O
0I
1A
0C
07!
0!!
1x
0k
0Y
1M
09!
0+!
0o
1f
0[
0J
1D
0'!
0}
#150000
b111 "
b11 "
b10 "
0@
0F
0>
11!
04!
1'!
1z
1h
1k
17!
1!!
0x
1}
1Y
1<!
1.!
0;!
1v
0-!
1e
0u
1d
0]
1R
0O
1I
0A
1C
12!
1"!
0'!
19!
1+!
1o
0f
1[
1J
0D
03!
1#!
1p
0}
14
0$!
1q
0z
0@!
1?!
1:!
1+
15
1r
1A!
1@!
1>!
16!
05!
01!
14!
1,!
1*
03
0s
0A!
02!
10!
07!
0,
13
16
13!
11!
04!
0*!
0t
1)
1,
04
12!
0!!
1x
0:!
0+
03!
0"!
1'!
0>!
14!
1%!
14
0#!
0?!
1:!
1+
1$!
1>!
05
1?!
06!
04!
0,!
0%!
0*
00!
17!
01!
14!
02!
13!
04
0:!
0+
0>!
0?!
0@!
1A!
03
0,
#175000
b0 "
b100 "
b101 "
1@
0E
1F
07!
0x
0p
1}
0k
0Y
1=!
1/!
09!
1w
0+!
1f
1`
0n
1S
0[
1K
0J
0<!
0.!
1;!
0v
1-!
0e
1u
0d
1]
0R
1O
0I
1A
0C
0q
1z
17!
1x
1k
1Y
0M
0=!
0/!
19!
0f
0S
1[
0K
1J
1D
1t
18!
1,!
1)!
1&!
1"!
0'!
0r
0Y
1M
1#!
12!
11!
04!
1?!
15!
1!!
0x
0)!
0t
1s
0$!
03!
1@!
1'!
05!
0!!
1x
01!
14!
14
15
06
0A!
0"!
11!
04!
1%!
1=!
1:!
08!
1/!
09!
0,!
1*!
0&!
0w
1+!
1t
0)
1*
1+
13
0#!
1>!
16!
1,!
0:!
1,
1$!
0>!
10!
07!
05
0?!
14!
06!
15!
0/!
19!
0,!
0%!
0*
00!
1:!
04!
1>!
1?!
0@!
1@!
1A!
03
0A!
0,
13
1,
#200000
b11 !
b10 !
b1101 "
b1001 "
b1000 "
0@
0F
1>
0=
1P
1m
1n
1R
0*!
0t
0o
1f
0?!
01!
14!
0'!
0z
0h
1a
0k
17!
1!!
0x
1p
0}
1Y
1<!
1.!
0;!
1v
0-!
1e
0u
0O
1I
0A
1C
1S
0[
02!
1h
1'!
1z
1/!
09!
1w
0+!
1o
0f
1K
0J
0D
04!
1?!
05!
0!!
1x
1~
1U
0Y
13!
10!
07!
1!!
0x
1}
0M
1(!
0:!
04
0W
14!
1"!
0'!
12!
0?!
0+
1#!
03!
0@!
14
0$!
1A!
1@!
1+
03
15
0A!
02!
1*
0,
13
13!
1,
04
0@!
0+
1A!
03
0,
#225000
b1010 "
b1011 "
1@
1E
0=!
0/!
19!
0w
1+!
0o
1f
0n
0S
1[
0K
1J
0<!
0.!
1;!
0v
1-!
0e
1u
0_
1d
0]
1O
0I
1A
0C
0>!
00!
17!
0!!
1x
0}
0U
1Y
1M
0+!
0f
0`
1n
0J
1D
1,!
1:!
16!
0"!
1'!
1W
0a
1k
1>!
10!
07!
06!
0,!
1%!
0#!
0h
11!
04!
1@!
00!
17!
12!
1$!
0A!
01!
14!
03!
14
13
05
1?!
04!
09!
0%!
0*
1,
1+
0:!
0>!
0?!
0@!
1A!
03
0,
#250000
b1111 "
b1110 "
0@
1F
07!
0x
0p
1}
0k
0Y
1<!
1.!
0;!
1v
0-!
1e
0u
1_
0d
1]
0O
1I
0A
1C
0z
19!
1+!
1f
1`
0n
1J
0D
1k
1:!
#275000
b110 "
b100 "
b0 "
b1 "
1@
0E
0F
0>
14!
1"!
0'!
1z
1h
1a
0k
1n
0+"
1>!
17!
1x
1p
0}
1Y
1=!
1/!
09!
1w
0+!
1o
0f
1S
0[
1K
0J
0<!
0.!
1;!
0v
1-!
0e
1u
0_
1d
0]
1O
0I
1A
0C
1:
1#!
1b
0h
1?!
1q
0z
10!
07!
1!!
0x
1}
1U
0Y
0M
0/!
19!
0w
1+!
0o
1f
0n
0K
1L
1D
1N
0:!
1@!
1%
0$!
0c
1r
11!
04!
1'!
0W
00!
17!
0!!
1x
0}
0A!
0U
1Y
1V
0N
1+"
1:!
1\
0""
19
0:
13
17
15
0s
0'!
1U
0Y
0V
0S
1[
1T
1J
0L
1g
1%!
0m
0`
1n
0w!
1*!
0~
1t
0p
1}
1o
0f
16!
1/!
09!
1,!
1*
1(
1,
0%
1&
18
16
0U
1Y
1V
1M
0q
1z
1p
10!
0:!
0t
1&!
1!!
0x
0(!
1|
1X
1j
0g
0*!
1w
0+!
1)
1'
0r
1q
0z
1'!
06!
0,!
1h
0%!
0\
0X
1""
1g
09
1s
1r
1U
0Y
0V
1S
0[
0T
07!
0&
06
0s
0j
0a
1k
0g
0h
1*!
1(!
0&!
0w
1+!
1t
0)
16
0b
1h
16!
1,!
1y
1z
0*!
0(!
1&!
1w
0+!
0t
1)
1c
06!
0,!
17!
07
07!
0|
0y
0z
0}
0o
1f
0(
0p
1}
1)!
1t
0&!
0'!
0q
1z
1x
1&!
1'!
0r
14!
1%!
1s
06
0)!
0&!
0'!
0w
1+!
0t
0)
0!!
16!
1,!
0"!
1'!
17!
0#!
1$!
05
06!
04!
0/!
19!
0,!
0%!
0*
00!
1:!
01!
14!
02!
13!
04
0=!
0:!
0+
0>!
0?!
0@!
1A!
03
0,
#300000
b11 !
b101 "
b100 "
0@
1F
1=
1*!
1t
1o
0f
1_
07!
0x
0}
0k
0U
1Y
1<!
1.!
0;!
1v
0-!
1e
0u
1]
0O
1I
0A
1C
1}
1`
1W
1=!
1/!
09!
1w
0+!
1f
1K
0J
0D
1m
1g
1b
0h
11!
04!
15!
1x
1k
17!
1!!
0x
0M
0c
12!
1@!
1r
1~
1p
0}
0g
1w!
08
17
1"!
03!
0A!
0s
1q
0b
1h
0r
1(!
0~
1|
1y
1(
0'
16
13
14
1#!
1r
1c
1s
0(!
0'!
0*!
1)!
0@!
1?!
1+
1,
1)
06
07
0$!
0s
1A!
1@!
1*!
0)!
1(!
1'!
1~
0|
0y
0z
0(
0)
03
16
15
0A!
0(!
0'!
01!
14!
0*!
1)!
05!
1*
1)
0,
13
02!
1,
13!
04
0?!
0+
0@!
1A!
03
0,
#325000
b110 "
b111 "
1@
1E
0=!
0/!
19!
0w
1+!
0f
0n
0S
1[
0K
1J
0<!
0.!
1;!
0v
1-!
0e
1u
0d
0]
1O
0I
1A
0C
07!
0!!
1x
0Y
1M
0o
1f
0J
1D
0t
1,!
1:!
0)!
16!
0"!
1'!
0p
1}
1?!
11!
04!
17!
0x
1)!
1t
1%!
0#!
0q
1z
1@!
12!
1x
01!
14!
0%!
1&!
1"!
0'!
1$!
0r
0A!
03!
02!
1#!
11!
04!
1%!
14
13
05
1s
13!
0$!
12!
18!
06!
15!
09!
0%!
0*
1,
1+
15
04
06
03!
08!
16!
05!
19!
1%!
1*!
0)!
1(!
0&!
0+!
0)
0+
1*
14
06!
0,!
1+
07!
0?!
0@!
1A!
03
0,
#350000
b1111 "
b1011 "
b1010 "
0@
0F
1>
01!
14!
0"!
1'!
0z
0h
1a
0k
1>!
17!
1!!
0x
1p
0}
1Y
1<!
1.!
0;!
1v
0-!
1e
0u
1d
1]
0O
1I
0A
1C
0#!
1h
1?!
1"!
0'!
1z
1+!
1o
0f
1J
0D
04!
0%!
1@!
1$!
1#!
1}
0A!
16!
1,!
02!
13
05
0$!
13!
10!
07!
06!
15!
12!
14!
0,!
0*
1,
04
15
03!
00!
17!
0?!
0:!
16!
05!
02!
1,!
1*
0+
14
04!
13!
10!
07!
1?!
0>!
1:!
1+
04
14!
0?!
1>!
0:!
0+
0@!
1?!
0>!
1A!
1@!
0?!
03
0A!
0@!
0,
13
1A!
1,
03
0,
#375000
b1000 "
b1100 "
b1101 "
1@
0E
1F
00!
17!
0!!
1x
0}
0a
1k
0Y
1=!
1/!
09!
1w
0+!
1f
1n
1S
0[
1K
0J
0<!
0.!
1;!
0v
1-!
0e
1u
0d
0]
1O
0I
1A
0C
0"!
1'!
0h
10!
07!
1!!
0x
1Y
0M
0=!
0w
1+!
0f
0K
1J
1D
0,!
1:!
06!
1%!
0#!
1"!
0'!
0!!
1x
1M
1@!
00!
17!
16!
1,!
0%!
12!
1$!
1#!
0"!
1'!
0A!
03!
0@!
10!
07!
1%!
02!
14
13
05
0$!
0#!
1A!
11!
04!
13!
1@!
1=!
0:!
12!
06!
15!
0/!
19!
0,!
0%!
0*
1,
1+
04
03
15
1$!
0A!
03!
00!
1:!
0=!
16!
05!
1/!
09!
1,!
1%!
1*
0,
0+
14
13
05
01!
14!
10!
0@!
0:!
1=!
06!
15!
0/!
19!
0,!
0%!
0*
1,
1+
11!
04!
1A!
00!
1@!
1:!
03
01!
14!
0A!
1>!
0@!
0,
13
1A!
1@!
1,
03
0A!
0,
13
1,
#400000
b111 !
b101 !
b100 !
b101 "
b1 "
b0 "
0@
0F
0>
0=
0P
1G
1\
0S
1[
1T
1I
0m
0n
0*!
0t
0o
1f
1?!
11!
04!
1"!
0'!
1q
0z
1h
1a
0k
17!
1!!
0x
1}
1U
0Y
1<!
1.!
0;!
1v
0-!
1e
0u
0A
1C
1K
0J
0p
1#!
1r
1b
0h
1'!
0W
1/!
09!
1w
0+!
1o
0f
0D
01!
14!
05!
0!!
1x
0~
1k
1l
0M
0$!
0s
0c
10!
07!
1!!
0x
1p
0}
0"!
1{
0(!
0+"
0:!
0l
1j
0w!
18
1:
17
16
15
11!
04!
1"!
0'!
1z
0#!
0{
1y
0""
1*
1)
1(
1%
1'
19
1#!
1$!
1&
05
0$!
0*
15
1*
#425000
b10 "
b11 "
1@
1E
0=!
0/!
19!
0w
1+!
0o
1f
0`
1n
1S
0[
0T
0K
1J
1+"
0<!
0.!
1;!
0v
1-!
0e
1u
0_
1d
1]
0R
0O
1A
0C
0:
0>!
00!
17!
0!!
1x
0a
0U
1Y
1V
1M
0S
1D
0\
1m
1t
1,!
1:!
1X
0j
1|
1)!
16!
0%
0"!
1'!
0Y
1>!
10!
07!
1!!
0x
1\
0X
1""
1g
1%!
09
1"!
0'!
1Y
0V
1[
0b
1h
0%!
0g
0&
1W
1c
1j
1a
0k
1g
1b
0h
07
1h
0c
0y
1{
1~
0|
0f
0m
1l
0j
0g
0n
1w!
0(
08
17
0h
0p
1}
0{
0z
0~
0)!
0t
1f
1(
0'
0q
1z
1)!
1t
0!!
1x
1'!
1&!
0r
0'!
14!
1%!
1!!
0x
1s
1'!
04!
0%!
06
1*!
0)!
0&!
0'!
0+!
0)
06!
0,!
00!
17!
01!
14!
02!
13!
04
0+
#450000
b111 "
b110 "
0@
1F
0>!
07!
0!!
1x
0}
0a
1k
0Y
1<!
1.!
0;!
1v
0-!
1e
0u
1_
0d
0]
1R
1O
0A
1C
0?!
0"!
1'!
0b
1h
1+!
1n
1S
0[
0D
0*!
0t
0:!
1y
1q
0z
11!
04!
1%!
1c
1Y
1r
12!
0x
1|
1}
16!
1,!
07
0s
03!
17!
1?!
1"!
0'!
1(!
01!
14!
0%!
0|
1{
0y
0}
0(
14
16
02!
0"!
1'!
0(!
1:!
1)!
1t
1)
1+
13!
0#!
1x
12!
04
1$!
03!
11!
04!
1%!
0:!
0+
14
05
1:!
06!
15!
0,!
0%!
0*
1+
07!
0?!
0@!
1A!
03
0,
