elab_2/simulation/qsim/elab_2.msim.vcd
$comment
	File created using the following command:
		vcd file elab_2.msim.vcd -direction
$end
$date
	Thu Mar 21 00:18:33 2019
$end
$version
	ModelSim Version 10.5b
$end
$timescale
	1ps
$end

$scope module elab_2_vlg_vec_tst $end
$var reg 4 ! sw [3:0] $end
$var reg 1 " sw7 $end
$var wire 1 # led [7] $end
$var wire 1 $ led [6] $end
$var wire 1 % led [5] $end
$var wire 1 & led [4] $end
$var wire 1 ' led [3] $end
$var wire 1 ( led [2] $end
$var wire 1 ) led [1] $end
$var wire 1 * led [0] $end
$var wire 1 + led0 [9] $end
$var wire 1 , led0 [8] $end

$scope module i1 $end
$var wire 1 - gnd $end
$var wire 1 . vcc $end
$var wire 1 / unknown $end
$var tri1 1 0 devclrn $end
$var tri1 1 1 devpor $end
$var tri1 1 2 devoe $end
$var wire 1 3 led[0]~output_o $end
$var wire 1 4 led[1]~output_o $end
$var wire 1 5 led[2]~output_o $end
$var wire 1 6 led[3]~output_o $end
$var wire 1 7 led[4]~output_o $end
$var wire 1 8 led[5]~output_o $end
$var wire 1 9 led[6]~output_o $end
$var wire 1 : led[7]~output_o $end
$var wire 1 ; led0[8]~output_o $end
$var wire 1 < led0[9]~output_o $end
$var wire 1 = sw[0]~input_o $end
$var wire 1 > sw7~input_o $end
$var wire 1 ? led~0_combout $end
$var wire 1 @ sw[1]~input_o $end
$var wire 1 A led~1_combout $end
$var wire 1 B sw[2]~input_o $end
$var wire 1 C led~2_combout $end
$var wire 1 D sw[3]~input_o $end
$var wire 1 E led~3_combout $end
$var wire 1 F led~4_combout $end
$var wire 1 G led~5_combout $end
$upscope $end
$upscope $end
$enddefinitions $end
#0
$dumpvars
b0 !
0"
0*
0)
0(
0'
0&
0%
0$
0#
0,
0+
0-
1.
x/
10
11
12
03
04
05
06
07
08
09
0:
0;
0<
0=
0>
0?
0@
0A
0B
0C
0D
0E
0F
0G
$end
#25000
1"
1>
#50000
b1 !
0"
1=
0>
1A
14
1)
#75000
1"
1>
1?
13
1*
#100000
b11 !
b10 !
0"
0=
1@
0>
1C
0A
0?
03
04
15
1(
0)
0*
#125000
1"
1>
1A
14
1)
#150000
b11 !
0"
1=
0>
#175000
1"
1>
1E
0C
0A
1?
13
04
05
16
1'
0(
0)
1*
#200000
b111 !
b101 !
b100 !
0"
0=
0@
1B
0>
0?
03
0*
#225000
1"
1>
1C
15
1(
#250000
b101 !
0"
1=
0>
0C
1A
14
05
0(
1)
#275000
1"
1>
1C
1?
13
15
1(
1*
#300000
b111 !
b110 !
0"
0=
1@
0>
0A
0?
03
04
0)
0*
#325000
1"
1>
1F
0E
0C
1A
14
05
06
17
1&
0'
0(
1)
#350000
b111 !
0"
1=
0>
0F
1E
1C
15
16
07
0&
1'
1(
#375000
1"
1>
1F
0E
0A
1?
13
04
06
17
1&
0'
0)
1*
#400000
b1111 !
b1011 !
b1001 !
b1000 !
0"
0=
0@
0B
1D
0>
0C
0?
03
05
0(
0*
#425000
1"
1>
1E
16
1'
#450000
b1001 !
0"
1=
0>
0E
1A
14
06
0'
1)
#475000
1"
1>
1E
1?
13
16
1'
1*
#500000
b1011 !
b1010 !
0"
0=
1@
0>
0E
1C
0A
0?
03
04
15
06
0'
1(
0)
0*
#525000
1"
1>
1E
1A
14
16
1'
1)
#550000
b1011 !
0"
1=
0>
0E
06
0'
#575000
1"
1>
1G
0F
0C
0A
1?
13
04
05
07
18
1%
0&
0(
0)
1*
#600000
b1111 !
b1101 !
b1100 !
0"
0=
0@
1B
0>
0G
1F
1E
0?
03
16
17
08
0%
1&
1'
0*
#625000
1"
1>
1G
0F
0E
1C
15
06
07
18
1%
0&
0'
1(
#650000
b1101 !
0"
1=
0>
0G
1F
1E
0C
1A
14
05
16
17
08
0%
1&
1'
0(
1)
#675000
1"
1>
1G
0F
0E
1C
1?
13
15
06
07
18
1%
0&
0'
1(
1*
#700000
b1111 !
b1110 !
0"
0=
1@
0>
0G
1F
1E
0A
0?
03
04
16
17
08
0%
1&
1'
0)
0*
#725000
1"
1>
1G
0F
0C
1A
14
05
07
18
1%
0&
0(
1)
#750000
b1111 !
0"
1=
0>
0G
1F
1C
15
17
08
0%
1&
1(
#775000
1"
1>
1G
0F
0A
1?
13
04
07
18
1%
0&
0)
1*
#800000
b111 !
b11 !
b1 !
b0 !
0"
0=
0@
0B
0D
0>
0G
0E
0C
0?
03
05
06
08
0%
0'
0(
0*
#825000
1"
1>
#850000
b1 !
0"
1=
0>
1A
14
1)
#875000
1"
1>
1?
13
1*
#900000
b11 !
b10 !
0"
0=
1@
0>
1C
0A
0?
03
04
15
1(
0)
0*
#925000
1"
1>
1A
14
1)
#950000
b11 !
0"
1=
0>
#975000
1"
1>
1E
0C
0A
1?
13
04
05
16
1'
0(
0)
1*
