lab1_1/simulation/qsim/lab1_1.msim.vcd
$comment
	File created using the following command:
		vcd file lab1_1.msim.vcd -direction
$end
$date
	Fri Feb 22 13:10:28 2019
$end
$version
	ModelSim Version 10.5b
$end
$timescale
	1ps
$end

$scope module lab1_1_vlg_vec_tst $end
$var reg 1 ! a0 $end
$var reg 1 " a1 $end
$var reg 1 # b0 $end
$var reg 1 $ b1 $end
$var wire 1 % eq $end

$scope module i1 $end
$var wire 1 & gnd $end
$var wire 1 ' vcc $end
$var wire 1 ( unknown $end
$var tri1 1 ) devclrn $end
$var tri1 1 * devpor $end
$var tri1 1 + devoe $end
$var wire 1 , eq~output_o $end
$var wire 1 - a0~input_o $end
$var wire 1 . b0~input_o $end
$var wire 1 / a1~input_o $end
$var wire 1 0 b1~input_o $end
$var wire 1 1 eq~0_combout $end
$upscope $end
$upscope $end
$enddefinitions $end
#0
$dumpvars
0!
0"
0#
0$
1%
0&
1'
x(
1)
1*
1+
1,
0-
0.
0/
00
01
$end
#40000
1$
10
11
0,
0%
#80000
1#
0$
1.
00
#120000
1$
10
#160000
1"
0#
0$
1/
0.
00
#200000
1$
10
01
1,
1%
#240000
1#
0$
1.
00
11
0,
0%
#280000
1$
10
#320000
1!
0"
0#
0$
1-
0/
0.
00
#360000
1$
10
#400000
1#
0$
1.
00
01
1,
1%
#440000
1$
10
11
0,
0%
#480000
1"
0#
0$
1/
0.
00
#520000
1$
10
#560000
1#
0$
1.
00
#600000
1$
10
01
1,
1%
#640000
0!
0"
0#
0$
0-
0/
0.
00
#680000
1$
10
11
0,
0%
#720000
1#
0$
1.
00
#760000
1$
10
#800000
1"
0#
0$
1/
0.
00
#840000
1$
10
01
1,
1%
#880000
1#
0$
1.
00
11
0,
0%
#920000
1$
10
#960000
1!
0"
0#
0$
1-
0/
0.
00
