lab3_3/simulation/qsim/lab3_3.msim.vcd
$comment
	File created using the following command:
		vcd file lab3_3.msim.vcd -direction
$end
$date
	Thu Apr 18 04:58:15 2019
$end
$version
	ModelSim Version 10.5b
$end
$timescale
	1ps
$end

$scope module lab3_3_vlg_vec_tst $end
$var reg 1 ! aset $end
$var reg 1 " clk $end
$var reg 4 # din [3:0] $end
$var reg 1 $ dir $end
$var reg 1 % load $end
$var reg 1 & sclrr $end
$var wire 1 ' ena $end
$var wire 1 ( led [3] $end
$var wire 1 ) led [2] $end
$var wire 1 * led [1] $end
$var wire 1 + led [0] $end
$var wire 1 , led0 [9] $end
$var wire 1 - led0 [8] $end
$var wire 1 . led0 [7] $end
$var wire 1 / led0 [6] $end
$var wire 1 0 led0 [5] $end
$var wire 1 1 led0 [4] $end

$scope module i1 $end
$var wire 1 2 gnd $end
$var wire 1 3 vcc $end
$var wire 1 4 unknown $end
$var tri1 1 5 devclrn $end
$var tri1 1 6 devpor $end
$var tri1 1 7 devoe $end
$var wire 1 8 led[0]~output_o $end
$var wire 1 9 led[1]~output_o $end
$var wire 1 : led[2]~output_o $end
$var wire 1 ; led[3]~output_o $end
$var wire 1 < ena~output_o $end
$var wire 1 = led0[4]~output_o $end
$var wire 1 > led0[5]~output_o $end
$var wire 1 ? led0[6]~output_o $end
$var wire 1 @ led0[7]~output_o $end
$var wire 1 A led0[8]~output_o $end
$var wire 1 B led0[9]~output_o $end
$var wire 1 C clk~input_o $end
$var wire 1 D load~input_o $end
$var wire 1 E din[0]~input_o $end
$var wire 1 F aset~input_o $end
$var wire 1 G sclrr~input_o $end
$var wire 1 H cnt2~0_combout $end
$var wire 1 I Add0~53_sumout $end
$var wire 1 J Equal0~0_combout $end
$var wire 1 K Equal0~1_combout $end
$var wire 1 L Equal0~2_combout $end
$var wire 1 M Equal0~3_combout $end
$var wire 1 N Equal0~4_combout $end
$var wire 1 O Add0~54 $end
$var wire 1 P Add0~57_sumout $end
$var wire 1 Q Add0~58 $end
$var wire 1 R Add0~61_sumout $end
$var wire 1 S Add0~62 $end
$var wire 1 T Add0~65_sumout $end
$var wire 1 U Add0~66 $end
$var wire 1 V Add0~69_sumout $end
$var wire 1 W Add0~70 $end
$var wire 1 X Add0~73_sumout $end
$var wire 1 Y Add0~74 $end
$var wire 1 Z Add0~77_sumout $end
$var wire 1 [ Add0~78 $end
$var wire 1 \ Add0~81_sumout $end
$var wire 1 ] Add0~82 $end
$var wire 1 ^ Add0~85_sumout $end
$var wire 1 _ Add0~86 $end
$var wire 1 ` Add0~89_sumout $end
$var wire 1 a Add0~90 $end
$var wire 1 b Add0~93_sumout $end
$var wire 1 c Add0~94 $end
$var wire 1 d Add0~97_sumout $end
$var wire 1 e Add0~98 $end
$var wire 1 f Add0~29_sumout $end
$var wire 1 g Add0~30 $end
$var wire 1 h Add0~33_sumout $end
$var wire 1 i Add0~34 $end
$var wire 1 j Add0~37_sumout $end
$var wire 1 k Add0~38 $end
$var wire 1 l Add0~41_sumout $end
$var wire 1 m Add0~42 $end
$var wire 1 n Add0~45_sumout $end
$var wire 1 o Add0~46 $end
$var wire 1 p Add0~49_sumout $end
$var wire 1 q Add0~50 $end
$var wire 1 r Add0~5_sumout $end
$var wire 1 s Add0~6 $end
$var wire 1 t Add0~9_sumout $end
$var wire 1 u Add0~10 $end
$var wire 1 v Add0~13_sumout $end
$var wire 1 w Add0~14 $end
$var wire 1 x Add0~17_sumout $end
$var wire 1 y Add0~18 $end
$var wire 1 z Add0~21_sumout $end
$var wire 1 { Add0~22 $end
$var wire 1 | Add0~25_sumout $end
$var wire 1 } Add0~26 $end
$var wire 1 ~ Add0~1_sumout $end
$var wire 1 !! cnt2[0]~1_combout $end
$var wire 1 "! cnt2~2_combout $end
$var wire 1 #! din[1]~input_o $end
$var wire 1 $! dir~input_o $end
$var wire 1 %! cnt2~3_combout $end
$var wire 1 &! din[2]~input_o $end
$var wire 1 '! Add1~0_combout $end
$var wire 1 (! cnt2~4_combout $end
$var wire 1 )! din[3]~input_o $end
$var wire 1 *! cnt2~5_combout $end
$var wire 1 +! cnt2~6_combout $end
$var wire 1 ,! cnt1 [24] $end
$var wire 1 -! cnt1 [23] $end
$var wire 1 .! cnt1 [22] $end
$var wire 1 /! cnt1 [21] $end
$var wire 1 0! cnt1 [20] $end
$var wire 1 1! cnt1 [19] $end
$var wire 1 2! cnt1 [18] $end
$var wire 1 3! cnt1 [17] $end
$var wire 1 4! cnt1 [16] $end
$var wire 1 5! cnt1 [15] $end
$var wire 1 6! cnt1 [14] $end
$var wire 1 7! cnt1 [13] $end
$var wire 1 8! cnt1 [12] $end
$var wire 1 9! cnt1 [11] $end
$var wire 1 :! cnt1 [10] $end
$var wire 1 ;! cnt1 [9] $end
$var wire 1 <! cnt1 [8] $end
$var wire 1 =! cnt1 [7] $end
$var wire 1 >! cnt1 [6] $end
$var wire 1 ?! cnt1 [5] $end
$var wire 1 @! cnt1 [4] $end
$var wire 1 A! cnt1 [3] $end
$var wire 1 B! cnt1 [2] $end
$var wire 1 C! cnt1 [1] $end
$var wire 1 D! cnt1 [0] $end
$var wire 1 E! cnt2 [3] $end
$var wire 1 F! cnt2 [2] $end
$var wire 1 G! cnt2 [1] $end
$var wire 1 H! cnt2 [0] $end
$upscope $end
$upscope $end
$enddefinitions $end
#0
$dumpvars
0!
0"
b1101 #
1$
0%
1&
0'
0+
0*
0)
0(
01
00
0/
0.
0-
0,
02
13
x4
15
16
17
08
09
0:
0;
0<
0=
0>
0?
0@
0A
0B
0C
0D
1E
0F
1G
0H
1I
1J
1K
0L
1M
1N
0O
0P
0Q
0R
0S
0T
0U
0V
0W
0X
0Y
0Z
0[
0\
0]
0^
0_
0`
0a
0b
0c
0d
0e
0f
0g
0h
0i
0j
0k
0l
0m
0n
0o
0p
0q
0r
0s
0t
0u
0v
0w
0x
0y
0z
0{
0|
0}
0~
1!!
0"!
0#!
1$!
0%!
1&!
1'!
0(!
1)!
0*!
1+!
0D!
0C!
0B!
0A!
0@!
0?!
0>!
0=!
0<!
0;!
0:!
09!
08!
07!
06!
05!
04!
03!
02!
01!
00!
0/!
0.!
0-!
0,!
0H!
0G!
0F!
0E!
$end
#10000
1"
1C
1D!
1E!
1;
1O
1*!
1(
0I
1P
#20000
1!
0"
1F
0C
1"!
0!!
1H
#30000
1"
1C
1C!
0D!
0O
1Q
1I
0P
0Q
1P
1R
0R
#40000
0"
0C
#50000
1"
1C
1D!
1L
1O
0I
1Q
1!!
0N
0P
1<
1'
1R
#60000
0"
0C
#70000
1"
1C
0C!
0D!
1H!
18
0L
0O
0Q
1+
1I
1P
1%!
0H
0!!
1N
0P
0R
0<
0'
#80000
0&
0"
0G
0C
0"!
0%!
#90000
1"
1C
1D!
1O
0I
1P
#100000
0"
0C
#110000
1"
1C
1C!
0D!
0O
1Q
1I
0P
0Q
1P
1R
0R
#120000
0"
0C
#130000
1"
1C
1D!
1L
1O
0I
1Q
1!!
0N
0P
1<
1'
1R
0+!
#140000
0"
0C
#150000
1&
1"
1G
1C
1"!
1+!
1%!
0C!
0D!
0E!
0H!
08
0;
0L
0O
0Q
0*!
0(
0+
1I
1P
0%!
1H
0!!
1N
0P
0R
0+!
0<
0'
#160000
0"
0C
#170000
1"
1C
1D!
1O
0I
1P
#180000
0"
0C
#190000
1"
1C
1C!
0D!
0O
1Q
1I
0P
0Q
1P
1R
0R
#200000
0"
0C
#210000
1%
1"
1D
1C
1(!
1D!
1L
1O
0I
1Q
1!!
0N
0P
1<
1'
1R
1+!
#220000
0"
0C
#230000
1"
1C
0C!
0D!
1E!
1F!
1H!
18
1:
1;
0L
0O
0Q
0'!
1(
1)
1+
1I
1P
0!!
1N
0P
0R
0<
0'
#240000
0"
0C
#250000
0%
1"
0D
1C
1*!
1%!
0H
1D!
1O
0I
1P
#260000
0"
0C
#270000
1"
1C
1C!
0D!
0O
1Q
1I
0P
0Q
1P
1R
0R
#280000
0"
0C
#290000
1"
1C
1D!
1L
1O
0I
1Q
1!!
0N
0P
1<
1'
1R
#300000
0"
0C
#310000
1"
1C
0C!
0D!
1G!
0H!
08
19
0L
0O
0Q
1*
0+
1I
1P
1H
0!!
1N
0P
0R
0<
0'
#320000
0"
0C
#330000
1"
1C
1D!
1O
0I
1P
#340000
0"
0C
#350000
1"
1C
1C!
0D!
0O
1Q
1I
0P
0Q
1P
1R
0R
#360000
0"
0C
#370000
1"
1C
1D!
1L
1O
0I
1Q
1!!
0N
0P
1<
1'
1R
#380000
0"
0C
#390000
1"
1C
0C!
0D!
1H!
18
0L
0O
0Q
0*!
1'!
1+
1I
1P
0%!
0H
0!!
1N
0P
0R
0(!
0+!
0<
0'
1+!
#400000
0"
0C
#410000
1"
1C
1D!
1O
0I
1P
#420000
0"
0C
#430000
1"
1C
1C!
0D!
0O
1Q
1I
0P
0Q
1P
1R
0R
#440000
0"
0C
#450000
1"
1C
1D!
1L
1O
0I
1Q
1!!
0N
0P
1<
1'
1R
0+!
#460000
0"
0C
#470000
1"
1C
0C!
0D!
0E!
0F!
0G!
0H!
08
09
0:
0;
0L
0O
0Q
0(
0)
0*
0+
1I
1P
1H
0!!
1N
0P
0R
0<
0'
#480000
0"
0C
#490000
1"
1C
1D!
1O
0I
1P
#500000
0"
0C
#510000
1"
1C
1C!
0D!
0O
1Q
1I
0P
0Q
1P
1R
0R
#520000
0"
0C
#530000
1"
1C
1D!
1L
1O
0I
1Q
1!!
0N
0P
1<
1'
1R
#540000
0"
0C
#550000
1"
1C
0C!
0D!
1H!
18
0L
0O
0Q
1+
1I
1P
1%!
0H
0!!
1N
0P
0R
0<
0'
#560000
0"
0C
#570000
1"
1C
1D!
1O
0I
1P
#580000
0"
0C
#590000
1"
1C
1C!
0D!
0O
1Q
1I
0P
0Q
1P
1R
0R
#600000
0"
0C
#610000
1"
1C
1D!
1L
1O
0I
1Q
1!!
0N
0P
1<
1'
1R
#620000
0"
0C
#630000
1"
1C
0C!
0D!
1G!
0H!
08
19
0L
0O
0Q
1*
0+
1I
1P
1H
0!!
1N
0P
0R
0<
0'
#640000
0"
0C
#650000
1"
1C
1D!
1O
0I
1P
#660000
0"
0C
#670000
0$
1"
0$!
1C
0%!
1C!
0D!
0O
1Q
1I
0P
0Q
1P
1R
0R
#680000
0"
0C
#690000
1"
1C
1D!
1L
1O
0I
1Q
1!!
0N
0P
1<
1'
1R
#700000
0"
0C
#710000
1"
1C
0C!
0D!
0G!
1H!
18
09
0L
0O
0Q
0*
1+
1I
1P
0H
0!!
1N
0P
0R
0<
0'
#720000
0"
0C
#730000
1"
1C
1D!
1O
0I
1P
#740000
0"
0C
#750000
1"
1C
1C!
0D!
0O
1Q
1I
0P
0Q
1P
1R
0R
#760000
0"
0C
#770000
1"
1C
1D!
1L
1O
0I
1Q
1!!
0N
0P
1<
1'
1R
#780000
0"
0C
#790000
1"
1C
0C!
0D!
0H!
08
0L
0O
0Q
1*!
0'!
0+
1I
1P
1%!
1H
0!!
1N
0P
0R
1(!
1+!
0<
0'
0+!
#800000
0"
0C
#810000
1"
1C
1D!
1O
0I
1P
#820000
0"
0C
#830000
1"
1C
1C!
0D!
0O
1Q
1I
0P
0Q
1P
1R
0R
#840000
0"
0C
#850000
1"
1C
1D!
1L
1O
0I
1Q
1!!
0N
0P
1<
1'
1R
1+!
#860000
0"
0C
#870000
1"
1C
0C!
0D!
1E!
1F!
1G!
1H!
18
19
1:
1;
0L
0O
0Q
1(
1)
1*
1+
1I
1P
0H
0!!
1N
0P
0R
0<
0'
#880000
0"
0C
#890000
1"
1C
1D!
1O
0I
1P
#900000
0"
0C
#910000
1"
1C
1C!
0D!
0O
1Q
1I
0P
0Q
1P
1R
0R
#920000
0"
0C
#930000
1"
1C
1D!
1L
1O
0I
1Q
1!!
0N
0P
1<
1'
1R
#940000
0"
0C
#950000
1"
1C
0C!
0D!
0H!
08
0L
0O
0Q
0+
1I
1P
0%!
1H
0!!
1N
0P
0R
0<
0'
#960000
0"
0C
#970000
1"
1C
1D!
1O
0I
1P
#980000
0"
0C
#990000
1"
1C
1C!
0D!
0O
1Q
1I
0P
0Q
1P
1R
0R
